<?xml version="1.0" encoding="utf-8"?>
<!-- Generator: Adobe Illustrator 21.1.0, SVG Export Plug-In . SVG Version: 6.00 Build 0)  -->
<svg version="1.1" id="Layer_1" xmlns="http://www.w3.org/2000/svg" xmlns:xlink="http://www.w3.org/1999/xlink" x="0px" y="0px"
	 viewBox="0 0 24.6 24.6" style="enable-background:new 0 0 24.6 24.6;" xml:space="preserve">
<style type="text/css">
	.st0{fill:#FF3333;}
</style>
<path class="st0" d="M21.7,2.4l-3.9-0.9c-0.9-0.2-1.8,0.3-2.2,1.1l-1.8,4.3c-0.3,0.8-0.1,1.7,0.5,2.3l1.7,1.4
	c-1.2,2.2-3.1,4-5.2,5.2l-1.4-1.7c-0.5-0.7-1.5-0.9-2.3-0.5l-4.3,1.8c-0.9,0.3-1.3,1.3-1.1,2.2l0.9,3.9c0.2,0.9,1,1.5,1.8,1.5
	C14.6,23.1,23,14.8,23,4.4C23.2,3.4,22.6,2.6,21.7,2.4z M4.6,20.9l-0.9-3.8l4.1-1.7l2.4,2.9c4.2-1.9,6.3-4.1,8.3-8.3l-2.9-2.4
	l1.7-4.1l3.8,0.9C21.2,13.5,13.7,20.9,4.6,20.9L4.6,20.9z"/>
</svg>
