[{"name":"Fairhaven Tower 5","abbrev":"FF"},
{"name":"Fine Arts Building","abbrev":"FI"},
{"name":"Service Storage Shed","abbrev":"SE"},
{"name":"Engineering Storage","abbrev":"EU"},
{"name":"Environmental Studies","abbrev":"ES", "lat" : "48.733416", "lng" : "-122.485463"},
{"name":"Marshalling Yard","abbrev":"MY"},
{"name":"Upholstery Shop","abbrev":"US"},
{"name":"Parks Hall","abbrev":"PH"},
{"name":"College Hall","abbrev":"CH"},
{"name":"Arts Annex","abbrev":"AA"},
{"name":"Athletic Storage Facility","abbrev":""},
{"name":"800-802 Indian Street (Miller) (R08)","abbrev":"R08"},
{"name":"Baseball Field Storage","abbrev":"SB"},
{"name":"Fairhaven Playground Building","abbrev":"FV"},
{"name":"Birnam Wood Building 6","abbrev":"BV"},
{"name":"Alumni House","abbrev":"AL"},
{"name":"Ridgeway Commons","abbrev":"RC"},
{"name":"Fairhaven Tower 8","abbrev":"FO"},
{"name":"Highland Hall","abbrev":"HI"},
{"name":"Birnam Wood Building 1","abbrev":"BA"},
{"name":"Bond Hall","abbrev":"BH"},
{"name":"Ridgeway Delta","abbrev":"RD"},
{"name":"Ridgeway Kappa","abbrev":"RK"},
{"name":"Bookstore","abbrev":"BK"},
{"name":"Biology Greenhouse","abbrev":"BG"},
{"name":"Academic Instructional Center","abbrev":"AI"},
{"name":"Performing Arts Center","abbrev":"PA"},
{"name":"Track Bunker","abbrev":"TB"},
{"name":"804-806 Indian Terrace (Bame) (R07)","abbrev":"R07"},
{"name":"High Street Hall","abbrev":"HS"},
{"name":"Academic Instructional West","abbrev":"AW"},
{"name":"Fairhaven Cabin - South","abbrev":"FS"},
{"name":"Canada House","abbrev":"CA"},
{"name":"Fairhaven Tower 9","abbrev":"FJ"},
{"name":"Fairhaven Tower 4","abbrev":"FE"},
{"name":"SMATE","abbrev":"SL"},
{"name":"408 20TH Street (Fassler) (R02)","abbrev":"R02"},
{"name":"Birnam Wood Laundry","abbrev":"BL"},
{"name":"Ridgeway Beta","abbrev":"RB"},
{"name":"Nash Hall","abbrev":"NH"},
{"name":"Arntzen Hall","abbrev":"AH", "lat" : "48.733857", "lng" : "-122.485581"},
{"name":"Ridgeway Alpha","abbrev":"RA"},
{"name":"Fairhaven Tower 12","abbrev":"FM"},
{"name":"Fairhaven Tower 6","abbrev":"FQ"},
{"name":"Miscellaneous","abbrev":"EQ"},
{"name":"Maintenance Warehouse","abbrev":"MW"},
{"name":"Morse Hall Chemistry Building","abbrev":"CB"},
{"name":"Physical Plant","abbrev":"PP"},
{"name":"Fairhaven Tower 10","abbrev":"FK"},
{"name":"914 24TH Street (Graham) (R01)","abbrev":"R01"},
{"name":"Bus Shelter","abbrev":"BS"},
{"name":"Fairhaven Tower 2","abbrev":"FP"},
{"name":"Armory","abbrev":"AR"},
{"name":"Higginson Hall","abbrev":"HG"},
{"name":"Ridgeway Sigma","abbrev":"RS"},
{"name":"Fairhaven Bridge","abbrev":"FU"},
{"name":"Maintenance Fuel Shed","abbrev":"MF"},
{"name":"Birnam Wood Community","abbrev":"BC"},
{"name":"Buchanan Towers","abbrev":"BT"},
{"name":"Humanities Building","abbrev":"HU"},
{"name":"Birnam Wood Building 2","abbrev":"BD"},
{"name":"Birnam Wood Building 3","abbrev":"BE"},
{"name":"Biology","abbrev":"BI"},
{"name":"Wilson Library","abbrev":"WL"},
{"name":"Birnam Wood Building 4","abbrev":"BJ"},
{"name":"Archives Building","abbrev":"AB"},
{"name":"818 Indian Terrace (Casey A) (R09)","abbrev":"R09"},
{"name":"Ridgeway Omega","abbrev":"RO"},
{"name":"Track Equipment Building","abbrev":"TE"},
{"name":"Fairhaven Tower 3","abbrev":"FD"},
{"name":"Antenna Building","abbrev":"AN"},
{"name":"812 Indian Terrace (Casey B) (R10)","abbrev":"R10"},
{"name":"Birnam Wood Building 7","abbrev":"BY"},
{"name":"Fairhaven College (FA/FC)","abbrev":"FA/FC"},
{"name":"Fairhaven Tower 1","abbrev":"FB"},
{"name":"Ridgeway Gamma","abbrev":"RG"},
{"name":"Tennis Equipment Building","abbrev":"TD"},
{"name":"Birnam Wood Building 5","abbrev":"BU"},
{"name":"Haggard Hall","abbrev":"HH"},
{"name":"Ross Engineering Technology","abbrev":"ET"},
{"name":"Viking Commons","abbrev":"VC"},
{"name":"Recycle Center","abbrev":"RE"},
{"name":"Armory Motor Pool Shed","abbrev":"AS"},
{"name":"808 Indian Street (Whitfield) (R06)","abbrev":"R06"},
{"name":"Fraser Hall","abbrev":"FR"},
{"name":"Miller Hall","abbrev":"MH"},
{"name":"Maintenance Garage","abbrev":"MG"},
{"name":"Fairhaven Tower 7","abbrev":"FH"},
{"name":"Marshalling Storage","abbrev":"MS"},
{"name":"Edens Hall North","abbrev":"EN"},
{"name":"Communications Facility","abbrev":"CF"},
{"name":"Commissary","abbrev":"CM"},
{"name":"404 24TH Street (Hacker) (R03)","abbrev":"R03"},
{"name":"Mathes Hall","abbrev":"MA"},
{"name":"Fairhaven Tower 11","abbrev":"FL"},
{"name":"Steam Plant","abbrev":"SP"},
{"name":"Carver","abbrev":"CV"},
{"name":"Old Main","abbrev":"OM"},
{"name":"Viking Union","abbrev":"VU"},
{"name":"Administrative Services Center","abbrev":"AC"},
{"name":"Wade King Recreation Center","abbrev":"SV"},
{"name":"Edens Hall","abbrev":"EH"},
{"name":"Campus Services","abbrev":"CS"}]