{
"type": "FeatureCollection",
"crs": { "type": "name", "properties": { "name": "urn:ogc:def:crs:OGC:1.3:CRS84" } },
                                                                                
"features": [
{ "type": "Feature", "properties": { "name": "Alumni House", "abv": "AL", "photo_url_1": "http:\/\/www.wwu.edu\/map\/assets\/images\/Buildings\/", "photo_url_2": "http:\/\/www.wwu.edu\/map\/assets\/images\/Buildings\/AL.jpg", "page_url_1": "http:\/\/www.wwu.edu\/map\/bldgs\/", "page_url_2": "http:\/\/www.wwu.edu\/map\/bldgs\/al.shtml", "depts": null, "food": null, "services": null, "Notes": null }, "geometry": null },
{ "type": "Feature", "properties": { "name": "Armory", "abv": "AR", "photo_url_1": "http:\/\/www.wwu.edu\/map\/assets\/images\/Buildings\/", "photo_url_2": "http:\/\/www.wwu.edu\/map\/assets\/images\/Buildings\/AR.jpg", "page_url_1": "http:\/\/www.wwu.edu\/map\/bldgs\/", "page_url_2": "http:\/\/www.wwu.edu\/map\/bldgs\/ar.shtml", "depts": null, "food": null, "services": null, "Notes": null }, "geometry": null },
{ "type": "Feature", "properties": { "name": "Canada House", "abv": "CA", "photo_url_1": "http:\/\/www.wwu.edu\/map\/assets\/images\/Buildings\/", "photo_url_2": "http:\/\/www.wwu.edu\/map\/assets\/images\/Buildings\/CA.jpg", "page_url_1": "http:\/\/www.wwu.edu\/map\/bldgs\/", "page_url_2": "http:\/\/www.wwu.edu\/map\/bldgs\/ca.shtml", "depts": null, "food": null, "services": null, "Notes": null }, "geometry": null },
{ "type": "Feature", "properties": { "name": "Fairhaven Stack ", "abv": "FT", "photo_url_1": "http:\/\/www.wwu.edu\/map\/assets\/images\/Buildings\/", "photo_url_2": "http:\/\/www.wwu.edu\/map\/assets\/images\/Buildings\/FT.jpg", "page_url_1": "http:\/\/www.wwu.edu\/map\/bldgs\/", "page_url_2": "http:\/\/www.wwu.edu\/map\/bldgs\/ft.shtml", "depts": null, "food": null, "services": null, "Notes": null }, "geometry": null },
{ "type": "Feature", "properties": { "name": "Ridgeway Delta", "abv": "RD", "photo_url_1": "http:\/\/www.wwu.edu\/map\/assets\/images\/Buildings\/", "photo_url_2": "http:\/\/www.wwu.edu\/map\/assets\/images\/Buildings\/RD.jpg", "page_url_1": "http:\/\/www.wwu.edu\/map\/bldgs\/", "page_url_2": "http:\/\/www.wwu.edu\/map\/bldgs\/rd.shtml", "depts": null, "food": null, "services": null, "Notes": null }, "geometry": null },
{ "type": "Feature", "properties": { "name": "Miller Hall", "abv": "MH", "photo_url_1": "http:\/\/www.wwu.edu\/map\/assets\/images\/Buildings\/", "photo_url_2": "http:\/\/www.wwu.edu\/map\/assets\/images\/Buildings\/MH.jpg", "page_url_1": "http:\/\/www.wwu.edu\/map\/bldgs\/", "page_url_2": "http:\/\/www.wwu.edu\/map\/bldgs\/mh.shtml", "depts": null, "food": null, "services": null, "Notes": null }, "geometry": null },
{ "type": "Feature", "properties": { "name": "Misc. Building", "abv": "misc", "photo_url_1": "http:\/\/www.wwu.edu\/map\/assets\/images\/Buildings\/", "photo_url_2": "http:\/\/www.wwu.edu\/map\/assets\/images\/Buildings\/WWU.jpg", "page_url_1": "http:\/\/www.wwu.edu\/map\/bldgs\/", "page_url_2": "http:\/\/www.wwu.edu\/map\/bldgs\/misc.shtml", "depts": null, "food": null, "services": null, "Notes": "Misc - CUSTOM Photo URL: http:\/\/www.wwu.edu\/map\/assets\/images\/Buildings\/WWU.jpg" }, "geometry": null },
{ "type": "Feature", "properties": { "name": "Birnam Wood ", "abv": "BW", "photo_url_1": "http:\/\/www.wwu.edu\/map\/assets\/images\/Buildings\/", "photo_url_2": "http:\/\/www.wwu.edu\/map\/assets\/images\/Buildings\/BW.jpg", "page_url_1": "http:\/\/www.wwu.edu\/map\/bldgs\/", "page_url_2": "http:\/\/www.wwu.edu\/map\/bldgs\/bw.shtml", "depts": null, "food": null, "services": null, "Notes": null }, "geometry": null },
{ "type": "Feature", "properties": { "name": "Bookstore", "abv": "BK", "photo_url_1": "http:\/\/www.wwu.edu\/map\/assets\/images\/Buildings\/", "photo_url_2": "http:\/\/www.wwu.edu\/map\/assets\/images\/Buildings\/BK.jpg", "page_url_1": "http:\/\/www.wwu.edu\/map\/bldgs\/", "page_url_2": "http:\/\/www.wwu.edu\/map\/bldgs\/bk.shtml", "depts": null, "food": null, "services": null, "Notes": null }, "geometry": null },
{ "type": "Feature", "properties": { "name": "Academic Instructional Center - East", "abv": "AI", "photo_url_1": "http:\/\/www.wwu.edu\/map\/assets\/images\/Buildings\/", "photo_url_2": "http:\/\/www.wwu.edu\/map\/assets\/images\/Buildings\/AI.jpg", "page_url_1": "http:\/\/www.wwu.edu\/map\/bldgs\/", "page_url_2": "http:\/\/www.wwu.edu\/map\/bldgs\/ai.shtml", "depts": null, "food": null, "services": null, "Notes": null }, "geometry": null },
{ "type": "Feature", "properties": { "name": "Nash Hall", "abv": "NA", "photo_url_1": "http:\/\/www.wwu.edu\/map\/assets\/images\/Buildings\/", "photo_url_2": "http:\/\/www.wwu.edu\/map\/assets\/images\/Buildings\/NA.jpg", "page_url_1": "http:\/\/www.wwu.edu\/map\/bldgs\/", "page_url_2": "http:\/\/www.wwu.edu\/map\/bldgs\/na.shtml", "depts": null, "food": null, "services": null, "Notes": null }, "geometry": null },
{ "type": "Feature", "properties": { "name": "Mathes Hall", "abv": "MA", "photo_url_1": "http:\/\/www.wwu.edu\/map\/assets\/images\/Buildings\/", "photo_url_2": "http:\/\/www.wwu.edu\/map\/assets\/images\/Buildings\/MA.jpg", "page_url_1": "http:\/\/www.wwu.edu\/map\/bldgs\/", "page_url_2": "http:\/\/www.wwu.edu\/map\/bldgs\/ma.shtml", "depts": null, "food": null, "services": null, "Notes": null }, "geometry": null },
{ "type": "Feature", "properties": { "name": "Higginson Hall", "abv": "HG", "photo_url_1": "http:\/\/www.wwu.edu\/map\/assets\/images\/Buildings\/", "photo_url_2": "http:\/\/www.wwu.edu\/map\/assets\/images\/Buildings\/HG.jpg", "page_url_1": "http:\/\/www.wwu.edu\/map\/bldgs\/", "page_url_2": "http:\/\/www.wwu.edu\/map\/bldgs\/hg.shtml", "depts": null, "food": null, "services": null, "Notes": null }, "geometry": null },
{ "type": "Feature", "properties": { "name": "Admin Services", "abv": "AC", "photo_url_1": "http:\/\/www.wwu.edu\/map\/assets\/images\/Buildings\/", "photo_url_2": "http:\/\/www.wwu.edu\/map\/assets\/images\/Buildings\/AC.jpg", "page_url_1": "http:\/\/www.wwu.edu\/map\/bldgs\/", "page_url_2": "http:\/\/www.wwu.edu\/map\/bldgs\/ac.shtml", "depts": null, "food": null, "services": null, "Notes": null }, "geometry": null },
{ "type": "Feature", "properties": { "name": "Biology", "abv": "BI", "photo_url_1": "http:\/\/www.wwu.edu\/map\/assets\/images\/Buildings\/", "photo_url_2": "http:\/\/www.wwu.edu\/map\/assets\/images\/Buildings\/BI.jpg", "page_url_1": "http:\/\/www.wwu.edu\/map\/bldgs\/", "page_url_2": "http:\/\/www.wwu.edu\/map\/bldgs\/bi.shtml", "depts": null, "food": null, "services": null, "Notes": null }, "geometry": null },
{ "type": "Feature", "properties": { "name": "Morse Hall Chemistry Building", "abv": "CB", "photo_url_1": "http:\/\/www.wwu.edu\/map\/assets\/images\/Buildings\/", "photo_url_2": "http:\/\/www.wwu.edu\/map\/assets\/images\/Buildings\/CB.jpg", "page_url_1": "http:\/\/www.wwu.edu\/map\/bldgs\/", "page_url_2": "http:\/\/www.wwu.edu\/map\/bldgs\/cb.shtml", "depts": null, "food": null, "services": null, "Notes": null }, "geometry": null },
{ "type": "Feature", "properties": { "name": "Fraser Hall", "abv": "FR", "photo_url_1": "http:\/\/www.wwu.edu\/map\/assets\/images\/Buildings\/", "photo_url_2": "http:\/\/www.wwu.edu\/map\/assets\/images\/Buildings\/FR.jpg", "page_url_1": "http:\/\/www.wwu.edu\/map\/bldgs\/", "page_url_2": "http:\/\/www.wwu.edu\/map\/bldgs\/fr.shtml", "depts": null, "food": null, "services": null, "Notes": null }, "geometry": null },
{ "type": "Feature", "properties": { "name": "Carver Gym", "abv": "CV", "photo_url_1": "http:\/\/www.wwu.edu\/map\/assets\/images\/Buildings\/", "photo_url_2": "http:\/\/www.wwu.edu\/map\/assets\/images\/Buildings\/CV.jpg", "page_url_1": "http:\/\/www.wwu.edu\/map\/bldgs\/", "page_url_2": "http:\/\/www.wwu.edu\/map\/bldgs\/cv.shtml", "depts": null, "food": null, "services": null, "Notes": null }, "geometry": null },
{ "type": "Feature", "properties": { "name": "Edens North", "abv": "EN", "photo_url_1": "http:\/\/www.wwu.edu\/map\/assets\/images\/Buildings\/", "photo_url_2": "http:\/\/www.wwu.edu\/map\/assets\/images\/Buildings\/EN.jpg", "page_url_1": "http:\/\/www.wwu.edu\/map\/bldgs\/", "page_url_2": "http:\/\/www.wwu.edu\/map\/bldgs\/en.shtml", "depts": null, "food": null, "services": null, "Notes": null }, "geometry": null },
{ "type": "Feature", "properties": { "name": "Edens Hall", "abv": "EH", "photo_url_1": "http:\/\/www.wwu.edu\/map\/assets\/images\/Buildings\/", "photo_url_2": "http:\/\/www.wwu.edu\/map\/assets\/images\/Buildings\/EH.jpg", "page_url_1": "http:\/\/www.wwu.edu\/map\/bldgs\/", "page_url_2": "http:\/\/www.wwu.edu\/map\/bldgs\/eh.shtml", "depts": null, "food": null, "services": null, "Notes": null }, "geometry": null },
{ "type": "Feature", "properties": { "name": "Birnam Wood Lounge", "abv": "BC", "photo_url_1": "http:\/\/www.wwu.edu\/map\/assets\/images\/Buildings\/", "photo_url_2": "http:\/\/www.wwu.edu\/map\/assets\/images\/Buildings\/BC.jpg", "page_url_1": "http:\/\/www.wwu.edu\/map\/bldgs\/", "page_url_2": "http:\/\/www.wwu.edu\/map\/bldgs\/bc.shtml", "depts": null, "food": null, "services": null, "Notes": null }, "geometry": null },
{ "type": "Feature", "properties": { "name": "Viking Commons", "abv": "VC", "photo_url_1": "http:\/\/www.wwu.edu\/map\/assets\/images\/Buildings\/", "photo_url_2": "http:\/\/www.wwu.edu\/map\/assets\/images\/Buildings\/VC.jpg", "page_url_1": "http:\/\/www.wwu.edu\/map\/bldgs\/", "page_url_2": "http:\/\/www.wwu.edu\/map\/bldgs\/vc.shtml", "depts": null, "food": null, "services": null, "Notes": null }, "geometry": null },
{ "type": "Feature", "properties": { "name": "Peninsula College", "abv": "PCPA", "photo_url_1": "http:\/\/www.wwu.edu\/map\/assets\/images\/Buildings\/", "photo_url_2": null, "page_url_1": null, "page_url_2": "http:\/\/www.pencol.edu\/", "depts": null, "food": null, "services": null, "Notes": "Peninsula College - CUSTOM URL" }, "geometry": null },
{ "type": "Feature", "properties": { "name": "Shannon Pt Marine Center", "abv": "SPMC", "photo_url_1": "http:\/\/www.wwu.edu\/map\/assets\/images\/Buildings\/", "photo_url_2": null, "page_url_1": null, "page_url_2": "http:\/\/www.wwu.edu\/spmc\/", "depts": null, "food": null, "services": null, "Notes": "Shannon Pt Marine Center - CUSTOM URL" }, "geometry": null },
{ "type": "Feature", "properties": { "name": "Poulsbo Marine Science Center", "abv": "PMSC", "photo_url_1": "http:\/\/www.wwu.edu\/map\/assets\/images\/Buildings\/", "photo_url_2": null, "page_url_1": null, "page_url_2": "https:\/\/wp.wwu.edu\/seacenterpoulsbo\/", "depts": null, "food": null, "services": null, "Notes": "Poulsbo Marine Science Center - CUSTOM URL" }, "geometry": null },
{ "type": "Feature", "properties": { "name": "Fairhaven Cabin", "abv": "FS", "photo_url_1": "http:\/\/www.wwu.edu\/map\/assets\/images\/Buildings\/", "photo_url_2": "http:\/\/www.wwu.edu\/map\/assets\/images\/Buildings\/FS.jpg", "page_url_1": "http:\/\/www.wwu.edu\/map\/bldgs\/", "page_url_2": "http:\/\/www.wwu.edu\/map\/bldgs\/fs.shtml", "depts": null, "food": null, "services": null, "Notes": null }, "geometry": null },
{ "type": "Feature", "properties": { "name": "Physical Plant", "abv": "PP", "photo_url_1": "http:\/\/www.wwu.edu\/map\/assets\/images\/Buildings\/", "photo_url_2": "http:\/\/www.wwu.edu\/map\/assets\/images\/Buildings\/PP.jpg", "page_url_1": "http:\/\/www.wwu.edu\/map\/bldgs\/", "page_url_2": "http:\/\/www.wwu.edu\/map\/bldgs\/pp.shtml", "depts": null, "food": null, "services": null, "Notes": null }, "geometry": null },
{ "type": "Feature", "properties": { "name": "Viking Union", "abv": "VU", "photo_url_1": "http:\/\/www.wwu.edu\/map\/assets\/images\/Buildings\/", "photo_url_2": "http:\/\/www.wwu.edu\/map\/assets\/images\/Buildings\/VU.jpg", "page_url_1": "http:\/\/www.wwu.edu\/map\/bldgs\/", "page_url_2": "http:\/\/www.wwu.edu\/map\/bldgs\/vu.shtml", "depts": null, "food": null, "services": null, "Notes": null }, "geometry": null },
{ "type": "Feature", "properties": { "name": "Performing Arts Center", "abv": "PA", "photo_url_1": "http:\/\/www.wwu.edu\/map\/assets\/images\/Buildings\/", "photo_url_2": "http:\/\/www.wwu.edu\/map\/assets\/images\/Buildings\/PA.jpg", "page_url_1": "http:\/\/www.wwu.edu\/map\/bldgs\/", "page_url_2": "http:\/\/www.wwu.edu\/map\/bldgs\/pa.shtml", "depts": null, "food": null, "services": null, "Notes": null }, "geometry": null },
{ "type": "Feature", "properties": { "name": "Wilson Library", "abv": "WL", "photo_url_1": "http:\/\/www.wwu.edu\/map\/assets\/images\/Buildings\/", "photo_url_2": "http:\/\/www.wwu.edu\/map\/assets\/images\/Buildings\/WL.jpg", "page_url_1": "http:\/\/www.wwu.edu\/map\/bldgs\/", "page_url_2": "http:\/\/www.wwu.edu\/map\/bldgs\/wl.shtml", "depts": null, "food": null, "services": null, "Notes": null }, "geometry": null },
{ "type": "Feature", "properties": { "name": "Haggard Hall", "abv": "HH", "photo_url_1": "http:\/\/www.wwu.edu\/map\/assets\/images\/Buildings\/", "photo_url_2": "http:\/\/www.wwu.edu\/map\/assets\/images\/Buildings\/HH.jpg", "page_url_1": "http:\/\/www.wwu.edu\/map\/bldgs\/", "page_url_2": "http:\/\/www.wwu.edu\/map\/bldgs\/hh.shtml", "depts": null, "food": null, "services": null, "Notes": null }, "geometry": null },
{ "type": "Feature", "properties": { "name": "Humanities", "abv": "HU", "photo_url_1": "http:\/\/www.wwu.edu\/map\/assets\/images\/Buildings\/", "photo_url_2": "http:\/\/www.wwu.edu\/map\/assets\/images\/Buildings\/HU.jpg", "page_url_1": "http:\/\/www.wwu.edu\/map\/bldgs\/", "page_url_2": "http:\/\/www.wwu.edu\/map\/bldgs\/hu.shtml", "depts": null, "food": null, "services": null, "Notes": null }, "geometry": null },
{ "type": "Feature", "properties": { "name": "Bond Hall", "abv": "BH", "photo_url_1": "http:\/\/www.wwu.edu\/map\/assets\/images\/Buildings\/", "photo_url_2": "http:\/\/www.wwu.edu\/map\/assets\/images\/Buildings\/BH.jpg", "page_url_1": "http:\/\/www.wwu.edu\/map\/bldgs\/", "page_url_2": "http:\/\/www.wwu.edu\/map\/bldgs\/bh.shtml", "depts": null, "food": null, "services": null, "Notes": null }, "geometry": null },
{ "type": "Feature", "properties": { "name": "Art Annex", "abv": "AA", "photo_url_1": "http:\/\/www.wwu.edu\/map\/assets\/images\/Buildings\/", "photo_url_2": "http:\/\/www.wwu.edu\/map\/assets\/images\/Buildings\/AA.jpg", "page_url_1": "http:\/\/www.wwu.edu\/map\/bldgs\/", "page_url_2": "http:\/\/www.wwu.edu\/map\/bldgs\/aa.shtml", "depts": null, "food": null, "services": null, "Notes": null }, "geometry": null },
{ "type": "Feature", "properties": { "name": "Fine Arts", "abv": "FI", "photo_url_1": "http:\/\/www.wwu.edu\/map\/assets\/images\/Buildings\/", "photo_url_2": "http:\/\/www.wwu.edu\/map\/assets\/images\/Buildings\/FI.jpg", "page_url_1": "http:\/\/www.wwu.edu\/map\/bldgs\/", "page_url_2": "http:\/\/www.wwu.edu\/map\/bldgs\/fi.shtml", "depts": null, "food": null, "services": null, "Notes": null }, "geometry": null },
{ "type": "Feature", "properties": { "name": "Science Lecture", "abv": "SL", "photo_url_1": "http:\/\/www.wwu.edu\/map\/assets\/images\/Buildings\/", "photo_url_2": "http:\/\/www.wwu.edu\/map\/assets\/images\/Buildings\/SL.jpg", "page_url_1": "http:\/\/www.wwu.edu\/map\/bldgs\/", "page_url_2": "http:\/\/www.wwu.edu\/map\/bldgs\/sl.shtml", "depts": null, "food": null, "services": null, "Notes": null }, "geometry": null },
{ "type": "Feature", "properties": { "name": "Steam Plant", "abv": "SP", "photo_url_1": "http:\/\/www.wwu.edu\/map\/assets\/images\/Buildings\/", "photo_url_2": "http:\/\/www.wwu.edu\/map\/assets\/images\/Buildings\/SP.jpg", "page_url_1": "http:\/\/www.wwu.edu\/map\/bldgs\/", "page_url_2": "http:\/\/www.wwu.edu\/map\/bldgs\/sp.shtml", "depts": null, "food": null, "services": null, "Notes": null }, "geometry": null },
{ "type": "Feature", "properties": { "name": "Ross Engineering Technology", "abv": "ET", "photo_url_1": "http:\/\/www.wwu.edu\/map\/assets\/images\/Buildings\/", "photo_url_2": "http:\/\/www.wwu.edu\/map\/assets\/images\/Buildings\/ET.jpg", "page_url_1": "http:\/\/www.wwu.edu\/map\/bldgs\/", "page_url_2": "http:\/\/www.wwu.edu\/map\/bldgs\/et.shtml", "depts": null, "food": null, "services": null, "Notes": null }, "geometry": null },
{ "type": "Feature", "properties": { "name": "College Hall", "abv": "CH", "photo_url_1": "http:\/\/www.wwu.edu\/map\/assets\/images\/Buildings\/", "photo_url_2": "http:\/\/www.wwu.edu\/map\/assets\/images\/Buildings\/CH.jpg", "page_url_1": "http:\/\/www.wwu.edu\/map\/bldgs\/", "page_url_2": "http:\/\/www.wwu.edu\/map\/bldgs\/ch.shtml", "depts": null, "food": null, "services": null, "Notes": null }, "geometry": null },
{ "type": "Feature", "properties": { "name": "High Street Hall", "abv": "HS", "photo_url_1": "http:\/\/www.wwu.edu\/map\/assets\/images\/Buildings\/", "photo_url_2": "http:\/\/www.wwu.edu\/map\/assets\/images\/Buildings\/HS.jpg", "page_url_1": "http:\/\/www.wwu.edu\/map\/bldgs\/", "page_url_2": "http:\/\/www.wwu.edu\/map\/bldgs\/hs.shtml", "depts": null, "food": null, "services": null, "Notes": null }, "geometry": null },
{ "type": "Feature", "properties": { "name": "Highland Hall", "abv": "HI", "photo_url_1": "http:\/\/www.wwu.edu\/map\/assets\/images\/Buildings\/", "photo_url_2": "http:\/\/www.wwu.edu\/map\/assets\/images\/Buildings\/HI.jpg", "page_url_1": "http:\/\/www.wwu.edu\/map\/bldgs\/", "page_url_2": "http:\/\/www.wwu.edu\/map\/bldgs\/hi.shtml", "depts": null, "food": null, "services": null, "Notes": null }, "geometry": null },
{ "type": "Feature", "properties": { "name": "Parks Hall", "abv": "PH", "photo_url_1": "http:\/\/www.wwu.edu\/map\/assets\/images\/Buildings\/", "photo_url_2": "http:\/\/www.wwu.edu\/map\/assets\/images\/Buildings\/PH.jpg", "page_url_1": "http:\/\/www.wwu.edu\/map\/bldgs\/", "page_url_2": "http:\/\/www.wwu.edu\/map\/bldgs\/ph.shtml", "depts": null, "food": null, "services": null, "Notes": null }, "geometry": null },
{ "type": "Feature", "properties": { "name": "Environmental Studies", "abv": "ES", "photo_url_1": "http:\/\/www.wwu.edu\/map\/assets\/images\/Buildings\/", "photo_url_2": "http:\/\/www.wwu.edu\/map\/assets\/images\/Buildings\/ES.jpg", "page_url_1": "http:\/\/www.wwu.edu\/map\/bldgs\/", "page_url_2": "http:\/\/www.wwu.edu\/map\/bldgs\/es.shtml", "depts": null, "food": null, "services": null, "Notes": null }, "geometry": null },
{ "type": "Feature", "properties": { "name": "Communications Facility", "abv": "CF", "photo_url_1": "http:\/\/www.wwu.edu\/map\/assets\/images\/Buildings\/", "photo_url_2": "http:\/\/www.wwu.edu\/map\/assets\/images\/Buildings\/CF.jpg", "page_url_1": "http:\/\/www.wwu.edu\/map\/bldgs\/", "page_url_2": "http:\/\/www.wwu.edu\/map\/bldgs\/cf.shtml", "depts": null, "food": null, "services": null, "Notes": null }, "geometry": null },
{ "type": "Feature", "properties": { "name": "Academic Instructional Center - West", "abv": "AW", "photo_url_1": "http:\/\/www.wwu.edu\/map\/assets\/images\/Buildings\/", "photo_url_2": "http:\/\/www.wwu.edu\/map\/assets\/images\/Buildings\/AW.jpg", "page_url_1": "http:\/\/www.wwu.edu\/map\/bldgs\/", "page_url_2": "http:\/\/www.wwu.edu\/map\/bldgs\/aw.shtml", "depts": null, "food": null, "services": null, "Notes": null }, "geometry": null },
{ "type": "Feature", "properties": { "name": "Ridgeway Sigma", "abv": "RS", "photo_url_1": "http:\/\/www.wwu.edu\/map\/assets\/images\/Buildings\/", "photo_url_2": "http:\/\/www.wwu.edu\/map\/assets\/images\/Buildings\/RS.jpg", "page_url_1": "http:\/\/www.wwu.edu\/map\/bldgs\/", "page_url_2": "http:\/\/www.wwu.edu\/map\/bldgs\/rs.shtml", "depts": null, "food": null, "services": null, "Notes": null }, "geometry": null },
{ "type": "Feature", "properties": { "name": "Ridgeway Omega", "abv": "RO", "photo_url_1": "http:\/\/www.wwu.edu\/map\/assets\/images\/Buildings\/", "photo_url_2": "http:\/\/www.wwu.edu\/map\/assets\/images\/Buildings\/RO.jpg", "page_url_1": "http:\/\/www.wwu.edu\/map\/bldgs\/", "page_url_2": "http:\/\/www.wwu.edu\/map\/bldgs\/ro.shtml", "depts": null, "food": null, "services": null, "Notes": null }, "geometry": null },
{ "type": "Feature", "properties": { "name": "Ridgeway Alpha", "abv": "RA", "photo_url_1": "http:\/\/www.wwu.edu\/map\/assets\/images\/Buildings\/", "photo_url_2": "http:\/\/www.wwu.edu\/map\/assets\/images\/Buildings\/RA.jpg", "page_url_1": "http:\/\/www.wwu.edu\/map\/bldgs\/", "page_url_2": "http:\/\/www.wwu.edu\/map\/bldgs\/ra.shtml", "depts": null, "food": null, "services": null, "Notes": null }, "geometry": null },
{ "type": "Feature", "properties": { "name": "Ridgeway Kappa", "abv": "RK", "photo_url_1": "http:\/\/www.wwu.edu\/map\/assets\/images\/Buildings\/", "photo_url_2": "http:\/\/www.wwu.edu\/map\/assets\/images\/Buildings\/RK.jpg", "page_url_1": "http:\/\/www.wwu.edu\/map\/bldgs\/", "page_url_2": "http:\/\/www.wwu.edu\/map\/bldgs\/rk.shtml", "depts": null, "food": null, "services": null, "Notes": null }, "geometry": null },
{ "type": "Feature", "properties": { "name": "Ridgeway Gamma", "abv": "RG", "photo_url_1": "http:\/\/www.wwu.edu\/map\/assets\/images\/Buildings\/", "photo_url_2": "http:\/\/www.wwu.edu\/map\/assets\/images\/Buildings\/RG.jpg", "page_url_1": "http:\/\/www.wwu.edu\/map\/bldgs\/", "page_url_2": "http:\/\/www.wwu.edu\/map\/bldgs\/rg.shtml", "depts": null, "food": null, "services": null, "Notes": null }, "geometry": null },
{ "type": "Feature", "properties": { "name": "Fairhaven College", "abv": "FC", "photo_url_1": "http:\/\/www.wwu.edu\/map\/assets\/images\/Buildings\/", "photo_url_2": "http:\/\/www.wwu.edu\/map\/assets\/images\/Buildings\/FC.jpg", "page_url_1": "http:\/\/www.wwu.edu\/map\/bldgs\/", "page_url_2": "http:\/\/www.wwu.edu\/map\/bldgs\/fc.shtml", "depts": null, "food": null, "services": null, "Notes": null }, "geometry": null },
{ "type": "Feature", "properties": { "name": "Buchanan Towers", "abv": "BT", "photo_url_1": "http:\/\/www.wwu.edu\/map\/assets\/images\/Buildings\/", "photo_url_2": "http:\/\/www.wwu.edu\/map\/assets\/images\/Buildings\/BT.jpg", "page_url_1": "http:\/\/www.wwu.edu\/map\/bldgs\/", "page_url_2": "http:\/\/www.wwu.edu\/map\/bldgs\/bt.shtml", "depts": null, "food": null, "services": null, "Notes": null }, "geometry": null },
{ "type": "Feature", "properties": { "name": "Commissary", "abv": "CM", "photo_url_1": "http:\/\/www.wwu.edu\/map\/assets\/images\/Buildings\/", "photo_url_2": "http:\/\/www.wwu.edu\/map\/assets\/images\/Buildings\/CM.jpg", "page_url_1": "http:\/\/www.wwu.edu\/map\/bldgs\/", "page_url_2": "http:\/\/www.wwu.edu\/map\/bldgs\/cm.shtml", "depts": null, "food": null, "services": null, "Notes": null }, "geometry": null },
{ "type": "Feature", "properties": { "name": "Campus Services", "abv": "CS", "photo_url_1": "http:\/\/www.wwu.edu\/map\/assets\/images\/Buildings\/", "photo_url_2": "http:\/\/www.wwu.edu\/map\/assets\/images\/Buildings\/CS.jpg", "page_url_1": "http:\/\/www.wwu.edu\/map\/bldgs\/", "page_url_2": "http:\/\/www.wwu.edu\/map\/bldgs\/cs.shtml", "depts": null, "food": null, "services": null, "Notes": null }, "geometry": null },
{ "type": "Feature", "properties": { "name": "Archives", "abv": "AB", "photo_url_1": "http:\/\/www.wwu.edu\/map\/assets\/images\/Buildings\/", "photo_url_2": "http:\/\/www.wwu.edu\/map\/assets\/images\/Buildings\/AB.jpg", "page_url_1": "http:\/\/www.wwu.edu\/map\/bldgs\/", "page_url_2": "http:\/\/www.wwu.edu\/map\/bldgs\/ab.shtml", "depts": null, "food": null, "services": null, "Notes": null }, "geometry": null },
{ "type": "Feature", "properties": { "name": "Birnam Wood Laundry", "abv": "BL", "photo_url_1": "http:\/\/www.wwu.edu\/map\/assets\/images\/Buildings\/", "photo_url_2": "http:\/\/www.wwu.edu\/map\/assets\/images\/Buildings\/BL.jpg", "page_url_1": "http:\/\/www.wwu.edu\/map\/bldgs\/", "page_url_2": "http:\/\/www.wwu.edu\/map\/bldgs\/bl.shtml", "depts": null, "food": null, "services": null, "Notes": null }, "geometry": null },
{ "type": "Feature", "properties": { "name": "Ridgeway Commons", "abv": "RC", "photo_url_1": "http:\/\/www.wwu.edu\/map\/assets\/images\/Buildings\/", "photo_url_2": "http:\/\/www.wwu.edu\/map\/assets\/images\/Buildings\/RC.jpg", "page_url_1": "http:\/\/www.wwu.edu\/map\/bldgs\/", "page_url_2": "http:\/\/www.wwu.edu\/map\/bldgs\/rc.shtml", "depts": null, "food": null, "services": null, "Notes": null }, "geometry": null },
{ "type": "Feature", "properties": { "name": "Old Main", "abv": "OM", "photo_url_1": "http:\/\/www.wwu.edu\/map\/assets\/images\/Buildings\/", "photo_url_2": "http:\/\/www.wwu.edu\/map\/assets\/images\/Buildings\/OM.jpg", "page_url_1": "http:\/\/www.wwu.edu\/map\/bldgs\/", "page_url_2": "http:\/\/www.wwu.edu\/map\/bldgs\/om.shtml", "depts": null, "food": null, "services": null, "Notes": null }, "geometry": null },
{ "type": "Feature", "properties": { "name": "Arntzen Hall", "abv": "AH", "photo_url_1": "http:\/\/www.wwu.edu\/map\/assets\/images\/Buildings\/", "photo_url_2": "http:\/\/www.wwu.edu\/map\/assets\/images\/Buildings\/AH.jpg", "page_url_1": "http:\/\/www.wwu.edu\/map\/bldgs\/", "page_url_2": "http:\/\/www.wwu.edu\/map\/bldgs\/ah.shtml", "depts": null, "food": null, "services": null, "Notes": null }, "geometry": null },
{ "type": "Feature", "properties": { "name": "Wade King Student Recreation Center", "abv": "SV", "photo_url_1": "http:\/\/www.wwu.edu\/map\/assets\/images\/Buildings\/", "photo_url_2": "http:\/\/www.wwu.edu\/map\/assets\/images\/Buildings\/SV.jpg", "page_url_1": "http:\/\/www.wwu.edu\/map\/bldgs\/", "page_url_2": "http:\/\/www.wwu.edu\/map\/bldgs\/sv.shtml", "depts": null, "food": null, "services": null, "Notes": null }, "geometry": null },
{ "type": "Feature", "properties": { "name": "Ridgeway Beta", "abv": "RB", "photo_url_1": "http:\/\/www.wwu.edu\/map\/assets\/images\/Buildings\/", "photo_url_2": "http:\/\/www.wwu.edu\/map\/assets\/images\/Buildings\/RB.jpg", "page_url_1": "http:\/\/www.wwu.edu\/map\/bldgs\/", "page_url_2": "http:\/\/www.wwu.edu\/map\/bldgs\/rb.shtml", "depts": null, "food": null, "services": null, "Notes": null }, "geometry": null },
{ "type": "Feature", "properties": { "name": "Lakewood", "abv": "Lwood", "photo_url_1": null, "photo_url_2": null, "page_url_1": null, "page_url_2": "http:\/\/www.vu.wwu.edu\/lakewood\/", "depts": null, "food": null, "services": null, "Notes": "Lakewood - CUSTOM URL" }, "geometry": null }
]
}
