{
"type": "FeatureCollection",
"crs": { "type": "name", "properties": { "name": "urn:ogc:def:crs:OGC:1.3:CRS84" } },
                                                                                
"features": [
{ "type": "Feature", "properties": { "stop": "Lincoln Creek Park and Ride", "link": "http:\/\/www.wwu.edu\/transportation\/documents\/Shuttle%20Poster_11x17.pdf", "type": "A\/B", "name": "Lincoln Creek Park and Ride", "shelter": "Yes", "bench": "Yes", "scale": null, "site": "WWU", "img_url": null }, "geometry": { "type": "Point", "coordinates": [ -122.465978550435153, 48.734535952936739 ] } },
{ "type": "Feature", "properties": { "stop": "Sehome Haggen", "link": "http:\/\/www.wwu.edu\/transportation\/documents\/Shuttle%20Poster_11x17.pdf", "type": "A\/B", "name": "Sehome Haggen", "shelter": null, "bench": null, "scale": null, "site": null, "img_url": null }, "geometry": { "type": "Point", "coordinates": [ -122.471534831149611, 48.73317118441792 ] } },
{ "type": "Feature", "properties": { "stop": "Birnam Wood", "link": "http:\/\/www.wwu.edu\/transportation\/documents\/Shuttle%20Poster_11x17.pdf", "type": "A", "name": "Birnam Wood", "shelter": null, "bench": null, "scale": null, "site": null, "img_url": null }, "geometry": { "type": "Point", "coordinates": [ -122.481108289000559, 48.729596220758438 ] } },
{ "type": "Feature", "properties": { "stop": "Haggard Hall", "link": "http:\/\/www.wwu.edu\/transportation\/documents\/Shuttle%20Poster_11x17.pdf", "type": "A", "name": "WWU (H.H)", "shelter": "Yes", "bench": "No", "scale": null, "site": null, "img_url": null }, "geometry": { "type": "Point", "coordinates": [ -122.48673487245118, 48.737350333254263 ] } },
{ "type": "Feature", "properties": { "stop": "Viking Union", "link": "http:\/\/www.wwu.edu\/transportation\/documents\/Shuttle%20Poster_11x17.pdf", "type": "A\/B", "name": "WWU (V.U.)", "shelter": "No??", "bench": "No", "scale": null, "site": null, "img_url": null }, "geometry": { "type": "Point", "coordinates": [ -122.485819895838276, 48.738694452161901 ] } },
{ "type": "Feature", "properties": { "stop": "Railroad and Magnolia", "link": "http:\/\/www.wwu.edu\/transportation\/documents\/Shuttle%20Poster_11x17.pdf", "type": "A\/B", "name": "Railroad and Magnolia", "shelter": null, "bench": null, "scale": null, "site": null, "img_url": null }, "geometry": { "type": "Point", "coordinates": [ -122.476714099873689, 48.749897001051991 ] } },
{ "type": "Feature", "properties": { "stop": "21st and Donovan", "link": "http:\/\/www.wwu.edu\/transportation\/documents\/Shuttle%20Poster_11x17.pdf", "type": "A", "name": "21st and Donovan", "shelter": null, "bench": null, "scale": null, "site": null, "img_url": null }, "geometry": { "type": "Point", "coordinates": [ -122.489338836050791, 48.717290832291077 ] } },
{ "type": "Feature", "properties": { "stop": "Stop", "link": "http:\/\/www.wwu.edu\/transportation\/documents\/Shuttle%20Poster_11x17.pdf", "type": "B", "name": "Stop", "shelter": null, "bench": null, "scale": null, "site": null, "img_url": null }, "geometry": { "type": "Point", "coordinates": [ -122.477699074461441, 48.730587897870514 ] } },
{ "type": "Feature", "properties": { "stop": "Stop", "link": "http:\/\/www.wwu.edu\/transportation\/documents\/Shuttle%20Poster_11x17.pdf", "type": "A", "name": "Stop", "shelter": null, "bench": null, "scale": null, "site": null, "img_url": null }, "geometry": { "type": "Point", "coordinates": [ -122.475068703840336, 48.729563279154952 ] } },
{ "type": "Feature", "properties": { "stop": "Stop", "link": "http:\/\/www.wwu.edu\/transportation\/documents\/Shuttle%20Poster_11x17.pdf", "type": "A", "name": "Stop", "shelter": null, "bench": null, "scale": null, "site": null, "img_url": null }, "geometry": { "type": "Point", "coordinates": [ -122.475071593133862, 48.727067598509194 ] } },
{ "type": "Feature", "properties": { "stop": "Stop", "link": "http:\/\/www.wwu.edu\/transportation\/documents\/Shuttle%20Poster_11x17.pdf", "type": "A", "name": "Stop", "shelter": null, "bench": null, "scale": null, "site": null, "img_url": null }, "geometry": { "type": "Point", "coordinates": [ -122.475109010754835, 48.724541707622087 ] } },
{ "type": "Feature", "properties": { "stop": "Stop", "link": "http:\/\/www.wwu.edu\/transportation\/documents\/Shuttle%20Poster_11x17.pdf", "type": "A", "name": "Stop", "shelter": null, "bench": null, "scale": null, "site": null, "img_url": null }, "geometry": { "type": "Point", "coordinates": [ -122.475116644865082, 48.722298948785983 ] } },
{ "type": "Feature", "properties": { "stop": "Stop", "link": "http:\/\/www.wwu.edu\/transportation\/documents\/Shuttle%20Poster_11x17.pdf", "type": "A", "name": "Stop", "shelter": null, "bench": null, "scale": null, "site": null, "img_url": null }, "geometry": { "type": "Point", "coordinates": [ -122.475113940134349, 48.72009997913807 ] } },
{ "type": "Feature", "properties": { "stop": "Stop", "link": "http:\/\/www.wwu.edu\/transportation\/documents\/Shuttle%20Poster_11x17.pdf", "type": "A", "name": "Stop", "shelter": null, "bench": null, "scale": null, "site": null, "img_url": null }, "geometry": { "type": "Point", "coordinates": [ -122.475119781077339, 48.71788021047265 ] } },
{ "type": "Feature", "properties": { "stop": "Stop", "link": "http:\/\/www.wwu.edu\/transportation\/documents\/Shuttle%20Poster_11x17.pdf", "type": "A", "name": "Stop", "shelter": null, "bench": null, "scale": null, "site": null, "img_url": null }, "geometry": { "type": "Point", "coordinates": [ -122.490670586869854, 48.719737491681101 ] } },
{ "type": "Feature", "properties": { "stop": "Stop", "link": "http:\/\/www.wwu.edu\/transportation\/documents\/Shuttle%20Poster_11x17.pdf", "type": "A", "name": "Stop", "shelter": null, "bench": null, "scale": null, "site": null, "img_url": null }, "geometry": { "type": "Point", "coordinates": [ -122.490698109748323, 48.722435649668363 ] } },
{ "type": "Feature", "properties": { "stop": "Stop", "link": "http:\/\/www.wwu.edu\/transportation\/documents\/Shuttle%20Poster_11x17.pdf", "type": "A", "name": "Stop", "shelter": null, "bench": null, "scale": null, "site": null, "img_url": null }, "geometry": { "type": "Point", "coordinates": [ -122.49066946315719, 48.724951803919254 ] } },
{ "type": "Feature", "properties": { "stop": "Stop", "link": "http:\/\/www.wwu.edu\/transportation\/documents\/Shuttle%20Poster_11x17.pdf", "type": "A\/B", "name": "Bill McDonald at Rec Center", "shelter": "Yes", "bench": "No??", "scale": null, "site": null, "img_url": null }, "geometry": { "type": "Point", "coordinates": [ -122.489257090370444, 48.730356243899884 ] } },
{ "type": "Feature", "properties": { "stop": "Stop", "link": "http:\/\/www.wwu.edu\/transportation\/documents\/Shuttle%20Poster_11x17.pdf", "type": "A\/B", "name": "Highland at College Way", "shelter": "Yes", "bench": "Yes", "scale": null, "site": null, "img_url": null }, "geometry": { "type": "Point", "coordinates": [ -122.490917854303518, 48.733942119284769 ] } },
{ "type": "Feature", "properties": { "stop": "Stop", "link": "http:\/\/www.wwu.edu\/transportation\/documents\/Shuttle%20Poster_11x17.pdf", "type": "A\/B", "name": "Billy Frank Jr. at Oak", "shelter": "No", "bench": "No", "scale": null, "site": null, "img_url": null }, "geometry": { "type": "Point", "coordinates": [ -122.48382791025621, 48.740028159306718 ] } },
{ "type": "Feature", "properties": { "stop": "Stop", "link": "http:\/\/www.wwu.edu\/transportation\/documents\/Shuttle%20Poster_11x17.pdf", "type": "A\/B", "name": "Stop", "shelter": null, "bench": null, "scale": null, "site": null, "img_url": null }, "geometry": { "type": "Point", "coordinates": [ -122.478176502868749, 48.742462120913103 ] } },
{ "type": "Feature", "properties": { "stop": "Stop", "link": "http:\/\/www.wwu.edu\/transportation\/documents\/Shuttle%20Poster_11x17.pdf", "type": "A", "name": "Stop", "shelter": null, "bench": null, "scale": null, "site": null, "img_url": null }, "geometry": { "type": "Point", "coordinates": [ -122.474597488466713, 48.744108202743796 ] } },
{ "type": "Feature", "properties": { "stop": "Stop", "link": "http:\/\/www.wwu.edu\/transportation\/documents\/Shuttle%20Poster_11x17.pdf", "type": "A\/B", "name": "Stop", "shelter": null, "bench": null, "scale": null, "site": null, "img_url": null }, "geometry": { "type": "Point", "coordinates": [ -122.475622847294247, 48.744180700857108 ] } },
{ "type": "Feature", "properties": { "stop": "Stop", "link": "http:\/\/www.wwu.edu\/transportation\/documents\/Shuttle%20Poster_11x17.pdf", "type": "B", "name": "Stop", "shelter": null, "bench": null, "scale": null, "site": null, "img_url": null }, "geometry": { "type": "Point", "coordinates": [ -122.486206891162482, 48.726155455456855 ] } },
{ "type": "Feature", "properties": { "stop": "Stop", "link": "http:\/\/www.wwu.edu\/transportation\/documents\/Shuttle%20Poster_11x17.pdf", "type": "A", "name": "Stop", "shelter": null, "bench": null, "scale": null, "site": null, "img_url": null }, "geometry": { "type": "Point", "coordinates": [ -122.489838847819783, 48.727539717107291 ] } },
{ "type": "Feature", "properties": { "stop": "Fred Meyer", "link": "http:\/\/www.wwu.edu\/transportation\/documents\/Shuttle%20Poster_11x17.pdf", "type": "B", "name": "Fred Meyer", "shelter": null, "bench": null, "scale": null, "site": null, "img_url": null }, "geometry": { "type": "Point", "coordinates": [ -122.462257244987669, 48.744058882573185 ] } },
{ "type": "Feature", "properties": { "stop": "Railroad and Magnolia", "link": "http:\/\/www.wwu.edu\/transportation\/documents\/Shuttle%20Poster_11x17.pdf", "type": "A\/B", "name": "Railroad and Magnolia", "shelter": null, "bench": null, "scale": null, "site": null, "img_url": null }, "geometry": { "type": "Point", "coordinates": [ -122.476714099873689, 48.749897001051991 ] } },
{ "type": "Feature", "properties": { "stop": "Viking Union", "link": "http:\/\/www.wwu.edu\/transportation\/documents\/Shuttle%20Poster_11x17.pdf", "type": "A\/B", "name": "Viking Union", "shelter": null, "bench": null, "scale": null, "site": null, "img_url": null }, "geometry": { "type": "Point", "coordinates": [ -122.485819895838276, 48.738694452161901 ] } },
{ "type": "Feature", "properties": { "stop": "Birnum Wood", "link": "http:\/\/www.wwu.edu\/transportation\/documents\/Shuttle%20Poster_11x17.pdf", "type": "B", "name": "Birnum Wood", "shelter": null, "bench": null, "scale": null, "site": null, "img_url": null }, "geometry": { "type": "Point", "coordinates": [ -122.480703951225934, 48.729302179308682 ] } },
{ "type": "Feature", "properties": { "stop": "Campus Services", "link": "http:\/\/www.wwu.edu\/transportation\/documents\/Shuttle%20Poster_11x17.pdf", "type": "A\/B", "name": "Bill McDonald at Campus Services", "shelter": null, "bench": null, "scale": null, "site": null, "img_url": null }, "geometry": { "type": "Point", "coordinates": [ -122.490615589249273, 48.727320318240302 ] } },
{ "type": "Feature", "properties": { "stop": "Stop", "link": "http:\/\/www.wwu.edu\/transportation\/documents\/Shuttle%20Poster_11x17.pdf", "type": "B", "name": "Stop", "shelter": null, "bench": null, "scale": null, "site": null, "img_url": null }, "geometry": { "type": "Point", "coordinates": [ -122.462884687709732, 48.742362589965957 ] } },
{ "type": "Feature", "properties": { "stop": "Stop", "link": "http:\/\/www.wwu.edu\/transportation\/documents\/Shuttle%20Poster_11x17.pdf", "type": "B", "name": "Stop", "shelter": null, "bench": null, "scale": null, "site": null, "img_url": null }, "geometry": { "type": "Point", "coordinates": [ -122.463828174768693, 48.740321397081559 ] } },
{ "type": "Feature", "properties": { "stop": "Stop", "link": "http:\/\/www.wwu.edu\/transportation\/documents\/Shuttle%20Poster_11x17.pdf", "type": "B", "name": "Stop", "shelter": null, "bench": null, "scale": null, "site": null, "img_url": null }, "geometry": { "type": "Point", "coordinates": [ -122.464905411056094, 48.737896656111204 ] } },
{ "type": "Feature", "properties": { "stop": "Stop", "link": "http:\/\/www.wwu.edu\/transportation\/documents\/Shuttle%20Poster_11x17.pdf", "type": "B", "name": "Stop", "shelter": null, "bench": null, "scale": null, "site": null, "img_url": null }, "geometry": { "type": "Point", "coordinates": [ -122.469702297850048, 48.745204393857506 ] } },
{ "type": "Feature", "properties": { "stop": "Stop", "link": "http:\/\/www.wwu.edu\/transportation\/documents\/Shuttle%20Poster_11x17.pdf", "type": "B", "name": "Stop", "shelter": null, "bench": null, "scale": null, "site": null, "img_url": null }, "geometry": { "type": "Point", "coordinates": [ -122.467456525496772, 48.745187641713486 ] } },
{ "type": "Feature", "properties": { "stop": "Stop", "link": "http:\/\/www.wwu.edu\/transportation\/documents\/Shuttle%20Poster_11x17.pdf", "type": "A\/B", "name": "Stop", "shelter": null, "bench": null, "scale": null, "site": null, "img_url": null }, "geometry": { "type": "Point", "coordinates": [ -122.473878246636801, 48.74535484614276 ] } },
{ "type": "Feature", "properties": { "stop": "Stop", "link": "http:\/\/www.wwu.edu\/transportation\/documents\/Shuttle%20Poster_11x17.pdf", "type": "A\/B", "name": "Stop", "shelter": null, "bench": null, "scale": null, "site": null, "img_url": null }, "geometry": { "type": "Point", "coordinates": [ -122.475622847294247, 48.744180700857108 ] } },
{ "type": "Feature", "properties": { "stop": "Stop", "link": "http:\/\/www.wwu.edu\/transportation\/documents\/Shuttle%20Poster_11x17.pdf", "type": "A", "name": "Stop", "shelter": null, "bench": null, "scale": null, "site": null, "img_url": null }, "geometry": { "type": "Point", "coordinates": [ -122.477566625669127, 48.74211003974829 ] } },
{ "type": "Feature", "properties": { "stop": "Stop", "link": "http:\/\/www.wwu.edu\/transportation\/documents\/Shuttle%20Poster_11x17.pdf", "type": "A", "name": "Billy Frank Jr. at Oak", "shelter": "No", "bench": "No", "scale": null, "site": null, "img_url": null }, "geometry": { "type": "Point", "coordinates": [ -122.483220787460141, 48.739733858696454 ] } },
{ "type": "Feature", "properties": { "stop": "Stop", "link": "http:\/\/www.wwu.edu\/transportation\/documents\/Shuttle%20Poster_11x17.pdf", "type": "A", "name": "College Way at Highland", "shelter": "No", "bench": "No??", "scale": null, "site": null, "img_url": null }, "geometry": { "type": "Point", "coordinates": [ -122.490005831651445, 48.733967387907001 ] } },
{ "type": "Feature", "properties": { "stop": "Stop", "link": "http:\/\/www.wwu.edu\/transportation\/documents\/Shuttle%20Poster_11x17.pdf", "type": "A", "name": "Bill McDonald at Rec Center", "shelter": "Yes", "bench": "No??", "scale": null, "site": null, "img_url": null }, "geometry": { "type": "Point", "coordinates": [ -122.488395178304742, 48.730396767974838 ] } },
{ "type": "Feature", "properties": { "stop": "Stop", "link": "http:\/\/www.wwu.edu\/transportation\/documents\/Shuttle%20Poster_11x17.pdf", "type": "A", "name": "Stop", "shelter": null, "bench": null, "scale": null, "site": null, "img_url": null }, "geometry": { "type": "Point", "coordinates": [ -122.48640566533129, 48.726612234827542 ] } },
{ "type": "Feature", "properties": { "stop": "Stop", "link": "http:\/\/www.wwu.edu\/transportation\/documents\/Shuttle%20Poster_11x17.pdf", "type": "A", "name": "Stop", "shelter": null, "bench": null, "scale": null, "site": null, "img_url": null }, "geometry": { "type": "Point", "coordinates": [ -122.47817570299884, 48.730927430609043 ] } },
{ "type": "Feature", "properties": { "stop": "Stop", "link": "http:\/\/www.wwu.edu\/transportation\/documents\/Shuttle%20Poster_11x17.pdf", "type": "A", "name": "Stop", "shelter": null, "bench": null, "scale": null, "site": null, "img_url": null }, "geometry": { "type": "Point", "coordinates": [ -122.471603701721847, 48.73362379228378 ] } }
]
}
