{
"type": "FeatureCollection",
"crs": { "type": "name", "properties": { "name": "urn:ogc:def:crs:OGC:1.3:CRS84" } },
                                                                                
"features": [
{ "type": "Feature", "properties": { "LL_Zone_Label": null, "UL_Zone_Label": null, "LR_Zone_Label": null, "UR_Zone_Label": null }, "geometry": { "type": "Point", "coordinates": [ -122.491748110681954, 48.723302116947188 ] } },
{ "type": "Feature", "properties": { "LL_Zone_Label": null, "UL_Zone_Label": null, "LR_Zone_Label": 7, "UR_Zone_Label": 6 }, "geometry": { "type": "Point", "coordinates": [ -122.491837382786827, 48.726042389057348 ] } },
{ "type": "Feature", "properties": { "LL_Zone_Label": 7, "UL_Zone_Label": 6, "LR_Zone_Label": 14, "UR_Zone_Label": 13 }, "geometry": { "type": "Point", "coordinates": [ -122.487695459149634, 48.726101380465117 ] } },
{ "type": "Feature", "properties": { "LL_Zone_Label": 8, "UL_Zone_Label": 7, "LR_Zone_Label": 15, "UR_Zone_Label": 14 }, "geometry": { "type": "Point", "coordinates": [ -122.487606409854052, 48.723361105238304 ] } },
{ "type": "Feature", "properties": { "LL_Zone_Label": 14, "UL_Zone_Label": 13, "LR_Zone_Label": 21, "UR_Zone_Label": 20 }, "geometry": { "type": "Point", "coordinates": [ -122.483553527285324, 48.726160224366417 ] } },
{ "type": "Feature", "properties": { "LL_Zone_Label": null, "UL_Zone_Label": 14, "LR_Zone_Label": null, "UR_Zone_Label": 21 }, "geometry": { "type": "Point", "coordinates": [ -122.483464700800511, 48.72341994603071 ] } },
{ "type": "Feature", "properties": { "LL_Zone_Label": 21, "UL_Zone_Label": 20, "LR_Zone_Label": 28, "UR_Zone_Label": 27 }, "geometry": { "type": "Point", "coordinates": [ -122.479411585858912, 48.726218920780113 ] } },
{ "type": "Feature", "properties": { "LL_Zone_Label": null, "UL_Zone_Label": 21, "LR_Zone_Label": null, "UR_Zone_Label": 28 }, "geometry": { "type": "Point", "coordinates": [ -122.479322982186403, 48.72347863934332 ] } },
{ "type": "Feature", "properties": { "LL_Zone_Label": null, "UL_Zone_Label": null, "LR_Zone_Label": null, "UR_Zone_Label": null }, "geometry": { "type": "Point", "coordinates": [ -122.475269634894346, 48.726277469705714 ] } },
{ "type": "Feature", "properties": { "LL_Zone_Label": null, "UL_Zone_Label": null, "LR_Zone_Label": null, "UR_Zone_Label": null }, "geometry": { "type": "Point", "coordinates": [ -122.475181254035704, 48.723537185175623 ] } },
{ "type": "Feature", "properties": { "LL_Zone_Label": null, "UL_Zone_Label": null, "LR_Zone_Label": null, "UR_Zone_Label": null }, "geometry": { "type": "Point", "coordinates": [ -122.471127674415641, 48.72633587114273 ] } },
{ "type": "Feature", "properties": { "LL_Zone_Label": null, "UL_Zone_Label": null, "LR_Zone_Label": null, "UR_Zone_Label": null }, "geometry": { "type": "Point", "coordinates": [ -122.471039516372358, 48.7235955835271 ] } },
{ "type": "Feature", "properties": { "LL_Zone_Label": null, "UL_Zone_Label": null, "LR_Zone_Label": 6, "UR_Zone_Label": 5 }, "geometry": { "type": "Point", "coordinates": [ -122.491926664501705, 48.72878265839379 ] } },
{ "type": "Feature", "properties": { "LL_Zone_Label": 6, "UL_Zone_Label": 5, "LR_Zone_Label": 13, "UR_Zone_Label": 12 }, "geometry": { "type": "Point", "coordinates": [ -122.487784518031262, 48.728841652918426 ] } },
{ "type": "Feature", "properties": { "LL_Zone_Label": 13, "UL_Zone_Label": 12, "LR_Zone_Label": 20, "UR_Zone_Label": 19 }, "geometry": { "type": "Point", "coordinates": [ -122.483642363332223, 48.728900499928805 ] } },
{ "type": "Feature", "properties": { "LL_Zone_Label": 20, "UL_Zone_Label": 19, "LR_Zone_Label": 27, "UR_Zone_Label": 26 }, "geometry": { "type": "Point", "coordinates": [ -122.479500199069534, 48.7289591994438 ] } },
{ "type": "Feature", "properties": { "LL_Zone_Label": 27, "UL_Zone_Label": 26, "LR_Zone_Label": 34, "UR_Zone_Label": 33 }, "geometry": { "type": "Point", "coordinates": [ -122.475358025267198, 48.729017751462898 ] } },
{ "type": "Feature", "properties": { "LL_Zone_Label": 34, "UL_Zone_Label": 33, "LR_Zone_Label": null, "UR_Zone_Label": null }, "geometry": { "type": "Point", "coordinates": [ -122.471215841949117, 48.729076155985631 ] } },
{ "type": "Feature", "properties": { "LL_Zone_Label": null, "UL_Zone_Label": null, "LR_Zone_Label": 5, "UR_Zone_Label": 4 }, "geometry": { "type": "Point", "coordinates": [ -122.492015955828165, 48.731522924950212 ] } },
{ "type": "Feature", "properties": { "LL_Zone_Label": 5, "UL_Zone_Label": 4, "LR_Zone_Label": 12, "UR_Zone_Label": 11 }, "geometry": { "type": "Point", "coordinates": [ -122.487873586500513, 48.731581922591914 ] } },
{ "type": "Feature", "properties": { "LL_Zone_Label": 12, "UL_Zone_Label": 11, "LR_Zone_Label": 19, "UR_Zone_Label": 18 }, "geometry": { "type": "Point", "coordinates": [ -122.483731208942785, 48.731640772711565 ] } },
{ "type": "Feature", "properties": { "LL_Zone_Label": 19, "UL_Zone_Label": 18, "LR_Zone_Label": 26, "UR_Zone_Label": 25 }, "geometry": { "type": "Point", "coordinates": [ -122.479588821819874, 48.731699475328057 ] } },
{ "type": "Feature", "properties": { "LL_Zone_Label": 26, "UL_Zone_Label": 25, "LR_Zone_Label": 33, "UR_Zone_Label": 32 }, "geometry": { "type": "Point", "coordinates": [ -122.475446425155724, 48.731758030440865 ] } },
{ "type": "Feature", "properties": { "LL_Zone_Label": 33, "UL_Zone_Label": 32, "LR_Zone_Label": null, "UR_Zone_Label": null }, "geometry": { "type": "Point", "coordinates": [ -122.471304018974323, 48.731816438049492 ] } },
{ "type": "Feature", "properties": { "LL_Zone_Label": null, "UL_Zone_Label": null, "LR_Zone_Label": 4, "UR_Zone_Label": 3 }, "geometry": { "type": "Point", "coordinates": [ -122.492105256767772, 48.734263188720313 ] } },
{ "type": "Feature", "properties": { "LL_Zone_Label": 4, "UL_Zone_Label": 3, "LR_Zone_Label": 11, "UR_Zone_Label": 10 }, "geometry": { "type": "Point", "coordinates": [ -122.487962664558935, 48.734322189479293 ] } },
{ "type": "Feature", "properties": { "LL_Zone_Label": 11, "UL_Zone_Label": 10, "LR_Zone_Label": 18, "UR_Zone_Label": 17 }, "geometry": { "type": "Point", "coordinates": [ -122.483820064118532, 48.734381042708428 ] } },
{ "type": "Feature", "properties": { "LL_Zone_Label": 18, "UL_Zone_Label": 17, "LR_Zone_Label": 25, "UR_Zone_Label": 24 }, "geometry": { "type": "Point", "coordinates": [ -122.479677454111382, 48.734439748426603 ] } },
{ "type": "Feature", "properties": { "LL_Zone_Label": 25, "UL_Zone_Label": 24, "LR_Zone_Label": 32, "UR_Zone_Label": 31 }, "geometry": { "type": "Point", "coordinates": [ -122.4755348345615, 48.734498306633306 ] } },
{ "type": "Feature", "properties": { "LL_Zone_Label": null, "UL_Zone_Label": null, "LR_Zone_Label": null, "UR_Zone_Label": null }, "geometry": { "type": "Point", "coordinates": [ -122.471392205492833, 48.73455671732804 ] } },
{ "type": "Feature", "properties": { "LL_Zone_Label": null, "UL_Zone_Label": null, "LR_Zone_Label": 3, "UR_Zone_Label": 2 }, "geometry": { "type": "Point", "coordinates": [ -122.492194567322059, 48.737003449697724 ] } },
{ "type": "Feature", "properties": { "LL_Zone_Label": 3, "UL_Zone_Label": 2, "LR_Zone_Label": 10, "UR_Zone_Label": 9 }, "geometry": { "type": "Point", "coordinates": [ -122.488051752208037, 48.737062453574175 ] } },
{ "type": "Feature", "properties": { "LL_Zone_Label": 10, "UL_Zone_Label": 9, "LR_Zone_Label": 17, "UR_Zone_Label": 16 }, "geometry": { "type": "Point", "coordinates": [ -122.483908928860984, 48.737121309912986 ] } },
{ "type": "Feature", "properties": { "LL_Zone_Label": 17, "UL_Zone_Label": 16, "LR_Zone_Label": 24, "UR_Zone_Label": 23 }, "geometry": { "type": "Point", "coordinates": [ -122.479766095945678, 48.737180018733035 ] } },
{ "type": "Feature", "properties": { "LL_Zone_Label": null, "UL_Zone_Label": null, "LR_Zone_Label": null, "UR_Zone_Label": null }, "geometry": { "type": "Point", "coordinates": [ -122.475623253486063, 48.737238580033846 ] } },
{ "type": "Feature", "properties": { "LL_Zone_Label": null, "UL_Zone_Label": null, "LR_Zone_Label": null, "UR_Zone_Label": null }, "geometry": { "type": "Point", "coordinates": [ -122.471480401506128, 48.737296993814901 ] } },
{ "type": "Feature", "properties": { "LL_Zone_Label": null, "UL_Zone_Label": null, "LR_Zone_Label": 2, "UR_Zone_Label": 1 }, "geometry": { "type": "Point", "coordinates": [ -122.492283887492562, 48.739743707876166 ] } },
{ "type": "Feature", "properties": { "LL_Zone_Label": 2, "UL_Zone_Label": 1, "LR_Zone_Label": 9, "UR_Zone_Label": 8 }, "geometry": { "type": "Point", "coordinates": [ -122.488140849449394, 48.739802714870279 ] } },
{ "type": "Feature", "properties": { "LL_Zone_Label": 9, "UL_Zone_Label": 8, "LR_Zone_Label": 16, "UR_Zone_Label": 15 }, "geometry": { "type": "Point", "coordinates": [ -122.483997803171746, 48.739861574318979 ] } },
{ "type": "Feature", "properties": { "LL_Zone_Label": 16, "UL_Zone_Label": 15, "LR_Zone_Label": 23, "UR_Zone_Label": 22 }, "geometry": { "type": "Point", "coordinates": [ -122.479854747324268, 48.739920286241116 ] } },
{ "type": "Feature", "properties": { "LL_Zone_Label": null, "UL_Zone_Label": null, "LR_Zone_Label": null, "UR_Zone_Label": null }, "geometry": { "type": "Point", "coordinates": [ -122.475711681930946, 48.73997885063622 ] } },
{ "type": "Feature", "properties": { "LL_Zone_Label": null, "UL_Zone_Label": null, "LR_Zone_Label": null, "UR_Zone_Label": null }, "geometry": { "type": "Point", "coordinates": [ -122.471568607015755, 48.740037267503773 ] } },
{ "type": "Feature", "properties": { "LL_Zone_Label": null, "UL_Zone_Label": null, "LR_Zone_Label": 1, "UR_Zone_Label": null }, "geometry": { "type": "Point", "coordinates": [ -122.492373217280843, 48.74248396324932 ] } },
{ "type": "Feature", "properties": { "LL_Zone_Label": 1, "UL_Zone_Label": null, "LR_Zone_Label": 8, "UR_Zone_Label": null }, "geometry": { "type": "Point", "coordinates": [ -122.488229956284584, 48.742542973361296 ] } },
{ "type": "Feature", "properties": { "LL_Zone_Label": 8, "UL_Zone_Label": null, "LR_Zone_Label": 15, "UR_Zone_Label": null }, "geometry": { "type": "Point", "coordinates": [ -122.484086687052312, 48.742601835920055 ] } },
{ "type": "Feature", "properties": { "LL_Zone_Label": 15, "UL_Zone_Label": null, "LR_Zone_Label": 22, "UR_Zone_Label": null }, "geometry": { "type": "Point", "coordinates": [ -122.479943408248687, 48.742660550944493 ] } },
{ "type": "Feature", "properties": { "LL_Zone_Label": null, "UL_Zone_Label": null, "LR_Zone_Label": null, "UR_Zone_Label": null }, "geometry": { "type": "Point", "coordinates": [ -122.47580011989767, 48.742719118434081 ] } },
{ "type": "Feature", "properties": { "LL_Zone_Label": null, "UL_Zone_Label": null, "LR_Zone_Label": null, "UR_Zone_Label": null }, "geometry": { "type": "Point", "coordinates": [ -122.471656822023277, 48.742777538388339 ] } }
]
}
