{
"type": "FeatureCollection",
"crs": { "type": "name", "properties": { "name": "urn:ogc:def:crs:OGC:1.3:CRS84" } },
                                                                                
"features": [
{ "type": "Feature", "properties": { "note": null, "shape_Length": 23840.425611126706, "shape_Area": 24142278.107703786 }, "geometry": { "type": "MultiPolygon", "coordinates": [ [ [ [ -122.485962786397764, 48.740389246335745 ], [ -122.485940630645587, 48.740375044869467 ], [ -122.485885337893194, 48.740408663795129 ], [ -122.484247911933807, 48.741009753481485 ], [ -122.484220737671237, 48.741004629983607 ], [ -122.484157189130045, 48.741047620528889 ], [ -122.484164696985999, 48.741112047589908 ], [ -122.483570137244627, 48.741506962143653 ], [ -122.48345211375694, 48.741441697528998 ], [ -122.48337717737671, 48.741391744614923 ], [ -122.483232255610844, 48.741295668436003 ], [ -122.483055951120093, 48.741051622833389 ], [ -122.483007460585142, 48.741034471698185 ], [ -122.482970966652417, 48.741010755360406 ], [ -122.482907528639842, 48.741046111826726 ], [ -122.481593092039176, 48.741389345502562 ], [ -122.481525247870564, 48.741357225918854 ], [ -122.481462783162399, 48.741317238175128 ], [ -122.481337093967738, 48.741306348204127 ], [ -122.479475157530601, 48.74153213515136 ], [ -122.479402595963464, 48.741497126414806 ], [ -122.479272411879265, 48.741423363527375 ], [ -122.479182020102257, 48.74136874533319 ], [ -122.478239031659868, 48.741493931868469 ], [ -122.477822044797875, 48.741125560067871 ], [ -122.477942511034385, 48.741075235774005 ], [ -122.477913988139179, 48.740957366269662 ], [ -122.477879207099832, 48.740918783287029 ], [ -122.477848406001343, 48.740885232203496 ], [ -122.477745838682267, 48.740865797783002 ], [ -122.476990980896673, 48.740499020628192 ], [ -122.477003111779752, 48.739621301480462 ], [ -122.477565060103572, 48.738164224297371 ], [ -122.477567238500569, 48.738094350521045 ], [ -122.477238924205921, 48.73814198049611 ], [ -122.477001817391525, 48.738292282575507 ], [ -122.476730137687113, 48.738335744236998 ], [ -122.476086727878041, 48.738644115606732 ], [ -122.475892855413164, 48.738526166306698 ], [ -122.472799345937588, 48.736314953540322 ], [ -122.4747341438799, 48.734645645693419 ], [ -122.474729534937367, 48.73443581378713 ], [ -122.472563938954053, 48.733115252250798 ], [ -122.472526475669511, 48.733130263106162 ], [ -122.471726824232931, 48.733509059665124 ], [ -122.471673810383891, 48.733438139297078 ], [ -122.47158654524037, 48.733330119696895 ], [ -122.471495729452201, 48.733236734577567 ], [ -122.47198316022687, 48.7318833811754 ], [ -122.472850764983761, 48.731956728689433 ], [ -122.473139106163359, 48.731865694604394 ], [ -122.47315674684377, 48.731764580873396 ], [ -122.473074611509091, 48.730194904037624 ], [ -122.473080304964412, 48.729990856654439 ], [ -122.473084122555335, 48.72993180258424 ], [ -122.475236615920451, 48.729447401095911 ], [ -122.475325090772472, 48.729442920376371 ], [ -122.475488321019398, 48.729445645605168 ], [ -122.477368361269299, 48.728488857081565 ], [ -122.477364558440087, 48.728371110707144 ], [ -122.476837749044691, 48.724644408966562 ], [ -122.476836528429757, 48.724566763969214 ], [ -122.476839261837213, 48.724524385456519 ], [ -122.476826874085887, 48.724357706843534 ], [ -122.477378386700309, 48.723892989272748 ], [ -122.480287166128463, 48.723869205597694 ], [ -122.48188991913679, 48.723883355672832 ], [ -122.482419219307118, 48.723880321713636 ], [ -122.482455296869844, 48.723880115044899 ], [ -122.482781290216138, 48.723878246045324 ], [ -122.482827434081656, 48.723877981038321 ], [ -122.483243668143913, 48.723881296952683 ], [ -122.483277834631508, 48.723875395718053 ], [ -122.483530300003579, 48.72387394623852 ], [ -122.483608210010431, 48.723873499108151 ], [ -122.483693177502673, 48.723864470826442 ], [ -122.48601702454944, 48.723613712245502 ], [ -122.48611170723666, 48.723605226806988 ], [ -122.486156994446915, 48.723637958334713 ], [ -122.48623272717991, 48.723635822427084 ], [ -122.486303078275739, 48.723616785762452 ], [ -122.48717887036851, 48.723646838179015 ], [ -122.487274306645162, 48.7236681211145 ], [ -122.487349774768376, 48.723668133441784 ], [ -122.487397616130608, 48.723648486214735 ], [ -122.488301702022753, 48.723753663081432 ], [ -122.488460726636362, 48.723775199533648 ], [ -122.488533919886223, 48.723774522107959 ], [ -122.48859694647679, 48.723762788429319 ], [ -122.489438648024858, 48.7237966559657 ], [ -122.489527861544346, 48.723805222839765 ], [ -122.489601500522014, 48.723807463422858 ], [ -122.489647328282715, 48.723798444015891 ], [ -122.490203275515299, 48.723778546764159 ], [ -122.490268108338697, 48.723777710324818 ], [ -122.490285907933952, 48.723775584058281 ], [ -122.490280627833783, 48.723788241766009 ], [ -122.490292934269235, 48.723796654426707 ], [ -122.490396649888055, 48.72379771943222 ], [ -122.490456797020769, 48.723787705950755 ], [ -122.490576358553895, 48.725316935878894 ], [ -122.490530519652552, 48.725363236389818 ], [ -122.490530601869125, 48.725416169029948 ], [ -122.490536492341846, 48.725484566880013 ], [ -122.491442498504426, 48.726330955644414 ], [ -122.493203694722638, 48.726330693217207 ], [ -122.493358498280045, 48.726084014531729 ], [ -122.494423609560755, 48.726205646445202 ], [ -122.494484666196399, 48.727525570484708 ], [ -122.492501097862331, 48.728196433797187 ], [ -122.492407300841634, 48.731113038432312 ], [ -122.491224951351072, 48.733055398881184 ], [ -122.491220134357235, 48.733098786066442 ], [ -122.491246485529075, 48.733148208663124 ], [ -122.491371226434211, 48.733262974485434 ], [ -122.490792002390293, 48.733956811669991 ], [ -122.490732704532462, 48.733977739559862 ], [ -122.490683324537301, 48.734051198915644 ], [ -122.490706870515524, 48.734104462669727 ], [ -122.489487792067209, 48.736015006566824 ], [ -122.489675471373232, 48.736105873684537 ], [ -122.48981272618073, 48.736177693126187 ], [ -122.48984372051153, 48.73647150176707 ], [ -122.48959120279936, 48.737335395076826 ], [ -122.488532620436203, 48.738346087844761 ], [ -122.488557083674905, 48.738401180070106 ], [ -122.488629863189416, 48.738462853253004 ], [ -122.488686723566701, 48.738511749567991 ], [ -122.488685878547344, 48.738544761513765 ], [ -122.488154725127302, 48.739427133135095 ], [ -122.488227876505164, 48.739505732509436 ], [ -122.488277330406675, 48.739538780840086 ], [ -122.489285686363075, 48.740146249205338 ], [ -122.489374546418858, 48.740194142825281 ], [ -122.489459400332407, 48.740246256062697 ], [ -122.489509381297822, 48.740392275347141 ], [ -122.489699121005216, 48.74048436251551 ], [ -122.489762728537912, 48.74053288432048 ], [ -122.489794169189366, 48.74055162820958 ], [ -122.489822910953606, 48.740573270769296 ], [ -122.488303927903942, 48.741628673029858 ], [ -122.488270343906336, 48.741654592585569 ], [ -122.488223585439442, 48.741684422354659 ], [ -122.488149649992451, 48.741730818861612 ], [ -122.487581927709158, 48.741395485114673 ], [ -122.487506531075525, 48.741342417561413 ], [ -122.487462231136831, 48.74130509250211 ], [ -122.486562802196502, 48.740772428381156 ], [ -122.486504447771054, 48.740736874027775 ], [ -122.486452436476299, 48.740703090470468 ], [ -122.486382820676155, 48.740659327608398 ], [ -122.485962786397764, 48.740389246335745 ] ] ] ] } },
{ "type": "Feature", "properties": { "note": null, "shape_Length": 8311.7338431329154, "shape_Area": 4442918.733509073 }, "geometry": { "type": "MultiPolygon", "coordinates": [ [ [ [ -123.416703070895707, 48.101692133843322 ], [ -123.416639391634192, 48.10173522625599 ], [ -123.416625641867043, 48.10174655482642 ], [ -123.416637621889336, 48.101813362232861 ], [ -123.416627801138546, 48.101825078475287 ], [ -123.416636419115491, 48.101835222701872 ], [ -123.416652699077034, 48.101860828578147 ], [ -123.41620023250978, 48.102886499769369 ], [ -123.415909448551403, 48.102869336273123 ], [ -123.415833979827127, 48.102919735909907 ], [ -123.415867957139355, 48.103020271986779 ], [ -123.415815074679827, 48.103180879473477 ], [ -123.40743123765084, 48.101938113958212 ], [ -123.407340988090226, 48.097854365087088 ], [ -123.408887900815714, 48.097229197359411 ], [ -123.417255086098464, 48.097374576801982 ], [ -123.416703070895707, 48.101692133843322 ] ] ] ] } },
{ "type": "Feature", "properties": { "note": null, "shape_Length": 10865.946251633281, "shape_Area": 7521576.3305772422 }, "geometry": { "type": "MultiPolygon", "coordinates": [ [ [ [ -122.684128149379831, 48.502385116883183 ], [ -122.68614572593377, 48.50142241709873 ], [ -122.692551073907936, 48.502747810858338 ], [ -122.691551217517542, 48.505786622006219 ], [ -122.685436009368331, 48.508594762081145 ], [ -122.685185649825243, 48.508601339911053 ], [ -122.685151405978573, 48.508599313881646 ], [ -122.685152164204851, 48.50861931269862 ], [ -122.685183982184711, 48.509110518876604 ], [ -122.682913325282868, 48.509318177793084 ], [ -122.677316607406979, 48.507884165029076 ], [ -122.677364609745595, 48.503256458556507 ], [ -122.679908039680896, 48.502278155122575 ], [ -122.683507663244754, 48.502394140655795 ], [ -122.683586534490075, 48.502437583573339 ], [ -122.683645563170643, 48.502454446358662 ], [ -122.683691796205167, 48.50243780576352 ], [ -122.684128149379831, 48.502385116883183 ] ] ] ] } }
]
}
