{
"type": "FeatureCollection",
"crs": { "type": "name", "properties": { "name": "urn:ogc:def:crs:OGC:1.3:CRS84" } },
                                                                                
"features": [
{ "type": "Feature", "properties": { "building": "Buchannan Towers", "open": null, "goods": "Meals, Snacks, Beverages, Coffee", "locations": "BT Market", "abbrev": "BT", "keywords": "drink food dining eat", "wwu_link": "http:\/\/wwu.campusdish.com\/Locations\/BuchananTowersStation.aspx", "name": "BT Station", "scale": "Both", "site": "WWU", "type": "Retail", "notes": null }, "geometry": { "type": "Point", "coordinates": [ -122.486869753135807, 48.726644622619773 ] } },
{ "type": "Feature", "properties": { "building": "Fairhaven College", "open": null, "goods": "Meals, Snacks, Beverages, Coffee", "locations": "Porvisions On Demand (P.O.D)", "abbrev": "FC", "keywords": "drink food dining eat", "wwu_link": "http:\/\/wwu.campusdish.com\/Locations\/TheHavenMarket.aspx", "name": "The Haven", "scale": "Floorplan", "site": "WWU", "type": "Retail", "notes": null }, "geometry": { "type": "Point", "coordinates": [ -122.485856905956481, 48.73018958829671 ] } },
{ "type": "Feature", "properties": { "building": "Wade King Recreation Center", "open": null, "goods": "Sandwiches, Snacks, Beverages, Smoothies", "locations": "", "abbrev": "SV", "keywords": "drink food dining eat", "wwu_link": "http:\/\/wwu.campusdish.com\/Locations\/RocksEdgeCafe.aspx", "name": "Rock's Edge Cafe", "scale": "Both", "site": "WWU", "type": "Retail", "notes": null }, "geometry": { "type": "Point", "coordinates": [ -122.48862889588483, 48.731587964390087 ] } },
{ "type": "Feature", "properties": { "building": "Arntzen Hall", "open": null, "goods": "Meals, Snacks, Beverages, Coffee", "locations": "Provisions On Demand (P.O.D.);  Subway; Starbucks;  Topios", "abbrev": "AH", "keywords": "drink food dining eat", "wwu_link": "http:\/\/wwu.campusdish.com\/Locations\/TheAtrium.aspx", "name": "The Atrium", "scale": "Both", "site": "WWU", "type": "Retail", "notes": null }, "geometry": { "type": "Point", "coordinates": [ -122.485794139658765, 48.733690571180809 ] } },
{ "type": "Feature", "properties": { "building": "Miller Hall", "open": null, "goods": "Snacks, Beverages, Coffee", "locations": "Miller Market", "abbrev": "MH", "keywords": "drink food dining eat", "wwu_link": "http:\/\/wwu.campusdish.com\/Locations\/MillerMarket.aspx", "name": "Miller Market", "scale": "Both", "site": "WWU", "type": "Retail", "notes": null }, "geometry": { "type": "Point", "coordinates": [ -122.48505054912124, 48.736558318722835 ] } },
{ "type": "Feature", "properties": { "building": "Wilson Library", "open": null, "goods": "Light Meals, Snacks, Beverages, Coffee", "locations": "", "abbrev": "WL", "keywords": "drink food dining eat", "wwu_link": "http:\/\/wwu.campusdish.com\/Locations\/ZoesBooksideBagels.aspx", "name": "Zoe's Bookside Bagels", "scale": "Both", "site": "WWU", "type": "Retail", "notes": null }, "geometry": { "type": "Point", "coordinates": [ -122.485686704776768, 48.737922411988187 ] } },
{ "type": "Feature", "properties": { "building": "Viking Union", "open": null, "goods": "Meals, Snacks, Beverages, Coffee", "locations": "Panda Express; Kettle Classics; Subway;  Viking Union Market;", "abbrev": "VU", "keywords": "drink food dining eat", "wwu_link": "http:\/\/wwu.campusdish.com\/Locations\/VikingUnionMarket.aspx", "name": "Viking Union Market", "scale": "Floorplan", "site": "WWU", "type": "Retail", "notes": null }, "geometry": { "type": "Point", "coordinates": [ -122.486277958523402, 48.73893127340876 ] } },
{ "type": "Feature", "properties": { "building": "Viking Commons", "open": null, "goods": "Residential Dining Hall", "locations": "Viking Commons", "abbrev": null, "keywords": "Residential Dining Food", "wwu_link": "http:\/\/wwu.campusdish.com\/Locations\/VikingCommons.aspx", "name": "Viking Commons", "scale": "Both", "site": "WWU", "type": "Residential", "notes": null }, "geometry": { "type": "Point", "coordinates": [ -122.485149832096852, 48.739240246038783 ] } },
{ "type": "Feature", "properties": { "building": "Viking Union", "open": null, "goods": "Coffee, Snacks", "locations": "Underground Coffeehouse", "abbrev": null, "keywords": "drink food dining eat", "wwu_link": "http:\/\/wwu.campusdish.com\/Locations\/UndergroundCoffeehouse.aspx", "name": "Underground Coffeehouse", "scale": "Floorplan", "site": "WWU", "type": "Retail", "notes": null }, "geometry": { "type": "Point", "coordinates": [ -122.486512243834511, 48.738974199327778 ] } },
{ "type": "Feature", "properties": { "building": "Viking Union", "open": null, "goods": "Misc. \/ Varies", "locations": "Vendor's Row", "abbrev": null, "keywords": "drink food dining eat", "wwu_link": "http:\/\/www.vu.wwu.edu\/services\/", "name": "Vendor's Row", "scale": "Floorplan", "site": "WWU", "type": "Retail", "notes": null }, "geometry": { "type": "Point", "coordinates": [ -122.486040952165069, 48.738820497950215 ] } },
{ "type": "Feature", "properties": { "building": "Viking Union", "open": null, "goods": null, "locations": "", "abbrev": null, "keywords": null, "wwu_link": null, "name": "Viking Union", "scale": "Siteplan", "site": "WWU", "type": "Residential", "notes": null }, "geometry": { "type": "Point", "coordinates": [ -122.486081847235866, 48.738927482987386 ] } },
{ "type": "Feature", "properties": { "building": "Ridgeway Commons", "open": null, "goods": "Residential Dining Hall", "locations": "Ridgeway Commons", "abbrev": null, "keywords": "Residential Dining Food", "wwu_link": "http:\/\/wwu.campusdish.com\/Locations\/RidgewayCommons.aspx", "name": "Ridgeway Commons", "scale": "Both", "site": "WWU", "type": "Residential", "notes": null }, "geometry": { "type": "Point", "coordinates": [ -122.489754681630103, 48.734638404498746 ] } },
{ "type": "Feature", "properties": { "building": "Fairhaven Commons", "open": null, "goods": "Residential Dining Hall", "locations": "Fairhaven Commons", "abbrev": null, "keywords": "Residential Dining Food", "wwu_link": "http:\/\/wwu.campusdish.com\/Locations\/FairhavenCommons.aspx", "name": "Fairhaven Commons", "scale": "Floorplan", "site": "WWU", "type": "Residential", "notes": null }, "geometry": { "type": "Point", "coordinates": [ -122.485814556590682, 48.730296569063476 ] } },
{ "type": "Feature", "properties": { "building": "Fairhaven Commons", "open": null, "goods": null, "locations": null, "abbrev": null, "keywords": null, "wwu_link": null, "name": "Fairhaven Commons", "scale": "Siteplan", "site": "WWU", "type": "Residential", "notes": null }, "geometry": { "type": "Point", "coordinates": [ -122.485691372042652, 48.730258576836604 ] } },
{ "type": "Feature", "properties": { "building": "Viking Union", "open": null, "goods": "Meals, Snacks, Beverages, Coffee", "locations": "Starbucks", "abbrev": "VU", "keywords": "drink food dining eat", "wwu_link": "http:\/\/wwu.campusdish.com\/Locations\/VikingUnionMarket.aspx", "name": "Viking Union Cafe", "scale": "Floorplan", "site": "WWU", "type": "Retail", "notes": null }, "geometry": { "type": "Point", "coordinates": [ -122.486427043911576, 48.738824443788076 ] } }
]
}
