{
"type": "FeatureCollection",
"crs": { "type": "name", "properties": { "name": "urn:ogc:def:crs:OGC:1.3:CRS84" } },
                                                                                
"features": [
{ "type": "Feature", "properties": { "type": "Major Disaster Assembly Area", "location": "Old Main Lawn", "site": "WWU", "note": null, "url": null }, "geometry": { "type": "Point", "coordinates": [ -122.484163500881522, 48.738595381742591 ] } },
{ "type": "Feature", "properties": { "type": "Major Disaster Assembly Area", "location": "Communications Lawn", "site": "WWU", "note": null, "url": null }, "geometry": { "type": "Point", "coordinates": [ -122.485990503473801, 48.732810323753647 ] } },
{ "type": "Feature", "properties": { "type": "Major Disaster Assembly Area", "location": "Tennis Courts", "site": "WWU", "note": null, "url": null }, "geometry": { "type": "Point", "coordinates": [ -122.488164152866261, 48.726746609643236 ] } }
]
}
