{
"type": "FeatureCollection",
"crs": { "type": "name", "properties": { "name": "urn:ogc:def:crs:OGC:1.3:CRS84" } },
                                                                                
"features": [
{ "type": "Feature", "properties": { "name": "CANYON LAKE RIPARIAN", "type": "CONS ESMT", "note": null, "location": "Canyon Lake Community Forest", "site": null, "shape_Length": 22665.718194856712, "shape_Area": 4248549.5610549012 }, "geometry": { "type": "MultiPolygon", "coordinates": [ [ [ [ -122.087506936046353, 48.843536074722302 ], [ -122.086927233271751, 48.843374044870302 ], [ -122.086807030133571, 48.84333260857575 ], [ -122.086479032948773, 48.843195060182339 ], [ -122.086276749128913, 48.843076507109942 ], [ -122.086177727757857, 48.842994753299173 ], [ -122.08607408473874, 48.842885973976308 ], [ -122.0860309511244, 48.842822648310282 ], [ -122.08583781910373, 48.842623206144751 ], [ -122.085814296649588, 48.842605024484229 ], [ -122.085743251864301, 48.842577473360706 ], [ -122.08548556474004, 48.842507947277113 ], [ -122.085306263699962, 48.842484042511593 ], [ -122.085216838487852, 48.842483329174144 ], [ -122.084989000983882, 48.842459030497118 ], [ -122.084896492787436, 48.842440304151857 ], [ -122.084843000375272, 48.842430884206891 ], [ -122.084712572140219, 48.84238936129244 ], [ -122.084595173635137, 48.842334450425156 ], [ -122.084560671551529, 48.842311685585905 ], [ -122.084519430141356, 48.842284367835312 ], [ -122.084203759151578, 48.842079442774306 ], [ -122.084103796394459, 48.842002179564922 ], [ -122.083941361149996, 48.841847949497776 ], [ -122.083878718982604, 48.841779977765128 ], [ -122.083705853374965, 48.841544696935394 ], [ -122.083575569900518, 48.841449199098754 ], [ -122.083235580254822, 48.841316052902414 ], [ -122.083018844433539, 48.84119736950781 ], [ -122.082925625525647, 48.841124653741112 ], [ -122.082819352608269, 48.841020348712902 ], [ -122.08274946179678, 48.840929827939533 ], [ -122.082700619432842, 48.840852969832277 ], [ -122.082591383301747, 48.840631688704299 ], [ -122.082460361287588, 48.840576669897146 ], [ -122.082233243017512, 48.840466902504616 ], [ -122.082183401828118, 48.840444016212473 ], [ -122.082082448187023, 48.840375734473639 ], [ -122.082000467322388, 48.840294113880404 ], [ -122.081920350517677, 48.840203513283939 ], [ -122.081757904621213, 48.840143741874797 ], [ -122.081563841332169, 48.840043236589388 ], [ -122.081456996925638, 48.839970413743018 ], [ -122.081301234670775, 48.839825228645097 ], [ -122.081204068181236, 48.839689506552936 ], [ -122.081170136601756, 48.839635257318392 ], [ -122.081046769932698, 48.839395868780542 ], [ -122.08101174346713, 48.839355103115501 ], [ -122.080373597052159, 48.839039640036248 ], [ -122.080278433590308, 48.838980409478879 ], [ -122.080103446478873, 48.838862051172612 ], [ -122.079942738178246, 48.838707831284864 ], [ -122.079861428052808, 48.838590224499391 ], [ -122.079813600633997, 48.838504377259369 ], [ -122.079772070142297, 48.838400587669291 ], [ -122.079736028898864, 48.838368810443427 ], [ -122.079554725352565, 48.838223421270477 ], [ -122.079464397546673, 48.838132733901048 ], [ -122.079383610038107, 48.838033127493368 ], [ -122.079317466110012, 48.837924650042069 ], [ -122.079293757397409, 48.837870474451123 ], [ -122.079264152996288, 48.837766780231526 ], [ -122.079253801314877, 48.837681229174969 ], [ -122.079241855347519, 48.837636155831461 ], [ -122.079097216863346, 48.83758102162686 ], [ -122.078899759196446, 48.837480479892527 ], [ -122.078783731841767, 48.837398586811574 ], [ -122.078748458987974, 48.837371312091605 ], [ -122.07874265706873, 48.837362271100773 ], [ -122.078614143080202, 48.837356745322523 ], [ -122.078548742309678, 48.837347226720873 ], [ -122.078408650523585, 48.837323617538495 ], [ -122.078278240682877, 48.837282088241459 ], [ -122.078160860913798, 48.837227169885566 ], [ -122.078115370338736, 48.837199820627902 ], [ -122.078032902816716, 48.837145181341 ], [ -122.077977450424456, 48.837104249759896 ], [ -122.077937314029285, 48.837063440610642 ], [ -122.077800624561561, 48.837039863627865 ], [ -122.0776702159243, 48.836998332746951 ], [ -122.077601816152992, 48.836966299532307 ], [ -122.07752328689152, 48.836929686209231 ], [ -122.077419306446757, 48.836933353677274 ], [ -122.077275550154084, 48.836923202896841 ], [ -122.077152398672297, 48.836904226433262 ], [ -122.07699828270502, 48.836947975429176 ], [ -122.076835045747487, 48.836978155362374 ], [ -122.076578822614096, 48.837016585288943 ], [ -122.076546463001904, 48.837016325164612 ], [ -122.076402375842619, 48.837024165148001 ], [ -122.076258618288122, 48.837014019422128 ], [ -122.076199947875054, 48.837009042187496 ], [ -122.076081991292668, 48.836985611504943 ], [ -122.076033192194274, 48.836998717808058 ], [ -122.075892257277559, 48.83702008178809 ], [ -122.075746474862854, 48.837027905755043 ], [ -122.075554016516733, 48.837026363150542 ], [ -122.075411963670803, 48.83701622609513 ], [ -122.075271864743442, 48.836992614140925 ], [ -122.075141467828871, 48.836951080328944 ], [ -122.075024090853717, 48.836896158822142 ], [ -122.074944957187512, 48.836846050445935 ], [ -122.074894605078185, 48.836805154829676 ], [ -122.074581549509247, 48.836784650325569 ], [ -122.074516061178784, 48.836779625236062 ], [ -122.074376045421005, 48.836751510205403 ], [ -122.074293011363721, 48.836728357029209 ], [ -122.074153324747527, 48.836682249923349 ], [ -122.074105971792534, 48.836663879825728 ], [ -122.073988596600458, 48.836608957270137 ], [ -122.073897790766623, 48.836545248716789 ], [ -122.073828019786845, 48.836495210822648 ], [ -122.073817971573547, 48.836486134742408 ], [ -122.073736010286339, 48.836404509112057 ], [ -122.073676271116554, 48.836318563133347 ], [ -122.073640468063118, 48.836228308279267 ], [ -122.07363832596657, 48.836205802070324 ], [ -122.075755518953414, 48.836168818418841 ], [ -122.075755172264437, 48.836156760355692 ], [ -122.075745639412986, 48.835826876800198 ], [ -122.075752101052132, 48.835830057193753 ], [ -122.075857053281965, 48.83588174693454 ], [ -122.075880130491242, 48.83587743419114 ], [ -122.075882549568163, 48.835877305881588 ], [ -122.076020923369242, 48.835869772928405 ], [ -122.07602420630694, 48.835869594936803 ], [ -122.07611184249879, 48.835874794032847 ], [ -122.076240264930163, 48.835884818337753 ], [ -122.076354979462778, 48.835899231699251 ], [ -122.07643052493718, 48.83591333151378 ], [ -122.076735340757324, 48.835825808210274 ], [ -122.076790091784645, 48.83581275231618 ], [ -122.076931103661309, 48.835786892446635 ], [ -122.077075177674075, 48.835779051008586 ], [ -122.077205474055006, 48.835780094267669 ], [ -122.07739418946008, 48.835799599415431 ], [ -122.077420507766433, 48.835804309788628 ], [ -122.077493310458337, 48.835782397687922 ], [ -122.077634313720949, 48.835756537054742 ], [ -122.077778405244658, 48.835748694558433 ], [ -122.077876243233618, 48.835753978568036 ], [ -122.077991046545648, 48.835763889144843 ], [ -122.078036945324669, 48.835768756328655 ], [ -122.078176961739658, 48.835796866059653 ], [ -122.078307358018947, 48.835838390201573 ], [ -122.078361449852309, 48.835861319060143 ], [ -122.078420558535726, 48.835888779073365 ], [ -122.078482148517054, 48.835920758647291 ], [ -122.078550276922471, 48.835921304332324 ], [ -122.078654853025583, 48.835931129257332 ], [ -122.07869138972471, 48.835935925331711 ], [ -122.078831398790712, 48.835964034362135 ], [ -122.078961805567857, 48.83600555766742 ], [ -122.079079183380173, 48.836060475243308 ], [ -122.079112062736939, 48.836078730023374 ], [ -122.079168539638374, 48.836110672152827 ], [ -122.079183623507916, 48.83612428592339 ], [ -122.079251685179386, 48.83617431016183 ], [ -122.079333735432371, 48.836251437126776 ], [ -122.079380183604826, 48.836319275950096 ], [ -122.079448064680307, 48.836333319053345 ], [ -122.079587066936639, 48.836370415028085 ], [ -122.079697965616916, 48.836407287024791 ], [ -122.07981534636076, 48.836462197542566 ], [ -122.079904535185605, 48.836521389850169 ], [ -122.079999445876311, 48.836594118713172 ], [ -122.080010360497582, 48.836603202093301 ], [ -122.080092404423141, 48.836680328598646 ], [ -122.080102294496797, 48.836698400005339 ], [ -122.080186875219397, 48.83673056176611 ], [ -122.080367464423148, 48.836821967479878 ], [ -122.080530689407084, 48.836931227770847 ], [ -122.080677327014158, 48.837062846318574 ], [ -122.080769711724088, 48.83718052834287 ], [ -122.080851900491098, 48.83734312565025 ], [ -122.0808979925703, 48.837523424847348 ], [ -122.080906538824053, 48.837568470571426 ], [ -122.080908843489595, 48.837581986163258 ], [ -122.081030508376941, 48.837681913967209 ], [ -122.08105147467495, 48.837700078979204 ], [ -122.081175542738876, 48.83780902093855 ], [ -122.081290582218287, 48.837944888124817 ], [ -122.081336788511692, 48.838026223147651 ], [ -122.081362195775384, 48.838080403541426 ], [ -122.081398013720445, 48.838170650563086 ], [ -122.081423237281015, 48.838188849068814 ], [ -122.082109505943961, 48.838527181541153 ], [ -122.082271891468395, 48.838636443016235 ], [ -122.08236579331664, 48.838718152457368 ], [ -122.08243268791567, 48.838786154101506 ], [ -122.08253768271905, 48.838912944674952 ], [ -122.082594109202532, 48.838994358537221 ], [ -122.082718339365584, 48.839233754275334 ], [ -122.082756503268115, 48.839243053470923 ], [ -122.082886913498783, 48.839284572419274 ], [ -122.083004294958585, 48.839339486059558 ], [ -122.083096830028879, 48.839403197864613 ], [ -122.083190047384903, 48.839475913529306 ], [ -122.083280542953304, 48.839557601202621 ], [ -122.083361340527375, 48.839657204849736 ], [ -122.083378290070456, 48.839661837191478 ], [ -122.083483316907945, 48.839694159564004 ], [ -122.083714691379853, 48.839803953538997 ], [ -122.083854420952477, 48.839895032246154 ], [ -122.084012752580179, 48.840040233208953 ], [ -122.084080947784898, 48.840130737285683 ], [ -122.084127319264425, 48.840203080665788 ], [ -122.084243132027254, 48.840437904780053 ], [ -122.084526545264211, 48.840543615201035 ], [ -122.084731454175056, 48.840657699528101 ], [ -122.085023881322314, 48.840875933685133 ], [ -122.085146940678456, 48.840993865653012 ], [ -122.085342317151515, 48.841256314145127 ], [ -122.085425153934963, 48.841337939426666 ], [ -122.085525432717205, 48.84139720892167 ], [ -122.08586374789104, 48.841435881521527 ], [ -122.086047056709873, 48.841473323057393 ], [ -122.086442814022092, 48.841584411881485 ], [ -122.086538484794247, 48.841616661236699 ], [ -122.08675000806781, 48.841694806739362 ], [ -122.086919558482521, 48.841786116078183 ], [ -122.087083670578224, 48.84189536945469 ], [ -122.087197001587299, 48.841986231676962 ], [ -122.087464462444103, 48.842267238657605 ], [ -122.087503427872576, 48.84232602929503 ], [ -122.087640421918081, 48.842381087068773 ], [ -122.088145492428438, 48.842524528093243 ], [ -122.088374386034346, 48.842584815565452 ], [ -122.088390489467116, 48.842589444605984 ], [ -122.088390923943052, 48.842611934768954 ], [ -122.088841095583405, 48.842682969118073 ], [ -122.089502587584647, 48.842656710251859 ], [ -122.08976913651405, 48.842613834950441 ], [ -122.090089827758447, 48.842544392053362 ], [ -122.090421316973433, 48.84244355415666 ], [ -122.090494036057464, 48.842426135167791 ], [ -122.090635060654279, 48.842400257876065 ], [ -122.090779159502105, 48.842392400333082 ], [ -122.090812293563729, 48.842397160111545 ], [ -122.091489916639517, 48.842420490051616 ], [ -122.091552939533884, 48.842420992499086 ], [ -122.091920386257115, 48.842450875953034 ], [ -122.091998822313329, 48.842446997516561 ], [ -122.092104998963535, 48.842416344225022 ], [ -122.092216534672687, 48.842372241091162 ], [ -122.092419365261549, 48.842319859247986 ], [ -122.092572304667698, 48.842294074848688 ], [ -122.092836662008239, 48.842278159087535 ], [ -122.09306986276826, 48.842288992631048 ], [ -122.093166875442591, 48.842294255778214 ], [ -122.093306908679921, 48.842322347367137 ], [ -122.093400110496489, 48.842350071730159 ], [ -122.093585490604255, 48.842414502086591 ], [ -122.093658165106888, 48.842446559869096 ], [ -122.09368031010699, 48.842446731456342 ], [ -122.094495999435111, 48.842277715809459 ], [ -122.094650562049907, 48.84225643922386 ], [ -122.094976395773941, 48.842232007724341 ], [ -122.09507867968648, 48.842228314291006 ], [ -122.095673162511048, 48.842232978221872 ], [ -122.095753137950837, 48.84223810263763 ], [ -122.09597689665506, 48.842253355684029 ], [ -122.096442325000737, 48.842234513684417 ], [ -122.096566062589318, 48.842221991625863 ], [ -122.098478268275358, 48.842039039543515 ], [ -122.098607889651007, 48.842031060511118 ], [ -122.099167445598255, 48.842035433656235 ], [ -122.099221027124258, 48.842040351244592 ], [ -122.099582747973756, 48.842056669507983 ], [ -122.099851359347085, 48.842040778832121 ], [ -122.100490964615503, 48.841951305168834 ], [ -122.100655139270202, 48.841916604243167 ], [ -122.100983437215305, 48.841802207036977 ], [ -122.10108534860278, 48.841771517220835 ], [ -122.101342840198143, 48.841710548241394 ], [ -122.101565691480687, 48.841680798913686 ], [ -122.101893066252998, 48.841665360499853 ], [ -122.102080351534028, 48.841671318332978 ], [ -122.10234985103186, 48.841700406529739 ], [ -122.102449659245934, 48.841692188352077 ], [ -122.10250169257273, 48.841688092923306 ], [ -122.102533372504254, 48.841679341999516 ], [ -122.103098531889145, 48.841418345724783 ], [ -122.103347080035789, 48.841285336272321 ], [ -122.10349214300814, 48.841223490895437 ], [ -122.103838307946944, 48.841109228080413 ], [ -122.103954362637523, 48.84100217149323 ], [ -122.104082956423881, 48.840908706365148 ], [ -122.104175900004179, 48.840855451141806 ], [ -122.104297883690762, 48.840797922188919 ], [ -122.104577543761025, 48.840687643120049 ], [ -122.104836139017209, 48.840563703868369 ], [ -122.104915141180442, 48.840528325883369 ], [ -122.105037729771993, 48.840484301065729 ], [ -122.105169609949471, 48.840444840469914 ], [ -122.105310621589737, 48.840418946306421 ], [ -122.105428226097743, 48.840415356268643 ], [ -122.106169497532306, 48.840403117349609 ], [ -122.106657460386003, 48.840217974612933 ], [ -122.106812417893821, 48.840174194191107 ], [ -122.107056950907406, 48.840122108931489 ], [ -122.107225208115963, 48.840096422857393 ], [ -122.107448664072663, 48.840080161689094 ], [ -122.107670018733955, 48.840086372150637 ], [ -122.108126552868285, 48.840134887258301 ], [ -122.108298748564096, 48.84012722591261 ], [ -122.10843464342382, 48.840101286773795 ], [ -122.108971224959902, 48.839912016773816 ], [ -122.109174799623148, 48.839864109236437 ], [ -122.109548015868455, 48.839808513929306 ], [ -122.109701660272847, 48.839742226543237 ], [ -122.110047751032923, 48.839582967522873 ], [ -122.110089878896545, 48.839560798975654 ], [ -122.110408161402404, 48.839432807387098 ], [ -122.110424374216052, 48.839239513652323 ], [ -122.1104367198284, 48.839167633339734 ], [ -122.110475791881626, 48.839077973618011 ], [ -122.110507325449802, 48.839028732387355 ], [ -122.110633848209062, 48.838858780825689 ], [ -122.110684285947116, 48.838800692523762 ], [ -122.111128305771118, 48.838354296665329 ], [ -122.111223363005976, 48.838229079407448 ], [ -122.111306717972383, 48.838139756786362 ], [ -122.111349083677212, 48.83810409696391 ], [ -122.111390732497469, 48.840317539313709 ], [ -122.111375244072889, 48.84032641824033 ], [ -122.110985714350832, 48.840485351434381 ], [ -122.110644725208843, 48.840644654377492 ], [ -122.110614683995422, 48.840657918607029 ], [ -122.11032287223199, 48.840781617738834 ], [ -122.110057497507384, 48.84085603374934 ], [ -122.109649280343348, 48.840915856629699 ], [ -122.109139254889968, 48.841096341191168 ], [ -122.108992898402221, 48.841135696690635 ], [ -122.108688578589778, 48.841196315473177 ], [ -122.108499107514248, 48.841217340606875 ], [ -122.108137678796211, 48.841232542285255 ], [ -122.107953795816286, 48.841226619945026 ], [ -122.107515978793572, 48.841178247542935 ], [ -122.107489500451322, 48.841182539863318 ], [ -122.107408265022713, 48.841199903437328 ], [ -122.106921141748771, 48.841385056187107 ], [ -122.106767895032661, 48.841428852180059 ], [ -122.10656864701069, 48.841472288830637 ], [ -122.106326286741037, 48.841497399919774 ], [ -122.105698357473813, 48.841506022145907 ], [ -122.105528202056291, 48.841590171391573 ], [ -122.105458648235484, 48.841621117290025 ], [ -122.105232193322905, 48.841709323057238 ], [ -122.105065943261209, 48.841860969537692 ], [ -122.105022711469132, 48.841896620201119 ], [ -122.104919306276997, 48.841963290358215 ], [ -122.104799960650723, 48.84201634215809 ], [ -122.104767355152617, 48.842029586949479 ], [ -122.104318332258174, 48.842179032357294 ], [ -122.104117955662105, 48.842285438187012 ], [ -122.104076747226131, 48.842303105026701 ], [ -122.10341104695803, 48.84261280544446 ], [ -122.103242139424864, 48.842674465212738 ], [ -122.103010198817671, 48.842735639407536 ], [ -122.102781295077165, 48.842769843373311 ], [ -122.102574864576113, 48.842786223942014 ], [ -122.102523677813537, 48.842790327260438 ], [ -122.10243161278099, 48.842794104835654 ], [ -122.1024111738637, 48.842793950511194 ], [ -122.102197396603302, 48.842792284416866 ], [ -122.101915117991624, 48.842763094753806 ], [ -122.10179749810753, 48.842766675054591 ], [ -122.101699920988878, 48.842792903505625 ], [ -122.101365655988957, 48.842907253319829 ], [ -122.101250969176192, 48.842937847562439 ], [ -122.100979850119629, 48.842998708109654 ], [ -122.100882426409527, 48.843015940015178 ], [ -122.100147168864282, 48.843118155326991 ], [ -122.10005493789717, 48.843130933294425 ], [ -122.099668629565699, 48.843154904485395 ], [ -122.0995289528597, 48.843153816233574 ], [ -122.099123861046834, 48.843132657201579 ], [ -122.098653719415594, 48.843128981554436 ], [ -122.096812243099791, 48.843307988562898 ], [ -122.096652650698459, 48.843324731418598 ], [ -122.096579318726157, 48.843328654795449 ], [ -122.096006487889369, 48.843351150751658 ], [ -122.095868504609058, 48.843350068547295 ], [ -122.095614168146327, 48.843330081315791 ], [ -122.095111659831687, 48.843326135661968 ], [ -122.094913740878738, 48.84334257596695 ], [ -122.094100666118749, 48.843507117051224 ], [ -122.093950356875411, 48.843528426902189 ], [ -122.093529817068614, 48.843561108864172 ], [ -122.093423271587312, 48.843564766927507 ], [ -122.093279492103122, 48.843554641318008 ], [ -122.093139368179635, 48.843531049983959 ], [ -122.093091914399011, 48.843517177133599 ], [ -122.092998710765272, 48.843489458830646 ], [ -122.092915736201931, 48.843461812501623 ], [ -122.092805136336182, 48.843406966750941 ], [ -122.092581537398061, 48.843477179640047 ], [ -122.0923242790155, 48.843524632105812 ], [ -122.092009504364029, 48.843549141727365 ], [ -122.091807648797101, 48.843547550874732 ], [ -122.091372143047209, 48.843512633150716 ], [ -122.090931198815511, 48.843495659168923 ], [ -122.090743608697991, 48.843552658371706 ], [ -122.090657099839888, 48.843578964063553 ], [ -122.090260272097183, 48.843665795788475 ], [ -122.0901962235274, 48.84367428705027 ], [ -122.0898211813941, 48.843734299222227 ], [ -122.089666691810038, 48.843751073705555 ], [ -122.088812621718532, 48.843780309365599 ], [ -122.088586226433776, 48.843769525277224 ], [ -122.088380683612186, 48.843736410850163 ], [ -122.088207338931454, 48.843712548898189 ], [ -122.088087744047087, 48.843684613433354 ], [ -122.087529849454768, 48.843540751132103 ], [ -122.087506936046353, 48.843536074722302 ] ] ] ] } },
{ "type": "Feature", "properties": { "name": "Canyon Lake Community Forest", "type": "Boundary", "note": null, "location": null, "site": null, "shape_Length": 49690.373644238905, "shape_Area": 105513972.75819781 }, "geometry": { "type": "MultiPolygon", "coordinates": [ [ [ [ -122.048175617537538, 48.833635959152517 ], [ -122.048163419861893, 48.832798627076329 ], [ -122.042673934066926, 48.8328285034207 ], [ -122.042637307005108, 48.832828762023659 ], [ -122.037193815909475, 48.83285791381892 ], [ -122.037175927533411, 48.832858049111081 ], [ -122.031723064186622, 48.832887149187094 ], [ -122.031675365367462, 48.832887313131884 ], [ -122.026133890223605, 48.832917934107982 ], [ -122.026126152784343, 48.829328560823122 ], [ -122.026116787428705, 48.825691375102053 ], [ -122.02611700000395, 48.825680413808307 ], [ -122.026105525431888, 48.822064013436666 ], [ -122.026094526052205, 48.818422876236077 ], [ -122.026084354972184, 48.8150457310132 ], [ -122.026075652663579, 48.811680688351984 ], [ -122.026062474823036, 48.808370710632865 ], [ -122.02606433875296, 48.808318430792859 ], [ -122.031593166954309, 48.808273094472362 ], [ -122.037032020285352, 48.808214085552315 ], [ -122.04248184106423, 48.808176816098751 ], [ -122.04252750834597, 48.81154046890974 ], [ -122.048015404642229, 48.811494597296928 ], [ -122.048015746164211, 48.811521591602897 ], [ -122.048012282720279, 48.814714426513795 ], [ -122.053394462439869, 48.814710733155863 ], [ -122.064293277644268, 48.814752688526561 ], [ -122.06429371872845, 48.81478512184443 ], [ -122.06988801812733, 48.814780363636629 ], [ -122.069883860764918, 48.818078945945921 ], [ -122.070023048771233, 48.821728139097374 ], [ -122.07002416676211, 48.821759916744618 ], [ -122.070158932255708, 48.825373084070094 ], [ -122.070299444694029, 48.828998385623727 ], [ -122.075831095382156, 48.828920863283031 ], [ -122.075916868610975, 48.832535868968918 ], [ -122.075967984106171, 48.832534878867818 ], [ -122.075972521443049, 48.832846901503501 ], [ -122.075975174653109, 48.833029269331192 ], [ -122.076020947229182, 48.83617408209377 ], [ -122.070602948226195, 48.836234259271855 ], [ -122.070603617674962, 48.836255200139995 ], [ -122.070604029031429, 48.836268005756942 ], [ -122.070610012162959, 48.839847793112106 ], [ -122.070610315754934, 48.839877315582136 ], [ -122.070616196944556, 48.84346216210642 ], [ -122.06507410119616, 48.843510958584893 ], [ -122.059484336591055, 48.843557131236409 ], [ -122.053921908635871, 48.84359847962908 ], [ -122.048325555328688, 48.843631689154364 ], [ -122.048272075102489, 48.840035480656901 ], [ -122.048216118424705, 48.836435316116251 ], [ -122.048175617537538, 48.833635959152517 ] ] ] ] } }
]
}
