{
"type": "FeatureCollection",
"crs": { "type": "name", "properties": { "name": "urn:ogc:def:crs:OGC:1.3:CRS84" } },
                                                                                
"features": [
{ "type": "Feature", "properties": { "objectid": null, "name": "Western Gallery", "dsc": null, "image": "http:\/\/www.wwu.edu\/map\/assets\/images\/art\/WesternGallery.jpg", "url": "http:\/\/westerngallery.wwu.edu\/", "note": null, "type": "Gallery" }, "geometry": { "type": "Point", "coordinates": [ -122.485460881107585, 48.735241634085845 ] } },
{ "type": "Feature", "properties": { "objectid": null, "name": "VU Gallery", "dsc": null, "image": "http:\/\/www.wwu.edu\/map\/assets\/images\/art\/VUgallery.jpg", "url": "http:\/\/as.wwu.edu\/gallery\/", "note": null, "type": "Gallery" }, "geometry": { "type": "Point", "coordinates": [ -122.486405786645818, 48.73895850386301 ] } },
{ "type": "Feature", "properties": { "objectid": null, "name": "Western City Center", "dsc": null, "image": "http:\/\/www.wwu.edu\/map\/assets\/images\/Buildings\/herald.jpg", "url": "http:\/\/alumni.wwu.edu\/", "note": null, "type": "Other" }, "geometry": { "type": "Point", "coordinates": [ -122.479236352242523, 48.747330935789009 ] } }
]
}
