{
"type": "FeatureCollection",
"crs": { "type": "name", "properties": { "name": "urn:ogc:def:crs:OGC:1.3:CRS84" } },
                                                                                
"features": [
{ "type": "Feature", "properties": { "FeatureID": -1, "ZOrder": null, "AnnotationClassID": -1, "Element": "0100D3344020EAF6D01183AD080009B996CC080006000200000000000A00000054006500...", "SymbolID": -1, "Status": 0, "TextString": "7G", "FontName": "Arial", "FontSize": 25.000076308846474, "Bold": 1, "Italic": 0, "Underline": 0, "VerticalAlignment": 3, "HorizontalAlignment": 1, "XOffset": 0, "YOffset": 0, "Angle": 0, "FontLeading": 0, "WordSpacing": 100, "CharacterWidth": 100, "CharacterSpacing": 0, "FlipAngle": 0, "Override": 0, "Shape_Length": 320.15749618411064, "Shape_Area": 6356.1860683926388 }, "geometry": { "type": "MultiPolygon", "coordinates": [ [ [ [ -122.482827478033386, 48.740224757566438 ], [ -122.482833958141015, 48.740424687620077 ], [ -122.482473017206942, 48.740429804775133 ], [ -122.48246653851642, 48.740229874701768 ], [ -122.482827478033386, 48.740224757566438 ] ] ] ] } },
{ "type": "Feature", "properties": { "FeatureID": -1, "ZOrder": null, "AnnotationClassID": -1, "Element": "0100D3344020EAF6D01183AD080009B996CC080006000200000000000A00000054006500...", "SymbolID": -1, "Status": 0, "TextString": "3R", "FontName": "Arial", "FontSize": 25.000076308846474, "Bold": 1, "Italic": 0, "Underline": 0, "VerticalAlignment": 3, "HorizontalAlignment": 1, "XOffset": 0, "YOffset": 0, "Angle": 0, "FontLeading": 0, "WordSpacing": 100, "CharacterWidth": 100, "CharacterSpacing": 0, "FlipAngle": 0, "Override": 0, "Shape_Length": 312.88716948032379, "Shape_Area": 6090.9639834467544 }, "geometry": { "type": "MultiPolygon", "coordinates": [ [ [ [ -122.480897643291627, 48.740171537212021 ], [ -122.480904115812237, 48.740371467376946 ], [ -122.480558235896353, 48.740376365296171 ], [ -122.480551764733733, 48.74017643511236 ], [ -122.480897643291627, 48.740171537212021 ] ] ] ] } },
{ "type": "Feature", "properties": { "FeatureID": -1, "ZOrder": null, "AnnotationClassID": -1, "Element": "0100D3344020EAF6D01183AD080009B996CC080006000200000000000A00000054006500...", "SymbolID": -1, "Status": 0, "TextString": "5G", "FontName": "Arial", "FontSize": 25.000076308846474, "Bold": 1, "Italic": 0, "Underline": 0, "VerticalAlignment": 3, "HorizontalAlignment": 1, "XOffset": 0, "YOffset": 0, "Angle": 0, "FontLeading": 0, "WordSpacing": 100, "CharacterWidth": 100, "CharacterSpacing": 0, "FlipAngle": 0, "Override": 0, "Shape_Length": 320.15749615430832, "Shape_Area": 6356.186067305448 }, "geometry": { "type": "MultiPolygon", "coordinates": [ [ [ [ -122.482977769667286, 48.739622922175521 ], [ -122.482984250288609, 48.739822852264659 ], [ -122.482623313637447, 48.739827969887067 ], [ -122.482616834433145, 48.739628039778204 ], [ -122.482977769667286, 48.739622922175521 ] ] ] ] } },
{ "type": "Feature", "properties": { "FeatureID": -1, "ZOrder": null, "AnnotationClassID": -1, "Element": "0100D3344020EAF6D01183AD080009B996CC080006000200000000000A00000054006500...", "SymbolID": -1, "Status": 0, "TextString": "30G", "FontName": "Arial", "FontSize": 18, "Bold": 1, "Italic": 0, "Underline": 0, "VerticalAlignment": 3, "HorizontalAlignment": 1, "XOffset": 0, "YOffset": 0, "Angle": 0, "FontLeading": 0, "WordSpacing": 100, "CharacterWidth": 100, "CharacterSpacing": 0, "FlipAngle": 0, "Override": 0, "Shape_Length": 282.81373885273933, "Shape_Area": 4668.7405835036079 }, "geometry": { "type": "MultiPolygon", "coordinates": [ [ [ [ -122.482740946480504, 48.740819035398886 ], [ -122.482745611940501, 48.740962984328007 ], [ -122.482377386789764, 48.740968204405831 ], [ -122.482372722370712, 48.740824255462236 ], [ -122.482740946480504, 48.740819035398886 ] ] ] ] } },
{ "type": "Feature", "properties": { "FeatureID": -1, "ZOrder": null, "AnnotationClassID": -1, "Element": "0100D3344020EAF6D01183AD080009B996CC080006000200000000000A00000054006500...", "SymbolID": -1, "Status": 0, "TextString": "4R", "FontName": "Arial", "FontSize": 25.000076308846474, "Bold": 1, "Italic": 0, "Underline": 0, "VerticalAlignment": 3, "HorizontalAlignment": 1, "XOffset": 0, "YOffset": 0, "Angle": 0, "FontLeading": 0, "WordSpacing": 100, "CharacterWidth": 100, "CharacterSpacing": 0, "FlipAngle": 0, "Override": 0, "Shape_Length": 312.88716951012611, "Shape_Area": 6090.9639845339452 }, "geometry": { "type": "MultiPolygon", "coordinates": [ [ [ [ -122.484329040304218, 48.740577721528318 ], [ -122.484335526354883, 48.740777651472555 ], [ -122.483989644009284, 48.740782559591494 ], [ -122.483983159316594, 48.740582629628342 ], [ -122.484329040304218, 48.740577721528318 ] ] ] ] } },
{ "type": "Feature", "properties": { "FeatureID": -1, "ZOrder": null, "AnnotationClassID": -1, "Element": "0100D3344020EAF6D01183AD080009B996CC080006000200000000000A00000054006500...", "SymbolID": -1, "Status": 0, "TextString": "25G", "FontName": "Arial", "FontSize": 25.000076308846474, "Bold": 1, "Italic": 0, "Underline": 0, "VerticalAlignment": 3, "HorizontalAlignment": 1, "XOffset": 0, "YOffset": 0, "Angle": 0, "FontLeading": 0, "WordSpacing": 100, "CharacterWidth": 100, "CharacterSpacing": 0, "FlipAngle": 0, "Override": 0, "Shape_Length": 392.79777085781097, "Shape_Area": 9006.1089514957748 }, "geometry": { "type": "MultiPolygon", "coordinates": [ [ [ [ -122.488094994871858, 48.738070414424229 ], [ -122.488101495394829, 48.738270344340947 ], [ -122.487590098918659, 48.738277617689143 ], [ -122.487583600403383, 48.738077687744394 ], [ -122.488094994871858, 48.738070414424229 ] ] ] ] } },
{ "type": "Feature", "properties": { "FeatureID": -1, "ZOrder": null, "AnnotationClassID": -1, "Element": "0100D3344020EAF6D01183AD080009B996CC080006000200000000000A00000054006500...", "SymbolID": -1, "Status": 0, "TextString": "6V", "FontName": "Arial", "FontSize": 25.000076308846474, "Bold": 1, "Italic": 0, "Underline": 0, "VerticalAlignment": 3, "HorizontalAlignment": 1, "XOffset": 0, "YOffset": 0, "Angle": 0, "FontLeading": 0, "WordSpacing": 100, "CharacterWidth": 100, "CharacterSpacing": 0, "FlipAngle": 0, "Override": 0, "Shape_Length": 305.67983484268188, "Shape_Area": 5828.0398539846728 }, "geometry": { "type": "MultiPolygon", "coordinates": [ [ [ [ -122.485695527460294, 48.739808795811406 ], [ -122.485702018780401, 48.7400087257355 ], [ -122.485371072008874, 48.740013425898645 ], [ -122.485364581988065, 48.739813495956433 ], [ -122.485695527460294, 48.739808795811406 ] ] ] ] } },
{ "type": "Feature", "properties": { "FeatureID": -1, "ZOrder": null, "AnnotationClassID": -1, "Element": "0100D3344020EAF6D01183AD080009B996CC080006000200000000000A00000054006500...", "SymbolID": -1, "Status": 0, "TextString": "15R", "FontName": "Arial", "FontSize": 25.000076308846474, "Bold": 1, "Italic": 0, "Underline": 0, "VerticalAlignment": 3, "HorizontalAlignment": 1, "XOffset": 0, "YOffset": 0, "Angle": 0, "FontLeading": 0, "WordSpacing": 100, "CharacterWidth": 100, "CharacterSpacing": 0, "FlipAngle": 0, "Override": 0, "Shape_Length": 385.52744415402412, "Shape_Area": 8740.8868665498903 }, "geometry": { "type": "MultiPolygon", "coordinates": [ [ [ [ -122.489863303160803, 48.735257785912637 ], [ -122.489869810269738, 48.73545771593492 ], [ -122.489373501647037, 48.735464782672281 ], [ -122.489366996486453, 48.735264852622748 ], [ -122.489863303160803, 48.735257785912637 ] ] ] ] } },
{ "type": "Feature", "properties": { "FeatureID": -1, "ZOrder": null, "AnnotationClassID": -1, "Element": "0100D3344020EAF6D01183AD080009B996CC080006000200000000000A00000054006500...", "SymbolID": -1, "Status": 0, "TextString": "11G", "FontName": "Arial", "FontSize": 25.000076308846474, "Bold": 1, "Italic": 0, "Underline": 0, "VerticalAlignment": 3, "HorizontalAlignment": 1, "XOffset": 0, "YOffset": 0, "Angle": 0, "FontLeading": 0, "WordSpacing": 100, "CharacterWidth": 100, "CharacterSpacing": 0, "FlipAngle": 0, "Override": 0, "Shape_Length": 385.59174847602844, "Shape_Area": 8743.2326925312464 }, "geometry": { "type": "MultiPolygon", "coordinates": [ [ [ [ -122.488829619421665, 48.737732400478208 ], [ -122.488836122786878, 48.737932330378428 ], [ -122.488339656689647, 48.737939394594775 ], [ -122.488333155273494, 48.737739464667328 ], [ -122.488829619421665, 48.737732400478208 ] ] ] ] } },
{ "type": "Feature", "properties": { "FeatureID": -1, "ZOrder": null, "AnnotationClassID": -1, "Element": "0100D3344020EAF6D01183AD080009B996CC080006000200000000000A00000054006500...", "SymbolID": -1, "Status": 0, "TextString": "19G", "FontName": "Arial", "FontSize": 25.000076308846474, "Bold": 1, "Italic": 0, "Underline": 0, "VerticalAlignment": 3, "HorizontalAlignment": 1, "XOffset": 0, "YOffset": 0, "Angle": 0, "FontLeading": 0, "WordSpacing": 100, "CharacterWidth": 100, "CharacterSpacing": 0, "FlipAngle": 0, "Override": 0, "Shape_Length": 392.79777082800865, "Shape_Area": 9006.108950408583 }, "geometry": { "type": "MultiPolygon", "coordinates": [ [ [ [ -122.487491462186156, 48.732714058541468 ], [ -122.487497959654888, 48.732913988880796 ], [ -122.48698661690085, 48.732921259590491 ], [ -122.48698012143943, 48.732721329223125 ], [ -122.487491462186156, 48.732714058541468 ] ] ] ] } },
{ "type": "Feature", "properties": { "FeatureID": -1, "ZOrder": null, "AnnotationClassID": -1, "Element": "0100D3344020EAF6D01183AD080009B996CC080006000200000000000A00000054006500...", "SymbolID": -1, "Status": 0, "TextString": "AIC", "FontName": "Arial", "FontSize": 25.000076308846474, "Bold": 1, "Italic": 0, "Underline": 0, "VerticalAlignment": 3, "HorizontalAlignment": 1, "XOffset": 0, "YOffset": 0, "Angle": 0, "FontLeading": 0, "WordSpacing": 100, "CharacterWidth": 100, "CharacterSpacing": 0, "FlipAngle": 0, "Override": 0, "Shape_Length": 370.85949450731277, "Shape_Area": 8205.7989199304157 }, "geometry": { "type": "MultiPolygon", "coordinates": [ [ [ [ -122.485233628809794, 48.731702772102466 ], [ -122.485240117282316, 48.731902702641044 ], [ -122.484774222956617, 48.731909318304709 ], [ -122.484767736312946, 48.731709387740629 ], [ -122.485233628809794, 48.731702772102466 ] ] ] ] } },
{ "type": "Feature", "properties": { "FeatureID": -1, "ZOrder": null, "AnnotationClassID": -1, "Element": "0100D3344020EAF6D01183AD080009B996CC080006000200000000000A00000054006500...", "SymbolID": -1, "Status": 0, "TextString": "17G", "FontName": "Arial", "FontSize": 25.000076308846474, "Bold": 1, "Italic": 0, "Underline": 0, "VerticalAlignment": 3, "HorizontalAlignment": 1, "XOffset": 0, "YOffset": 0, "Angle": 0, "FontLeading": 0, "WordSpacing": 100, "CharacterWidth": 100, "CharacterSpacing": 0, "FlipAngle": 0, "Override": 0, "Shape_Length": 392.79777082800865, "Shape_Area": 9006.1089496563945 }, "geometry": { "type": "MultiPolygon", "coordinates": [ [ [ [ -122.484584662414036, 48.732884513007313 ], [ -122.484591148488434, 48.733084443496466 ], [ -122.484079803607457, 48.733091701429096 ], [ -122.484073319540357, 48.732891770911969 ], [ -122.484584662414036, 48.732884513007313 ] ] ] ] } },
{ "type": "Feature", "properties": { "FeatureID": -1, "ZOrder": null, "AnnotationClassID": -1, "Element": "0100D3344020EAF6D01183AD080009B996CC080006000200000000000A00000054006500...", "SymbolID": -1, "Status": 0, "TextString": "29G", "FontName": "Arial", "FontSize": 18, "Bold": 1, "Italic": 0, "Underline": 0, "VerticalAlignment": 3, "HorizontalAlignment": 1, "XOffset": 0, "YOffset": 0, "Angle": 0, "FontLeading": 0, "WordSpacing": 100, "CharacterWidth": 100, "CharacterSpacing": 0, "FlipAngle": 0, "Override": 0, "Shape_Length": 282.81373885273933, "Shape_Area": 4668.7405835036079 }, "geometry": { "type": "MultiPolygon", "coordinates": [ [ [ [ -122.485177932385582, 48.730472449559102 ], [ -122.485182603788076, 48.73061639893141 ], [ -122.484814453723814, 48.730621626741303 ], [ -122.484809783361811, 48.730477677354493 ], [ -122.485177932385582, 48.730472449559102 ] ] ] ] } },
{ "type": "Feature", "properties": { "FeatureID": -1, "ZOrder": null, "AnnotationClassID": -1, "Element": "0100D3344020EAF6D01183AD080009B996CC080006000200000000000A00000054006500...", "SymbolID": -1, "Status": 0, "TextString": "20R", "FontName": "Arial", "FontSize": 25.000076308846474, "Bold": 1, "Italic": 0, "Underline": 0, "VerticalAlignment": 3, "HorizontalAlignment": 1, "XOffset": 0, "YOffset": 0, "Angle": 0, "FontLeading": 0, "WordSpacing": 100, "CharacterWidth": 100, "CharacterSpacing": 0, "FlipAngle": 0, "Override": 0, "Shape_Length": 385.52744415402412, "Shape_Area": 8740.8868665498903 }, "geometry": { "type": "MultiPolygon", "coordinates": [ [ [ [ -122.49148992694451, 48.731198106871723 ], [ -122.49149643992267, 48.731398037097208 ], [ -122.491000171103678, 48.731405110784195 ], [ -122.490993660073585, 48.73120518053144 ], [ -122.49148992694451, 48.731198106871723 ] ] ] ] } },
{ "type": "Feature", "properties": { "FeatureID": -1, "ZOrder": null, "AnnotationClassID": -1, "Element": "0100D3344020EAF6D01183AD080009B996CC080006000200000000000A00000054006500...", "SymbolID": -1, "Status": 0, "TextString": "C\/CR", "FontName": "Arial", "FontSize": 25.000076308846474, "Bold": 1, "Italic": 0, "Underline": 0, "VerticalAlignment": 3, "HorizontalAlignment": 1, "XOffset": 0, "YOffset": 0, "Angle": 0, "FontLeading": 0, "WordSpacing": 100, "CharacterWidth": 100, "CharacterSpacing": 0, "FlipAngle": 0, "Override": 0, "Shape_Length": 465.18476516008377, "Shape_Area": 11646.792146903599 }, "geometry": { "type": "MultiPolygon", "coordinates": [ [ [ [ -122.490595868309569, 48.730618718440844 ], [ -122.490602377702444, 48.73081864875828 ], [ -122.489941131789493, 48.73082806854152 ], [ -122.489934624992202, 48.730628138187768 ], [ -122.490595868309569, 48.730618718440844 ] ] ] ] } },
{ "type": "Feature", "properties": { "FeatureID": -1, "ZOrder": null, "AnnotationClassID": -1, "Element": "0100D3344020EAF6D01183AD080009B996CC080006000200000000000A00000054006500...", "SymbolID": -1, "Status": 0, "TextString": "15R", "FontName": "Arial", "FontSize": 25.000076308846474, "Bold": 1, "Italic": 0, "Underline": 0, "VerticalAlignment": 3, "HorizontalAlignment": 1, "XOffset": 0, "YOffset": 0, "Angle": 0, "FontLeading": 0, "WordSpacing": 100, "CharacterWidth": 100, "CharacterSpacing": 0, "FlipAngle": 0, "Override": 0, "Shape_Length": 385.52744418382645, "Shape_Area": 8740.8868676370803 }, "geometry": { "type": "MultiPolygon", "coordinates": [ [ [ [ -122.489161155338394, 48.735849533470883 ], [ -122.489167659765201, 48.736049463489472 ], [ -122.48867134527552, 48.73605652722997 ], [ -122.488664842797107, 48.735856597184153 ], [ -122.489161155338394, 48.735849533470883 ] ] ] ] } },
{ "type": "Feature", "properties": { "FeatureID": -1, "ZOrder": null, "AnnotationClassID": -1, "Element": "0100D3344020EAF6D01183AD080009B996CC080006000200000000000A00000054006500...", "SymbolID": -1, "Status": 0, "TextString": "14G", "FontName": "Arial", "FontSize": 25.000076308846474, "Bold": 1, "Italic": 0, "Underline": 0, "VerticalAlignment": 3, "HorizontalAlignment": 1, "XOffset": 0, "YOffset": 0, "Angle": 0, "FontLeading": 0, "WordSpacing": 100, "CharacterWidth": 100, "CharacterSpacing": 0, "FlipAngle": 0, "Override": 0, "Shape_Length": 392.79777085781097, "Shape_Area": 9006.1089514957748 }, "geometry": { "type": "MultiPolygon", "coordinates": [ [ [ [ -122.487830576987278, 48.736124052095086 ], [ -122.487837076223173, 48.736323982168081 ], [ -122.487325699263081, 48.736331254359257 ], [ -122.487319202034755, 48.736131324258224 ], [ -122.487830576987278, 48.736124052095086 ] ] ] ] } },
{ "type": "Feature", "properties": { "FeatureID": -1, "ZOrder": null, "AnnotationClassID": -1, "Element": "0100D3344020EAF6D01183AD080009B996CC080006000200000000000A00000054006500...", "SymbolID": -1, "Status": 0, "TextString": "C\/CR", "FontName": "Arial", "FontSize": 25.000076308846474, "Bold": 1, "Italic": 0, "Underline": 0, "VerticalAlignment": 3, "HorizontalAlignment": 1, "XOffset": 0, "YOffset": 0, "Angle": 0, "FontLeading": 0, "WordSpacing": 100, "CharacterWidth": 100, "CharacterSpacing": 0, "FlipAngle": 0, "Override": 0, "Shape_Length": 465.18476516008377, "Shape_Area": 11646.792146903599 }, "geometry": { "type": "MultiPolygon", "coordinates": [ [ [ [ -122.491352102010936, 48.72707145749073 ], [ -122.491358613919957, 48.727271388021968 ], [ -122.490697414218076, 48.727280812115985 ], [ -122.490690904904312, 48.727080881548424 ], [ -122.491352102010936, 48.72707145749073 ] ] ] ] } },
{ "type": "Feature", "properties": { "FeatureID": -1, "ZOrder": null, "AnnotationClassID": -1, "Element": "0100D3344020EAF6D01183AD080009B996CC080006000200000000000A00000054006500...", "SymbolID": -1, "Status": 0, "TextString": "C\/CR", "FontName": "Arial", "FontSize": 25.000076308846474, "Bold": 1, "Italic": 0, "Underline": 0, "VerticalAlignment": 3, "HorizontalAlignment": 1, "XOffset": 0, "YOffset": 0, "Angle": 0, "FontLeading": 0, "WordSpacing": 100, "CharacterWidth": 100, "CharacterSpacing": 0, "FlipAngle": 0, "Override": 0, "Shape_Length": 465.18476516008377, "Shape_Area": 11646.792146903599 }, "geometry": { "type": "MultiPolygon", "coordinates": [ [ [ [ -122.488676256482435, 48.72915335976581 ], [ -122.488682758149523, 48.729353290296508 ], [ -122.488021530914239, 48.729362699173322 ], [ -122.488015031842636, 48.729162768606358 ], [ -122.488676256482435, 48.72915335976581 ] ] ] ] } },
{ "type": "Feature", "properties": { "FeatureID": -1, "ZOrder": null, "AnnotationClassID": -1, "Element": "0100D3344020EAF6D01183AD080009B996CC080006000200000000000A00000054006500...", "SymbolID": -1, "Status": 0, "TextString": "12A", "FontName": "Arial", "FontSize": 25.000076308846474, "Bold": 1, "Italic": 0, "Underline": 0, "VerticalAlignment": 3, "HorizontalAlignment": 1, "XOffset": 0, "YOffset": 0, "Angle": 0, "FontLeading": 0, "WordSpacing": 100, "CharacterWidth": 100, "CharacterSpacing": 0, "FlipAngle": 0, "Override": 0, "Shape_Length": 385.52744415402412, "Shape_Area": 8740.8868665498903 }, "geometry": { "type": "MultiPolygon", "coordinates": [ [ [ [ -122.486434271976179, 48.72995083262137 ], [ -122.486440764940497, 48.730150763219669 ], [ -122.485944507578637, 48.730157815342544 ], [ -122.485938016562301, 48.729957884717081 ], [ -122.486434271976179, 48.72995083262137 ] ] ] ] } },
{ "type": "Feature", "properties": { "FeatureID": -1, "ZOrder": null, "AnnotationClassID": -1, "Element": "0100D3344020EAF6D01183AD080009B996CC080006000200000000000A00000054006500...", "SymbolID": -1, "Status": 0, "TextString": "23V", "FontName": "Arial", "FontSize": 25.000076308846474, "Bold": 1, "Italic": 0, "Underline": 0, "VerticalAlignment": 3, "HorizontalAlignment": 1, "XOffset": 0, "YOffset": 0, "Angle": 0, "FontLeading": 0, "WordSpacing": 100, "CharacterWidth": 100, "CharacterSpacing": 0, "FlipAngle": 0, "Override": 0, "Shape_Length": 378.32142183184624, "Shape_Area": 8478.0106104582428 }, "geometry": { "type": "MultiPolygon", "coordinates": [ [ [ [ -122.489590464773372, 48.728007423892223 ], [ -122.48959696988419, 48.728207354454518 ], [ -122.489115655926426, 48.728214207584628 ], [ -122.489109152704842, 48.728014276995907 ], [ -122.489590464773372, 48.728007423892223 ] ] ] ] } },
{ "type": "Feature", "properties": { "FeatureID": -1, "ZOrder": null, "AnnotationClassID": -1, "Element": "0100D3344020EAF6D01183AD080009B996CC080006000200000000000A00000054006500...", "SymbolID": -1, "Status": 0, "TextString": "18R", "FontName": "Arial", "FontSize": 25.000076308846474, "Bold": 1, "Italic": 0, "Underline": 0, "VerticalAlignment": 3, "HorizontalAlignment": 1, "XOffset": 0, "YOffset": 0, "Angle": 0, "FontLeading": 0, "WordSpacing": 100, "CharacterWidth": 100, "CharacterSpacing": 0, "FlipAngle": 0, "Override": 0, "Shape_Length": 385.52744415402412, "Shape_Area": 8740.8868658518695 }, "geometry": { "type": "MultiPolygon", "coordinates": [ [ [ [ -122.487022099349417, 48.729140362718205 ], [ -122.487028594518804, 48.729340293342183 ], [ -122.486532345138457, 48.729347347974823 ], [ -122.48652585191698, 48.729147417323638 ], [ -122.487022099349417, 48.729140362718205 ] ] ] ] } },
{ "type": "Feature", "properties": { "FeatureID": -1, "ZOrder": null, "AnnotationClassID": -1, "Element": "0100D3344020EAF6D01183AD080009B996CC080006000200000000000A00000054006500...", "SymbolID": -1, "Status": 0, "TextString": "22G", "FontName": "Arial", "FontSize": 18, "Bold": 1, "Italic": 0, "Underline": 0, "VerticalAlignment": 3, "HorizontalAlignment": 1, "XOffset": 0, "YOffset": 0, "Angle": 0, "FontLeading": 0, "WordSpacing": 100, "CharacterWidth": 100, "CharacterSpacing": 0, "FlipAngle": 0, "Override": 0, "Shape_Length": 282.81373882293701, "Shape_Area": 4668.740582720834 }, "geometry": { "type": "MultiPolygon", "coordinates": [ [ [ [ -122.485096895486038, 48.726777590641014 ], [ -122.485101566320438, 48.726921540208629 ], [ -122.484733442965208, 48.726926767769065 ], [ -122.48472877317117, 48.726782818186955 ], [ -122.485096895486038, 48.726777590641014 ] ] ] ] } },
{ "type": "Feature", "properties": { "FeatureID": -1, "ZOrder": null, "AnnotationClassID": -1, "Element": "0100D3344020EAF6D01183AD080009B996CC080006000200000000000A00000054006500...", "SymbolID": -1, "Status": 0, "TextString": "1R", "FontName": "Arial", "FontSize": 25.000076308846474, "Bold": 1, "Italic": 0, "Underline": 0, "VerticalAlignment": 3, "HorizontalAlignment": 1, "XOffset": 0, "YOffset": 0, "Angle": 0, "FontLeading": 0, "WordSpacing": 100, "CharacterWidth": 100, "CharacterSpacing": 0, "FlipAngle": 0, "Override": 0, "Shape_Length": 312.88716948032379, "Shape_Area": 6090.9639834467544 }, "geometry": { "type": "MultiPolygon", "coordinates": [ [ [ [ -122.4862065287397, 48.726975777294264 ], [ -122.48621302043027, 48.727175708120008 ], [ -122.485867230672255, 48.727180621844496 ], [ -122.485860740338936, 48.72698069099981 ], [ -122.4862065287397, 48.726975777294264 ] ] ] ] } },
{ "type": "Feature", "properties": { "FeatureID": -1, "ZOrder": null, "AnnotationClassID": -1, "Element": "0100D3344020EAF6D01183AD080009B996CC080006000200000000000A00000054006500...", "SymbolID": -1, "Status": 0, "TextString": "33G", "FontName": "Arial", "FontSize": 18, "Bold": 1, "Italic": 0, "Underline": 0, "VerticalAlignment": 3, "HorizontalAlignment": 1, "XOffset": 0, "YOffset": 0, "Angle": 0, "FontLeading": 0, "WordSpacing": 100, "CharacterWidth": 100, "CharacterSpacing": 0, "FlipAngle": 0, "Override": 0, "Shape_Length": 282.81373885273933, "Shape_Area": 4668.7405835036079 }, "geometry": { "type": "MultiPolygon", "coordinates": [ [ [ [ -122.484986853681391, 48.726210721608425 ], [ -122.484991524152633, 48.726354671209869 ], [ -122.484623404884701, 48.726359898423141 ], [ -122.484618735453751, 48.726215948807194 ], [ -122.484986853681391, 48.726210721608425 ] ] ] ] } },
{ "type": "Feature", "properties": { "FeatureID": -1, "ZOrder": null, "AnnotationClassID": -1, "Element": "0100D3344020EAF6D01183AD080009B996CC080006000200000000000A00000054006500...", "SymbolID": -1, "Status": 0, "TextString": "13A", "FontName": "Arial", "FontSize": 18.000090315937996, "Bold": 1, "Italic": 0, "Underline": 0, "VerticalAlignment": 3, "HorizontalAlignment": 1, "XOffset": 0, "YOffset": 0, "Angle": 89, "FontLeading": 0, "WordSpacing": 100, "CharacterWidth": 100, "CharacterSpacing": 0, "FlipAngle": 0, "Override": 0, "Shape_Length": 277.58043623648973, "Shape_Area": 4531.2949356304071 }, "geometry": { "type": "MultiPolygon", "coordinates": [ [ [ [ -122.484099636532051, 48.724456899858353 ], [ -122.48431725978736, 48.724456324631831 ], [ -122.484318688601348, 48.724692749974487 ], [ -122.484101065723536, 48.724693326083361 ], [ -122.484099636532051, 48.724456899858353 ] ] ] ] } },
{ "type": "Feature", "properties": { "FeatureID": -1, "ZOrder": null, "AnnotationClassID": -1, "Element": "0100D3344020EAF6D01183AD080009B996CC080006000200000000000A00000054006500...", "SymbolID": -1, "Status": 0, "TextString": "27R", "FontName": "Arial", "FontSize": 25.000076308846474, "Bold": 1, "Italic": 0, "Underline": 0, "VerticalAlignment": 3, "HorizontalAlignment": 1, "XOffset": 0, "YOffset": 0, "Angle": 0, "FontLeading": 0, "WordSpacing": 100, "CharacterWidth": 100, "CharacterSpacing": 0, "FlipAngle": 0, "Override": 0, "Shape_Length": 385.52744415402412, "Shape_Area": 8740.8868665498903 }, "geometry": { "type": "MultiPolygon", "coordinates": [ [ [ [ -122.479871542877135, 48.731110275981592 ], [ -122.479878010215927, 48.731310206861636 ], [ -122.479381740644683, 48.731317230985042 ], [ -122.479375275253943, 48.731117300077926 ], [ -122.479871542877135, 48.731110275981592 ] ] ] ] } },
{ "type": "Feature", "properties": { "FeatureID": -1, "ZOrder": null, "AnnotationClassID": -1, "Element": "0100D3344020EAF6D01183AD080009B996CC080006000200000000000A00000054006500...", "SymbolID": -1, "Status": 0, "TextString": "32G", "FontName": "Arial", "FontSize": 25.000076308846474, "Bold": 1, "Italic": 0, "Underline": 0, "VerticalAlignment": 3, "HorizontalAlignment": 1, "XOffset": 0, "YOffset": 0, "Angle": 0, "FontLeading": 0, "WordSpacing": 100, "CharacterWidth": 100, "CharacterSpacing": 0, "FlipAngle": 0, "Override": 0, "Shape_Length": 392.79777082800865, "Shape_Area": 9006.108950408583 }, "geometry": { "type": "MultiPolygon", "coordinates": [ [ [ [ -122.474750550532065, 48.730938452750955 ], [ -122.474756997737728, 48.731138383927679 ], [ -122.474245671006031, 48.731145598640317 ], [ -122.474239225807523, 48.730945667435783 ], [ -122.474750550532065, 48.730938452750955 ] ] ] ] } },
{ "type": "Feature", "properties": { "FeatureID": -1, "ZOrder": null, "AnnotationClassID": -1, "Element": "0100D3344020EAF6D01183AD080009B996CC080006000200000000000A00000054006500...", "SymbolID": -1, "Status": 0, "TextString": "24G", "FontName": "Arial", "FontSize": 25.000076308846474, "Bold": 1, "Italic": 0, "Underline": 0, "VerticalAlignment": 3, "HorizontalAlignment": 1, "XOffset": 0, "YOffset": 0, "Angle": 0, "FontLeading": 0, "WordSpacing": 100, "CharacterWidth": 100, "CharacterSpacing": 0, "FlipAngle": 0, "Override": 0, "Shape_Length": 392.79777079820633, "Shape_Area": 9006.1089485692028 }, "geometry": { "type": "MultiPolygon", "coordinates": [ [ [ [ -122.483346633562121, 48.723894370401226 ], [ -122.48335311362996, 48.724094301608247 ], [ -122.482841858859857, 48.724101554122946 ], [ -122.482835380798647, 48.723901622887972 ], [ -122.483346633562121, 48.723894370401226 ] ] ] ] } },
{ "type": "Feature", "properties": { "FeatureID": -1, "ZOrder": null, "AnnotationClassID": -1, "Element": "0100D3344020EAF6D01183AD080009B996CC080006000200000000000A00000054006500...", "SymbolID": -1, "Status": 0, "TextString": "26CP", "FontName": "Arial", "FontSize": 18, "Bold": 1, "Italic": 0, "Underline": 0, "VerticalAlignment": 3, "HorizontalAlignment": 1, "XOffset": 0, "YOffset": 0, "Angle": 0, "FontLeading": 0, "WordSpacing": 100, "CharacterWidth": 100, "CharacterSpacing": 0, "FlipAngle": 0, "Override": 0, "Shape_Length": 340.30443748831749, "Shape_Area": 6178.7643370565183 }, "geometry": { "type": "MultiPolygon", "coordinates": [ [ [ [ -122.486869491432515, 48.730855181396855 ], [ -122.486874167653156, 48.730999130681276 ], [ -122.486386942340431, 48.731006056170642 ], [ -122.486382267496808, 48.730862106866994 ], [ -122.486869491432515, 48.730855181396855 ] ] ] ] } },
{ "type": "Feature", "properties": { "FeatureID": -1, "ZOrder": null, "AnnotationClassID": -1, "Element": "0100D3344020EAF6D01183AD080009B996CC080006000200000000000A00000054006500...", "SymbolID": -1, "Status": 0, "TextString": "CBS", "FontName": "Arial", "FontSize": 25.000076308846474, "Bold": 1, "Italic": 0, "Underline": 0, "VerticalAlignment": 3, "HorizontalAlignment": 1, "XOffset": 0, "YOffset": 0, "Angle": 0, "FontLeading": 0, "WordSpacing": 100, "CharacterWidth": 100, "CharacterSpacing": 0, "FlipAngle": 0, "Override": 0, "Shape_Length": 421.68878915905952, "Shape_Area": 10060.055551457468 }, "geometry": { "type": "MultiPolygon", "coordinates": [ [ [ [ -122.487614228550939, 48.734552956129015 ], [ -122.487620726736523, 48.734752886328167 ], [ -122.487049523092892, 48.73476100834845 ], [ -122.487043027149639, 48.734561078117991 ], [ -122.487614228550939, 48.734552956129015 ] ] ] ] } },
{ "type": "Feature", "properties": { "FeatureID": -1, "ZOrder": null, "AnnotationClassID": -1, "Element": "0100D3344020EAF6D01183AD080009B996CC080006000200000000000A00000054006500...", "SymbolID": -1, "Status": 0, "TextString": "10G", "FontName": "Arial", "FontSize": 18, "Bold": 1, "Italic": 0, "Underline": 0, "VerticalAlignment": 3, "HorizontalAlignment": 1, "XOffset": 0, "YOffset": 0, "Angle": 0, "FontLeading": 0, "WordSpacing": 100, "CharacterWidth": 100, "CharacterSpacing": 0, "FlipAngle": 0, "Override": 0, "Shape_Length": 282.81373882293701, "Shape_Area": 4668.740582720834 }, "geometry": { "type": "MultiPolygon", "coordinates": [ [ [ [ -122.483979359338406, 48.736833015642333 ], [ -122.483984027935151, 48.736976964730744 ], [ -122.483615831745894, 48.736982188735396 ], [ -122.483611164189867, 48.736838239632483 ], [ -122.483979359338406, 48.736833015642333 ] ] ] ] } },
{ "type": "Feature", "properties": { "FeatureID": -1, "ZOrder": null, "AnnotationClassID": -1, "Element": "0100D3344020EAF6D01183AD080009B996CC080006000200000000000A00000054006500...", "SymbolID": -1, "Status": 0, "TextString": "10G", "FontName": "Arial", "FontSize": 18, "Bold": 1, "Italic": 0, "Underline": 0, "VerticalAlignment": 3, "HorizontalAlignment": 1, "XOffset": 0, "YOffset": 0, "Angle": 0, "FontLeading": 0, "WordSpacing": 100, "CharacterWidth": 100, "CharacterSpacing": 0, "FlipAngle": 0, "Override": 0, "Shape_Length": 282.81373882293701, "Shape_Area": 4668.740582720834 }, "geometry": { "type": "MultiPolygon", "coordinates": [ [ [ [ -122.484638355397038, 48.735399502821316 ], [ -122.484643025725845, 48.73554345195825 ], [ -122.484274839972954, 48.73554867805116 ], [ -122.484270170684823, 48.735404728899717 ], [ -122.484638355397038, 48.735399502821316 ] ] ] ] } },
{ "type": "Feature", "properties": { "FeatureID": -1, "ZOrder": null, "AnnotationClassID": -1, "Element": "0100D3344020EAF6D01183AD080009B996CC080006000200000000000A00000054006500...", "SymbolID": -1, "Status": 0, "TextString": "8G", "FontName": "Arial", "FontSize": 18, "Bold": 1, "Italic": 0, "Underline": 0, "VerticalAlignment": 3, "HorizontalAlignment": 1, "XOffset": 0, "YOffset": 0, "Angle": 0, "FontLeading": 0, "WordSpacing": 100, "CharacterWidth": 100, "CharacterSpacing": 0, "FlipAngle": 0, "Override": 0, "Shape_Length": 230.51200616359711, "Shape_Area": 3295.0077782510962 }, "geometry": { "type": "MultiPolygon", "coordinates": [ [ [ [ -122.483616993534866, 48.737654454715283 ], [ -122.483621661182212, 48.737798403775223 ], [ -122.483361799030902, 48.737802089976391 ], [ -122.483357132118087, 48.737658140906227 ], [ -122.483616993534866, 48.737654454715283 ] ] ] ] } }
]
}
