{
"type": "FeatureCollection",
"crs": { "type": "name", "properties": { "name": "urn:ogc:def:crs:OGC:1.3:CRS84" } },
                                                                                
"features": [
{ "type": "Feature", "properties": { "FeatureID": -1, "ZOrder": null, "AnnotationClassID": -1, "Element": "0100D3344020EAF6D01183AD080009B996CC080006000200000000000A00000054006500...", "SymbolID": -1, "Status": 0, "TextString": "7G", "FontName": "Arial", "FontSize": 18, "Bold": 1, "Italic": 0, "Underline": 0, "VerticalAlignment": 3, "HorizontalAlignment": 1, "XOffset": 0, "YOffset": 0, "Angle": 0, "FontLeading": 0, "WordSpacing": 100, "CharacterWidth": 100, "CharacterSpacing": 0, "FlipAngle": 0, "Override": 64, "Shape_Length": 461.0266370177269, "Shape_Area": 13180.182369105009 }, "geometry": { "type": "MultiPolygon", "coordinates": [ [ [ [ -122.482476677359585, 48.74022973097599 ], [ -122.482486006761363, 48.740517630707643 ], [ -122.481966251772576, 48.740524997487768 ], [ -122.481956925309291, 48.740237097715223 ], [ -122.482476677359585, 48.74022973097599 ] ] ] ] } },
{ "type": "Feature", "properties": { "FeatureID": -1, "ZOrder": null, "AnnotationClassID": -1, "Element": "0100D3344020EAF6D01183AD080009B996CC080006000200000000000A00000054006500...", "SymbolID": -1, "Status": 0, "TextString": "3R", "FontName": "Arial", "FontSize": 18, "Bold": 1, "Italic": 0, "Underline": 0, "VerticalAlignment": 3, "HorizontalAlignment": 1, "XOffset": 0, "YOffset": 0, "Angle": 0, "FontLeading": 0, "WordSpacing": 100, "CharacterWidth": 100, "CharacterSpacing": 0, "FlipAngle": 0, "Override": 64, "Shape_Length": 450.55815398693085, "Shape_Area": 12630.258393588165 }, "geometry": { "type": "MultiPolygon", "coordinates": [ [ [ [ -122.481025794191794, 48.740524219679052 ], [ -122.481035115440989, 48.740812119496027 ], [ -122.48053704339469, 48.740819172742846 ], [ -122.480527724961448, 48.740531272886713 ], [ -122.481025794191794, 48.740524219679052 ] ] ] ] } },
{ "type": "Feature", "properties": { "FeatureID": -1, "ZOrder": null, "AnnotationClassID": -1, "Element": "0100D3344020EAF6D01183AD080009B996CC080006000200000000000A00000054006500...", "SymbolID": -1, "Status": 0, "TextString": "5G", "FontName": "Arial", "FontSize": 18, "Bold": 1, "Italic": 0, "Underline": 0, "VerticalAlignment": 3, "HorizontalAlignment": 1, "XOffset": 0, "YOffset": 0, "Angle": 0, "FontLeading": 0, "WordSpacing": 100, "CharacterWidth": 100, "CharacterSpacing": 0, "FlipAngle": 0, "Override": 64, "Shape_Length": 461.02663698792458, "Shape_Area": 13180.18236723565 }, "geometry": { "type": "MultiPolygon", "coordinates": [ [ [ [ -122.483256520884595, 48.739861490000827 ], [ -122.483265854629877, 48.740149389708542 ], [ -122.482746103514202, 48.740156759973274 ], [ -122.482736772707383, 48.739868860224639 ], [ -122.483256520884595, 48.739861490000827 ] ] ] ] } },
{ "type": "Feature", "properties": { "FeatureID": -1, "ZOrder": null, "AnnotationClassID": -1, "Element": "0100D3344020EAF6D01183AD080009B996CC080006000200000000000A00000054006500...", "SymbolID": -1, "Status": 0, "TextString": "30G", "FontName": "Arial", "FontSize": 14, "Bold": 1, "Italic": 0, "Underline": 0, "VerticalAlignment": 3, "HorizontalAlignment": 1, "XOffset": 0, "YOffset": 0, "Angle": 0, "FontLeading": 0, "WordSpacing": 100, "CharacterWidth": 100, "CharacterSpacing": 0, "FlipAngle": 0, "Override": 64, "Shape_Length": 439.93219101428986, "Shape_Area": 11297.191642748679 }, "geometry": { "type": "MultiPolygon", "coordinates": [ [ [ [ -122.482872219569558, 48.740709750396036 ], [ -122.482879477531554, 48.740933671149627 ], [ -122.482306684077514, 48.740941791413405 ], [ -122.482299428634263, 48.740717870624756 ], [ -122.482872219569558, 48.740709750396036 ] ] ] ] } },
{ "type": "Feature", "properties": { "FeatureID": -1, "ZOrder": null, "AnnotationClassID": -1, "Element": "0100D3344020EAF6D01183AD080009B996CC080006000200000000000A00000054006500...", "SymbolID": -1, "Status": 0, "TextString": "4R", "FontName": "Arial", "FontSize": 18, "Bold": 1, "Italic": 0, "Underline": 0, "VerticalAlignment": 3, "HorizontalAlignment": 1, "XOffset": 0, "YOffset": 0, "Angle": 0, "FontLeading": 0, "WordSpacing": 100, "CharacterWidth": 100, "CharacterSpacing": 0, "FlipAngle": 0, "Override": 64, "Shape_Length": 450.55815395712852, "Shape_Area": 12630.258392022608 }, "geometry": { "type": "MultiPolygon", "coordinates": [ [ [ [ -122.48440872346778, 48.740436939627642 ], [ -122.484418063835761, 48.740724839182491 ], [ -122.483919993112821, 48.740731906910746 ], [ -122.483910655560734, 48.740444007316661 ], [ -122.48440872346778, 48.740436939627642 ] ] ] ] } },
{ "type": "Feature", "properties": { "FeatureID": -1, "ZOrder": null, "AnnotationClassID": -1, "Element": "0100D3344020EAF6D01183AD080009B996CC080006000200000000000A00000054006500...", "SymbolID": -1, "Status": 0, "TextString": "25G", "FontName": "Arial", "FontSize": 18, "Bold": 1, "Italic": 0, "Underline": 0, "VerticalAlignment": 3, "HorizontalAlignment": 1, "XOffset": 0, "YOffset": 0, "Angle": 0, "FontLeading": 0, "WordSpacing": 100, "CharacterWidth": 100, "CharacterSpacing": 0, "FlipAngle": 0, "Override": 64, "Shape_Length": 565.63010230660439, "Shape_Area": 18675.147903300884 }, "geometry": { "type": "MultiPolygon", "coordinates": [ [ [ [ -122.487854323034199, 48.738038593618448 ], [ -122.48786368245041, 48.738326493148001 ], [ -122.48712726855122, 48.738336964581244 ], [ -122.487117913298249, 48.738049064993568 ], [ -122.487854323034199, 48.738038593618448 ] ] ] ] } },
{ "type": "Feature", "properties": { "FeatureID": -1, "ZOrder": null, "AnnotationClassID": -1, "Element": "0100D3344020EAF6D01183AD080009B996CC080006000200000000000A00000054006500...", "SymbolID": -1, "Status": 0, "TextString": "6V", "FontName": "Arial", "FontSize": 18, "Bold": 1, "Italic": 0, "Underline": 0, "VerticalAlignment": 3, "HorizontalAlignment": 1, "XOffset": 0, "YOffset": 0, "Angle": 0, "FontLeading": 0, "WordSpacing": 100, "CharacterWidth": 100, "CharacterSpacing": 0, "FlipAngle": 0, "Override": 64, "Shape_Length": 440.18022200465202, "Shape_Area": 12085.091191058253 }, "geometry": { "type": "MultiPolygon", "coordinates": [ [ [ [ -122.486029215617108, 48.73943436873563 ], [ -122.486038564966861, 48.739722268265574 ], [ -122.485562002365938, 48.739729037609258 ], [ -122.485552655710435, 48.73944113804172 ], [ -122.486029215617108, 48.73943436873563 ] ] ] ] } },
{ "type": "Feature", "properties": { "FeatureID": -1, "ZOrder": null, "AnnotationClassID": -1, "Element": "0100D3344020EAF6D01183AD080009B996CC080006000200000000000A00000054006500...", "SymbolID": -1, "Status": 0, "TextString": "15R", "FontName": "Arial", "FontSize": 18, "Bold": 1, "Italic": 0, "Underline": 0, "VerticalAlignment": 3, "HorizontalAlignment": 1, "XOffset": 0, "YOffset": 0, "Angle": 0, "FontLeading": 0, "WordSpacing": 100, "CharacterWidth": 100, "CharacterSpacing": 0, "FlipAngle": 0, "Override": 64, "Shape_Length": 555.16161933541298, "Shape_Area": 18125.223932224118 }, "geometry": { "type": "MultiPolygon", "coordinates": [ [ [ [ -122.489430712093167, 48.73509629769358 ], [ -122.48944007988392, 48.73538419740423 ], [ -122.488725392672961, 48.735394370248358 ], [ -122.488716028922354, 48.735106470481234 ], [ -122.489430712093167, 48.73509629769358 ] ] ] ] } },
{ "type": "Feature", "properties": { "FeatureID": -1, "ZOrder": null, "AnnotationClassID": -1, "Element": "0100D3344020EAF6D01183AD080009B996CC080006000200000000000A00000054006500...", "SymbolID": -1, "Status": 0, "TextString": "11G", "FontName": "Arial", "FontSize": 18, "Bold": 1, "Italic": 0, "Underline": 0, "VerticalAlignment": 3, "HorizontalAlignment": 1, "XOffset": 0, "YOffset": 0, "Angle": 0, "FontLeading": 0, "WordSpacing": 100, "CharacterWidth": 100, "CharacterSpacing": 0, "FlipAngle": 0, "Override": 64, "Shape_Length": 555.2534826695919, "Shape_Area": 18130.049640950641 }, "geometry": { "type": "MultiPolygon", "coordinates": [ [ [ [ -122.48835056981774, 48.737577187252285 ], [ -122.488359931955841, 48.737865086790279 ], [ -122.487645019406756, 48.737875255695869 ], [ -122.487635661310264, 48.737587356101415 ], [ -122.48835056981774, 48.737577187252285 ] ] ] ] } },
{ "type": "Feature", "properties": { "FeatureID": -1, "ZOrder": null, "AnnotationClassID": -1, "Element": "0100D3344020EAF6D01183AD080009B996CC080006000200000000000A00000054006500...", "SymbolID": -1, "Status": 0, "TextString": "19G", "FontName": "Arial", "FontSize": 18, "Bold": 1, "Italic": 0, "Underline": 0, "VerticalAlignment": 3, "HorizontalAlignment": 1, "XOffset": 0, "YOffset": 0, "Angle": 0, "FontLeading": 0, "WordSpacing": 100, "CharacterWidth": 100, "CharacterSpacing": 0, "FlipAngle": 0, "Override": 64, "Shape_Length": 565.63010233640671, "Shape_Area": 18675.147905949598 }, "geometry": { "type": "MultiPolygon", "coordinates": [ [ [ [ -122.487241745169811, 48.732527818035187 ], [ -122.487251100108466, 48.732815718190174 ], [ -122.486514765801246, 48.732826185767358 ], [ -122.486505415024894, 48.732538285554284 ], [ -122.487241745169811, 48.732527818035187 ] ] ] ] } },
{ "type": "Feature", "properties": { "FeatureID": -1, "ZOrder": null, "AnnotationClassID": -1, "Element": "0100D3344020EAF6D01183AD080009B996CC080006000200000000000A00000054006500...", "SymbolID": -1, "Status": 0, "TextString": "AIC", "FontName": "Arial", "FontSize": 18, "Bold": 1, "Italic": 0, "Underline": 0, "VerticalAlignment": 3, "HorizontalAlignment": 1, "XOffset": 0, "YOffset": 0, "Angle": 0, "FontLeading": 0, "WordSpacing": 100, "CharacterWidth": 100, "CharacterSpacing": 0, "FlipAngle": 0, "Override": 64, "Shape_Length": 534.03830200433731, "Shape_Area": 17015.586690241034 }, "geometry": { "type": "MultiPolygon", "coordinates": [ [ [ [ -122.485298059475198, 48.732029500182719 ], [ -122.485307403330083, 48.732317400545853 ], [ -122.484636509357884, 48.732326926906296 ], [ -122.484627169295337, 48.732039026490277 ], [ -122.485298059475198, 48.732029500182719 ] ] ] ] } },
{ "type": "Feature", "properties": { "FeatureID": -1, "ZOrder": null, "AnnotationClassID": -1, "Element": "0100D3344020EAF6D01183AD080009B996CC080006000200000000000A00000054006500...", "SymbolID": -1, "Status": 0, "TextString": "17G", "FontName": "Arial", "FontSize": 18, "Bold": 1, "Italic": 0, "Underline": 0, "VerticalAlignment": 3, "HorizontalAlignment": 1, "XOffset": 0, "YOffset": 0, "Angle": 0, "FontLeading": 0, "WordSpacing": 100, "CharacterWidth": 100, "CharacterSpacing": 0, "FlipAngle": 0, "Override": 64, "Shape_Length": 565.63010233640671, "Shape_Area": 18675.147905949598 }, "geometry": { "type": "MultiPolygon", "coordinates": [ [ [ [ -122.485117595387891, 48.733266562307108 ], [ -122.485126938449241, 48.733554462555709 ], [ -122.48439059302008, 48.73356491668541 ], [ -122.484381254121161, 48.733277016378771 ], [ -122.485117595387891, 48.733266562307108 ] ] ] ] } },
{ "type": "Feature", "properties": { "FeatureID": -1, "ZOrder": null, "AnnotationClassID": -1, "Element": "0100D3344020EAF6D01183AD080009B996CC080006000200000000000A00000054006500...", "SymbolID": -1, "Status": 0, "TextString": "29G", "FontName": "Arial", "FontSize": 18, "Bold": 1, "Italic": 0, "Underline": 0, "VerticalAlignment": 3, "HorizontalAlignment": 1, "XOffset": 0, "YOffset": 0, "Angle": 0, "FontLeading": 0, "WordSpacing": 100, "CharacterWidth": 100, "CharacterSpacing": 0, "FlipAngle": 0, "Override": 64, "Shape_Length": 565.63010233640671, "Shape_Area": 18675.147905949598 }, "geometry": { "type": "MultiPolygon", "coordinates": [ [ [ [ -122.48574528649371, 48.730497126277072 ], [ -122.48575463259651, 48.730785026763947 ], [ -122.485018327353046, 48.730795484877191 ], [ -122.485008985412236, 48.730507584332258 ], [ -122.48574528649371, 48.730497126277072 ] ] ] ] } },
{ "type": "Feature", "properties": { "FeatureID": -1, "ZOrder": null, "AnnotationClassID": -1, "Element": "0100D3344020EAF6D01183AD080009B996CC080006000200000000000A00000054006500...", "SymbolID": -1, "Status": 0, "TextString": "20R", "FontName": "Arial", "FontSize": 18, "Bold": 1, "Italic": 0, "Underline": 0, "VerticalAlignment": 3, "HorizontalAlignment": 1, "XOffset": 0, "YOffset": 0, "Angle": 0, "FontLeading": 0, "WordSpacing": 100, "CharacterWidth": 100, "CharacterSpacing": 0, "FlipAngle": 0, "Override": 64, "Shape_Length": 555.16161930561066, "Shape_Area": 18125.223929653399 }, "geometry": { "type": "MultiPolygon", "coordinates": [ [ [ [ -122.4914226484116, 48.731853513355517 ], [ -122.491432026870669, 48.732141413244143 ], [ -122.49071738558284, 48.732151598336905 ], [ -122.490708011163406, 48.731863698391756 ], [ -122.4914226484116, 48.731853513355517 ] ] ] ] } },
{ "type": "Feature", "properties": { "FeatureID": -1, "ZOrder": null, "AnnotationClassID": -1, "Element": "0100D3344020EAF6D01183AD080009B996CC080006000200000000000A00000054006500...", "SymbolID": -1, "Status": 0, "TextString": "C\/CR", "FontName": "Arial", "FontSize": 18, "Bold": 1, "Italic": 0, "Underline": 0, "VerticalAlignment": 3, "HorizontalAlignment": 1, "XOffset": 0, "YOffset": 0, "Angle": 0, "FontLeading": 0, "WordSpacing": 100, "CharacterWidth": 100, "CharacterSpacing": 0, "FlipAngle": 0, "Override": 64, "Shape_Length": 669.86611434817314, "Shape_Area": 24150.810609453656 }, "geometry": { "type": "MultiPolygon", "coordinates": [ [ [ [ -122.490426229835393, 48.729936718105662 ], [ -122.490435602306505, 48.730224618274285 ], [ -122.489483419723939, 48.730238180201518 ], [ -122.489474052634989, 48.72995027995762 ], [ -122.490426229835393, 48.729936718105662 ] ] ] ] } },
{ "type": "Feature", "properties": { "FeatureID": -1, "ZOrder": null, "AnnotationClassID": -1, "Element": "0100D3344020EAF6D01183AD080009B996CC080006000200000000000A00000054006500...", "SymbolID": -1, "Status": 0, "TextString": "14G", "FontName": "Arial", "FontSize": 18, "Bold": 1, "Italic": 0, "Underline": 0, "VerticalAlignment": 3, "HorizontalAlignment": 1, "XOffset": 0, "YOffset": 0, "Angle": 0, "FontLeading": 0, "WordSpacing": 100, "CharacterWidth": 100, "CharacterSpacing": 0, "FlipAngle": 0, "Override": 64, "Shape_Length": 565.63010230660439, "Shape_Area": 18675.147903300884 }, "geometry": { "type": "MultiPolygon", "coordinates": [ [ [ [ -122.488034197564275, 48.7363165218879 ], [ -122.488043557681181, 48.736604421583301 ], [ -122.487307168732059, 48.736614894161697 ], [ -122.487297812778081, 48.736326994408159 ], [ -122.488034197564275, 48.7363165218879 ] ] ] ] } },
{ "type": "Feature", "properties": { "FeatureID": -1, "ZOrder": null, "AnnotationClassID": -1, "Element": "0100D3344020EAF6D01183AD080009B996CC080006000200000000000A00000054006500...", "SymbolID": -1, "Status": 0, "TextString": "C\/CR", "FontName": "Arial", "FontSize": 18, "Bold": 1, "Italic": 0, "Underline": 0, "VerticalAlignment": 3, "HorizontalAlignment": 1, "XOffset": 0, "YOffset": 0, "Angle": 0, "FontLeading": 0, "WordSpacing": 100, "CharacterWidth": 100, "CharacterSpacing": 0, "FlipAngle": 0, "Override": 64, "Shape_Length": 669.86611434817314, "Shape_Area": 24150.810609453656 }, "geometry": { "type": "MultiPolygon", "coordinates": [ [ [ [ -122.488941184354587, 48.729492048505094 ], [ -122.488950548345827, 48.729779948839578 ], [ -122.487998373684675, 48.729793498613546 ], [ -122.487989015075499, 48.729505598203851 ], [ -122.488941184354587, 48.729492048505094 ] ] ] ] } },
{ "type": "Feature", "properties": { "FeatureID": -1, "ZOrder": null, "AnnotationClassID": -1, "Element": "0100D3344020EAF6D01183AD080009B996CC080006000200000000000A00000054006500...", "SymbolID": -1, "Status": 0, "TextString": "C\/CR", "FontName": "Arial", "FontSize": 18, "Bold": 1, "Italic": 0, "Underline": 0, "VerticalAlignment": 3, "HorizontalAlignment": 1, "XOffset": 0, "YOffset": 0, "Angle": 88, "FontLeading": 0, "WordSpacing": 100, "CharacterWidth": 100, "CharacterSpacing": 0, "FlipAngle": 0, "Override": 64, "Shape_Length": 669.86669588000382, "Shape_Area": 24150.844388085803 }, "geometry": { "type": "MultiPolygon", "coordinates": [ [ [ [ -122.48720090426923, 48.729900092892024 ], [ -122.487636160680481, 48.72990395529132 ], [ -122.487623389520451, 48.730533951534021 ], [ -122.487188127723883, 48.730530089087807 ], [ -122.48720090426923, 48.729900092892024 ] ] ] ] } },
{ "type": "Feature", "properties": { "FeatureID": -1, "ZOrder": null, "AnnotationClassID": -1, "Element": "0100D3344020EAF6D01183AD080009B996CC080006000200000000000A00000054006500...", "SymbolID": -1, "Status": 0, "TextString": "12A", "FontName": "Arial", "FontSize": 18, "Bold": 1, "Italic": 0, "Underline": 0, "VerticalAlignment": 3, "HorizontalAlignment": 1, "XOffset": 0, "YOffset": 0, "Angle": 0, "FontLeading": 0, "WordSpacing": 100, "CharacterWidth": 100, "CharacterSpacing": 0, "FlipAngle": 0, "Override": 64, "Shape_Length": 555.16161933541298, "Shape_Area": 18125.223931218956 }, "geometry": { "type": "MultiPolygon", "coordinates": [ [ [ [ -122.487083967195915, 48.730260634398455 ], [ -122.487093320825721, 48.730548534802324 ], [ -122.486378701031157, 48.730558693248298 ], [ -122.486369351440729, 48.730270792788048 ], [ -122.487083967195915, 48.730260634398455 ] ] ] ] } },
{ "type": "Feature", "properties": { "FeatureID": -1, "ZOrder": null, "AnnotationClassID": -1, "Element": "0100D3344020EAF6D01183AD080009B996CC080006000200000000000A00000054006500...", "SymbolID": -1, "Status": 0, "TextString": "23V", "FontName": "Arial", "FontSize": 18, "Bold": 1, "Italic": 0, "Underline": 0, "VerticalAlignment": 3, "HorizontalAlignment": 1, "XOffset": 0, "YOffset": 0, "Angle": 0, "FontLeading": 0, "WordSpacing": 100, "CharacterWidth": 100, "CharacterSpacing": 0, "FlipAngle": 0, "Override": 64, "Shape_Length": 544.78368735313416, "Shape_Area": 17580.056729468401 }, "geometry": { "type": "MultiPolygon", "coordinates": [ [ [ [ -122.490260088098708, 48.728014366018876 ], [ -122.490269459276448, 48.728302266400796 ], [ -122.48957636488727, 48.728312138299223 ], [ -122.489566997627051, 48.72802423786252 ], [ -122.490260088098708, 48.728014366018876 ] ] ] ] } },
{ "type": "Feature", "properties": { "FeatureID": -1, "ZOrder": null, "AnnotationClassID": -1, "Element": "0100D3344020EAF6D01183AD080009B996CC080006000200000000000A00000054006500...", "SymbolID": -1, "Status": 0, "TextString": "18R", "FontName": "Arial", "FontSize": 18, "Bold": 1, "Italic": 0, "Underline": 0, "VerticalAlignment": 3, "HorizontalAlignment": 1, "XOffset": 0, "YOffset": 0, "Angle": 0, "FontLeading": 0, "WordSpacing": 100, "CharacterWidth": 100, "CharacterSpacing": 0, "FlipAngle": 0, "Override": 64, "Shape_Length": 555.16161933541298, "Shape_Area": 18125.223932224118 }, "geometry": { "type": "MultiPolygon", "coordinates": [ [ [ [ -122.487485636189135, 48.729072314299025 ], [ -122.487494991872055, 48.729360214794276 ], [ -122.486780388837815, 48.729370375712143 ], [ -122.486771037194089, 48.729082475160482 ], [ -122.487485636189135, 48.729072314299025 ] ] ] ] } },
{ "type": "Feature", "properties": { "FeatureID": -1, "ZOrder": null, "AnnotationClassID": -1, "Element": "0100D3344020EAF6D01183AD080009B996CC080006000200000000000A00000054006500...", "SymbolID": -1, "Status": 0, "TextString": "22G", "FontName": "Arial", "FontSize": 18, "Bold": 1, "Italic": 0, "Underline": 0, "VerticalAlignment": 3, "HorizontalAlignment": 1, "XOffset": 0, "YOffset": 0, "Angle": 0, "FontLeading": 0, "WordSpacing": 100, "CharacterWidth": 100, "CharacterSpacing": 0, "FlipAngle": 0, "Override": 64, "Shape_Length": 565.63010233640671, "Shape_Area": 18675.147905949598 }, "geometry": { "type": "MultiPolygon", "coordinates": [ [ [ [ -122.485262920365017, 48.727240710283553 ], [ -122.485272263142349, 48.727528611147797 ], [ -122.484536004894608, 48.727539066220359 ], [ -122.48452666627874, 48.727251165298085 ], [ -122.485262920365017, 48.727240710283553 ] ] ] ] } },
{ "type": "Feature", "properties": { "FeatureID": -1, "ZOrder": null, "AnnotationClassID": -1, "Element": "0100D3344020EAF6D01183AD080009B996CC080006000200000000000A00000054006500...", "SymbolID": -1, "Status": 0, "TextString": "1R", "FontName": "Arial", "FontSize": 18, "Bold": 1, "Italic": 0, "Underline": 0, "VerticalAlignment": 3, "HorizontalAlignment": 1, "XOffset": 0, "YOffset": 0, "Angle": 0, "FontLeading": 0, "WordSpacing": 100, "CharacterWidth": 100, "CharacterSpacing": 0, "FlipAngle": 0, "Override": 64, "Shape_Length": 450.55815401673317, "Shape_Area": 12630.258395379527 }, "geometry": { "type": "MultiPolygon", "coordinates": [ [ [ [ -122.48623739154803, 48.726874943514431 ], [ -122.486246739768617, 48.727162844338359 ], [ -122.485748801974054, 48.727169919929608 ], [ -122.485739456567842, 48.726882019066402 ], [ -122.48623739154803, 48.726874943514431 ] ] ] ] } },
{ "type": "Feature", "properties": { "FeatureID": -1, "ZOrder": null, "AnnotationClassID": -1, "Element": "0100D3344020EAF6D01183AD080009B996CC080006000200000000000A00000054006500...", "SymbolID": -1, "Status": 0, "TextString": "33G", "FontName": "Arial", "FontSize": 18, "Bold": 1, "Italic": 0, "Underline": 0, "VerticalAlignment": 3, "HorizontalAlignment": 1, "XOffset": 0, "YOffset": 0, "Angle": 0, "FontLeading": 0, "WordSpacing": 100, "CharacterWidth": 100, "CharacterSpacing": 0, "FlipAngle": 0, "Override": 64, "Shape_Length": 565.63010230660439, "Shape_Area": 18675.147903300884 }, "geometry": { "type": "MultiPolygon", "coordinates": [ [ [ [ -122.48537238956294, 48.726051144311811 ], [ -122.48538173274099, 48.726339045290672 ], [ -122.484645491717913, 48.726349501060653 ], [ -122.484636152701128, 48.726061600023755 ], [ -122.48537238956294, 48.726051144311811 ] ] ] ] } },
{ "type": "Feature", "properties": { "FeatureID": -1, "ZOrder": null, "AnnotationClassID": -1, "Element": "0100D3344020EAF6D01183AD080009B996CC080006000200000000000A00000054006500...", "SymbolID": -1, "Status": 0, "TextString": "13A", "FontName": "Arial", "FontSize": 14, "Bold": 1, "Italic": 0, "Underline": 0, "VerticalAlignment": 3, "HorizontalAlignment": 1, "XOffset": 0, "YOffset": 0, "Angle": 89, "FontLeading": 0, "WordSpacing": 100, "CharacterWidth": 100, "CharacterSpacing": 0, "FlipAngle": 0, "Override": 64, "Shape_Length": 431.79325143218921, "Shape_Area": 10964.68801481483 }, "geometry": { "type": "MultiPolygon", "coordinates": [ [ [ [ -122.483986332413124, 48.72441431342456 ], [ -122.484324857170989, 48.7244134180823 ], [ -122.484327080497948, 48.724781192823642 ], [ -122.483988553294864, 48.724782088172219 ], [ -122.483986332413124, 48.72441431342456 ] ] ] ] } },
{ "type": "Feature", "properties": { "FeatureID": -1, "ZOrder": null, "AnnotationClassID": -1, "Element": "0100D3344020EAF6D01183AD080009B996CC080006000200000000000A00000054006500...", "SymbolID": -1, "Status": 0, "TextString": "27R", "FontName": "Arial", "FontSize": 18, "Bold": 1, "Italic": 0, "Underline": 0, "VerticalAlignment": 3, "HorizontalAlignment": 1, "XOffset": 0, "YOffset": 0, "Angle": 0, "FontLeading": 0, "WordSpacing": 100, "CharacterWidth": 100, "CharacterSpacing": 0, "FlipAngle": 0, "Override": 64, "Shape_Length": 555.1616193652153, "Shape_Area": 18125.223933789675 }, "geometry": { "type": "MultiPolygon", "coordinates": [ [ [ [ -122.478545718825771, 48.731676898827274 ], [ -122.478555024429426, 48.73196479976842 ], [ -122.47784038305511, 48.731974905758179 ], [ -122.477831081491118, 48.731687004760929 ], [ -122.478545718825771, 48.731676898827274 ] ] ] ] } },
{ "type": "Feature", "properties": { "FeatureID": -1, "ZOrder": null, "AnnotationClassID": -1, "Element": "0100D3344020EAF6D01183AD080009B996CC080006000200000000000A00000054006500...", "SymbolID": -1, "Status": 0, "TextString": "32G", "FontName": "Arial", "FontSize": 18, "Bold": 1, "Italic": 0, "Underline": 0, "VerticalAlignment": 3, "HorizontalAlignment": 1, "XOffset": 0, "YOffset": 0, "Angle": 0, "FontLeading": 0, "WordSpacing": 100, "CharacterWidth": 100, "CharacterSpacing": 0, "FlipAngle": 0, "Override": 64, "Shape_Length": 565.63010236620903, "Shape_Area": 18675.147907515155 }, "geometry": { "type": "MultiPolygon", "coordinates": [ [ [ [ -122.474465219614231, 48.730965391549745 ], [ -122.474474502011617, 48.731253292891019 ], [ -122.473738187686621, 48.731263679605881 ], [ -122.473728909451339, 48.730975778206947 ], [ -122.474465219614231, 48.730965391549745 ] ] ] ] } },
{ "type": "Feature", "properties": { "FeatureID": -1, "ZOrder": null, "AnnotationClassID": -1, "Element": "0100D3344020EAF6D01183AD080009B996CC080006000200000000000A00000054006500...", "SymbolID": -1, "Status": 0, "TextString": "24G", "FontName": "Arial", "FontSize": 18, "Bold": 1, "Italic": 0, "Underline": 0, "VerticalAlignment": 3, "HorizontalAlignment": 1, "XOffset": 0, "YOffset": 0, "Angle": 0, "FontLeading": 0, "WordSpacing": 100, "CharacterWidth": 100, "CharacterSpacing": 0, "FlipAngle": 0, "Override": 64, "Shape_Length": 565.63010233640671, "Shape_Area": 18675.147904866441 }, "geometry": { "type": "MultiPolygon", "coordinates": [ [ [ [ -122.483707953581543, 48.724281683101623 ], [ -122.483717287023381, 48.724569584397528 ], [ -122.482981071245149, 48.724580029639284 ], [ -122.482971741964306, 48.724292128285406 ], [ -122.483707953581543, 48.724281683101623 ] ] ] ] } },
{ "type": "Feature", "properties": { "FeatureID": -1, "ZOrder": null, "AnnotationClassID": -1, "Element": "0100D3344020EAF6D01183AD080009B996CC080006000200000000000A00000054006500...", "SymbolID": -1, "Status": 0, "TextString": "26CP", "FontName": "Arial", "FontSize": 18, "Bold": 1, "Italic": 0, "Underline": 0, "VerticalAlignment": 3, "HorizontalAlignment": 1, "XOffset": 0, "YOffset": 0, "Angle": 0, "FontLeading": 0, "WordSpacing": 100, "CharacterWidth": 100, "CharacterSpacing": 0, "FlipAngle": 0, "Override": 64, "Shape_Length": 680.61149966716766, "Shape_Area": 24715.280647115465 }, "geometry": { "type": "MultiPolygon", "coordinates": [ [ [ [ -122.487181396770566, 48.730727374401994 ], [ -122.487190751037119, 48.731015274749467 ], [ -122.486216297338132, 48.731029126377969 ], [ -122.486206948579735, 48.730741225953601 ], [ -122.487181396770566, 48.730727374401994 ] ] ] ] } },
{ "type": "Feature", "properties": { "FeatureID": -1, "ZOrder": null, "AnnotationClassID": -1, "Element": "0100D3344020EAF6D01183AD080009B996CC080006000200000000000A00000054006500...", "SymbolID": -1, "Status": 0, "TextString": "CBS", "FontName": "Arial", "FontSize": 18, "Bold": 1, "Italic": 0, "Underline": 0, "VerticalAlignment": 3, "HorizontalAlignment": 1, "XOffset": 0, "YOffset": 0, "Angle": 0, "FontLeading": 0, "WordSpacing": 100, "CharacterWidth": 100, "CharacterSpacing": 0, "FlipAngle": 0, "Override": 64, "Shape_Length": 607.23369368910789, "Shape_Area": 20860.642430395663 }, "geometry": { "type": "MultiPolygon", "coordinates": [ [ [ [ -122.487524284440028, 48.734790324934394 ], [ -122.487533641392417, 48.735078224830431 ], [ -122.486711099657668, 48.735089919078909 ], [ -122.486701747355127, 48.734802019117943 ], [ -122.487524284440028, 48.734790324934394 ] ] ] ] } },
{ "type": "Feature", "properties": { "FeatureID": -1, "ZOrder": null, "AnnotationClassID": -1, "Element": "0100D3344020EAF6D01183AD080009B996CC080006000200000000000A00000054006500...", "SymbolID": -1, "Status": 0, "TextString": "10G", "FontName": "Arial", "FontSize": 14, "Bold": 1, "Italic": 0, "Underline": 0, "VerticalAlignment": 3, "HorizontalAlignment": 1, "XOffset": 0, "YOffset": 0, "Angle": 0, "FontLeading": 0, "WordSpacing": 100, "CharacterWidth": 100, "CharacterSpacing": 0, "FlipAngle": 0, "Override": 64, "Shape_Length": 439.93612796068192, "Shape_Area": 11297.389594032336 }, "geometry": { "type": "MultiPolygon", "coordinates": [ [ [ [ -122.484318934667201, 48.736887279715397 ], [ -122.484326198506551, 48.737111202488492 ], [ -122.483753442859737, 48.737119329962766 ], [ -122.483746181538748, 48.736895407154591 ], [ -122.484318934667201, 48.736887279715397 ] ] ] ] } },
{ "type": "Feature", "properties": { "FeatureID": -1, "ZOrder": null, "AnnotationClassID": -1, "Element": "0100D3344020EAF6D01183AD080009B996CC080006000200000000000A00000054006500...", "SymbolID": -1, "Status": 0, "TextString": "10G", "FontName": "Arial", "FontSize": 14, "Bold": 1, "Italic": 0, "Underline": 0, "VerticalAlignment": 3, "HorizontalAlignment": 1, "XOffset": 0, "YOffset": 0, "Angle": 0, "FontLeading": 0, "WordSpacing": 100, "CharacterWidth": 100, "CharacterSpacing": 0, "FlipAngle": 0, "Override": 64, "Shape_Length": 439.93612799048424, "Shape_Area": 11297.389595249995 }, "geometry": { "type": "MultiPolygon", "coordinates": [ [ [ [ -122.484975133000958, 48.735367865738347 ], [ -122.484982399510045, 48.735591788594078 ], [ -122.484409661063779, 48.735599919303297 ], [ -122.484402397072927, 48.735375996412451 ], [ -122.484975133000958, 48.735367865738347 ] ] ] ] } },
{ "type": "Feature", "properties": { "FeatureID": -1, "ZOrder": null, "AnnotationClassID": -1, "Element": "0100D3344020EAF6D01183AD080009B996CC080006000200000000000A00000054006500...", "SymbolID": -1, "Status": 0, "TextString": "8G", "FontName": "Arial", "FontSize": 14, "Bold": 1, "Italic": 0, "Underline": 0, "VerticalAlignment": 3, "HorizontalAlignment": 1, "XOffset": 0, "YOffset": 0, "Angle": 0, "FontLeading": 0, "WordSpacing": 100, "CharacterWidth": 100, "CharacterSpacing": 0, "FlipAngle": 0, "Override": 64, "Shape_Length": 358.57802298665047, "Shape_Area": 7973.2717009504122 }, "geometry": { "type": "MultiPolygon", "coordinates": [ [ [ [ -122.483732266906713, 48.737980461638386 ], [ -122.483739528321266, 48.738204384359058 ], [ -122.483335290248277, 48.738210118676179 ], [ -122.483328030611176, 48.737986195930759 ], [ -122.483732266906713, 48.737980461638386 ] ] ] ] } }
]
}
