{
"type": "FeatureCollection",
"crs": { "type": "name", "properties": { "name": "urn:ogc:def:crs:OGC:1.3:CRS84" } },
                                                                                
"features": [
{ "type": "Feature", "properties": { "FeatureID": -1, "ZOrder": null, "AnnotationClassID": -1, "Element": "0100D3344020EAF6D01183AD080009B996CC080006000200000000000A00000054006500...", "SymbolID": -1, "Status": 0, "TextString": "7G", "FontName": "Arial", "FontSize": 25, "Bold": 1, "Italic": 0, "Underline": 0, "VerticalAlignment": 3, "HorizontalAlignment": 1, "XOffset": 0, "YOffset": 0, "Angle": 0, "FontLeading": 0, "WordSpacing": 100, "CharacterWidth": 100, "CharacterSpacing": 0, "FlipAngle": 0, "Override": 64, "Shape_Length": 320.15749618411064, "Shape_Area": 6356.1860683926388 }, "geometry": { "type": "MultiPolygon", "coordinates": [ [ [ [ -122.482397271145871, 48.740230856595481 ], [ -122.48240374956444, 48.74043078667264 ], [ -122.482042808543881, 48.740435902493118 ], [ -122.482036331542389, 48.740235972396249 ], [ -122.482397271145871, 48.740230856595481 ] ] ] ] } },
{ "type": "Feature", "properties": { "FeatureID": -1, "ZOrder": null, "AnnotationClassID": -1, "Element": "0100D3344020EAF6D01183AD080009B996CC080006000200000000000A00000054006500...", "SymbolID": -1, "Status": 0, "TextString": "3R", "FontName": "Arial", "FontSize": 25, "Bold": 1, "Italic": 0, "Underline": 0, "VerticalAlignment": 3, "HorizontalAlignment": 1, "XOffset": 0, "YOffset": 0, "Angle": 0, "FontLeading": 0, "WordSpacing": 100, "CharacterWidth": 100, "CharacterSpacing": 0, "FlipAngle": 0, "Override": 64, "Shape_Length": 312.88716951012611, "Shape_Area": 6090.9639845339452 }, "geometry": { "type": "MultiPolygon", "coordinates": [ [ [ [ -122.480949700064002, 48.740525297393646 ], [ -122.48095617283407, 48.740725227529893 ], [ -122.480610290519195, 48.740730125603235 ], [ -122.480603819107131, 48.740530195448102 ], [ -122.480949700064002, 48.740525297393646 ] ] ] ] } },
{ "type": "Feature", "properties": { "FeatureID": -1, "ZOrder": null, "AnnotationClassID": -1, "Element": "0100D3344020EAF6D01183AD080009B996CC080006000200000000000A00000054006500...", "SymbolID": -1, "Status": 0, "TextString": "5G", "FontName": "Arial", "FontSize": 25, "Bold": 1, "Italic": 0, "Underline": 0, "VerticalAlignment": 3, "HorizontalAlignment": 1, "XOffset": 0, "YOffset": 0, "Angle": 0, "FontLeading": 0, "WordSpacing": 100, "CharacterWidth": 100, "CharacterSpacing": 0, "FlipAngle": 0, "Override": 64, "Shape_Length": 320.15749615430832, "Shape_Area": 6356.1860670944707 }, "geometry": { "type": "MultiPolygon", "coordinates": [ [ [ [ -122.483177115262663, 48.739862616152685 ], [ -122.483183596697558, 48.740062546213203 ], [ -122.482822658366644, 48.740067664453548 ], [ -122.482816178348841, 48.739867734373306 ], [ -122.483177115262663, 48.739862616152685 ] ] ] ] } },
{ "type": "Feature", "properties": { "FeatureID": -1, "ZOrder": null, "AnnotationClassID": -1, "Element": "0100D3344020EAF6D01183AD080009B996CC080006000200000000000A00000054006500...", "SymbolID": -1, "Status": 0, "TextString": "30G", "FontName": "Arial", "FontSize": 18, "Bold": 1, "Italic": 0, "Underline": 0, "VerticalAlignment": 3, "HorizontalAlignment": 1, "XOffset": 0, "YOffset": 0, "Angle": 0, "FontLeading": 0, "WordSpacing": 100, "CharacterWidth": 100, "CharacterSpacing": 0, "FlipAngle": 0, "Override": 0, "Shape_Length": 282.81373882293701, "Shape_Area": 4668.740582720834 }, "geometry": { "type": "MultiPolygon", "coordinates": [ [ [ [ -122.482769935778663, 48.740711200639559 ], [ -122.482774601310737, 48.740855149573179 ], [ -122.482406376943189, 48.740860369742947 ], [ -122.482401712452017, 48.74071642079484 ], [ -122.482769935778663, 48.740711200639559 ] ] ] ] } },
{ "type": "Feature", "properties": { "FeatureID": -1, "ZOrder": null, "AnnotationClassID": -1, "Element": "0100D3344020EAF6D01183AD080009B996CC080006000200000000000A00000054006500...", "SymbolID": -1, "Status": 0, "TextString": "4R", "FontName": "Arial", "FontSize": 25, "Bold": 1, "Italic": 0, "Underline": 0, "VerticalAlignment": 3, "HorizontalAlignment": 1, "XOffset": 0, "YOffset": 0, "Angle": 0, "FontLeading": 0, "WordSpacing": 100, "CharacterWidth": 100, "CharacterSpacing": 0, "FlipAngle": 0, "Override": 64, "Shape_Length": 312.88716951012611, "Shape_Area": 6090.9639845339452 }, "geometry": { "type": "MultiPolygon", "coordinates": [ [ [ [ -122.484332629542166, 48.740438019554659 ], [ -122.484339115589137, 48.740637949508887 ], [ -122.483993234193193, 48.740642857638754 ], [ -122.483986749504226, 48.740442927665612 ], [ -122.484332629542166, 48.740438019554659 ] ] ] ] } },
{ "type": "Feature", "properties": { "FeatureID": -1, "ZOrder": null, "AnnotationClassID": -1, "Element": "0100D3344020EAF6D01183AD080009B996CC080006000200000000000A00000054006500...", "SymbolID": -1, "Status": 0, "TextString": "14G", "FontName": "Arial", "FontSize": 25, "Bold": 1, "Italic": 0, "Underline": 0, "VerticalAlignment": 3, "HorizontalAlignment": 1, "XOffset": 0, "YOffset": 0, "Angle": 0, "FontLeading": 0, "WordSpacing": 100, "CharacterWidth": 100, "CharacterSpacing": 0, "FlipAngle": 0, "Override": 64, "Shape_Length": 392.79777082800865, "Shape_Area": 9006.108950408583 }, "geometry": { "type": "MultiPolygon", "coordinates": [ [ [ [ -122.488342363994093, 48.73598668965672 ], [ -122.488348865222534, 48.736186619711113 ], [ -122.487837489715588, 48.736193894152166 ], [ -122.487830990494672, 48.735993964069721 ], [ -122.488342363994093, 48.73598668965672 ] ] ] ] } },
{ "type": "Feature", "properties": { "FeatureID": -1, "ZOrder": null, "AnnotationClassID": -1, "Element": "0100D3344020EAF6D01183AD080009B996CC080006000200000000000A00000054006500...", "SymbolID": -1, "Status": 0, "TextString": "25G", "FontName": "Arial", "FontSize": 25, "Bold": 1, "Italic": 0, "Underline": 0, "VerticalAlignment": 3, "HorizontalAlignment": 1, "XOffset": 0, "YOffset": 0, "Angle": 0, "FontLeading": 0, "WordSpacing": 100, "CharacterWidth": 100, "CharacterSpacing": 0, "FlipAngle": 0, "Override": 64, "Shape_Length": 392.79777082800865, "Shape_Area": 9006.1089496563945 }, "geometry": { "type": "MultiPolygon", "coordinates": [ [ [ [ -122.487741815293475, 48.738040193723734 ], [ -122.487748314425403, 48.738240123662337 ], [ -122.487236918202399, 48.738247395458238 ], [ -122.487230421078181, 48.738047465491611 ], [ -122.487741815293475, 48.738040193723734 ] ] ] ] } },
{ "type": "Feature", "properties": { "FeatureID": -1, "ZOrder": null, "AnnotationClassID": -1, "Element": "0100D3344020EAF6D01183AD080009B996CC080006000200000000000A00000054006500...", "SymbolID": -1, "Status": 0, "TextString": "6V", "FontName": "Arial", "FontSize": 25, "Bold": 1, "Italic": 0, "Underline": 0, "VerticalAlignment": 3, "HorizontalAlignment": 1, "XOffset": 0, "YOffset": 0, "Angle": 0, "FontLeading": 0, "WordSpacing": 100, "CharacterWidth": 100, "CharacterSpacing": 0, "FlipAngle": 0, "Override": 64, "Shape_Length": 305.67983484268188, "Shape_Area": 5828.0398539846728 }, "geometry": { "type": "MultiPolygon", "coordinates": [ [ [ [ -122.485956407182186, 48.739435403071134 ], [ -122.485962899479404, 48.739635333007861 ], [ -122.48563195515969, 48.739640033913702 ], [ -122.485625464161814, 48.739440103958849 ], [ -122.485956407182186, 48.739435403071134 ] ] ] ] } },
{ "type": "Feature", "properties": { "FeatureID": -1, "ZOrder": null, "AnnotationClassID": -1, "Element": "0100D3344020EAF6D01183AD080009B996CC080006000200000000000A00000054006500...", "SymbolID": -1, "Status": 0, "TextString": "15R", "FontName": "Arial", "FontSize": 25, "Bold": 1, "Italic": 0, "Underline": 0, "VerticalAlignment": 3, "HorizontalAlignment": 1, "XOffset": 0, "YOffset": 0, "Angle": 0, "FontLeading": 0, "WordSpacing": 100, "CharacterWidth": 100, "CharacterSpacing": 0, "FlipAngle": 0, "Override": 64, "Shape_Length": 385.52744418382645, "Shape_Area": 8740.8868676370803 }, "geometry": { "type": "MultiPolygon", "coordinates": [ [ [ [ -122.489365769682237, 48.735267852668429 ], [ -122.48937227483836, 48.735467782717812 ], [ -122.488875966048411, 48.735474847332682 ], [ -122.48886946284064, 48.735274917256071 ], [ -122.489365769682237, 48.735267852668429 ] ] ] ] } },
{ "type": "Feature", "properties": { "FeatureID": -1, "ZOrder": null, "AnnotationClassID": -1, "Element": "0100D3344020EAF6D01183AD080009B996CC080006000200000000000A00000054006500...", "SymbolID": -1, "Status": 0, "TextString": "11G", "FontName": "Arial", "FontSize": 25, "Bold": 1, "Italic": 0, "Underline": 0, "VerticalAlignment": 3, "HorizontalAlignment": 1, "XOffset": 0, "YOffset": 0, "Angle": 0, "FontLeading": 0, "WordSpacing": 100, "CharacterWidth": 100, "CharacterSpacing": 0, "FlipAngle": 0, "Override": 64, "Shape_Length": 385.59174850583076, "Shape_Area": 8743.2326943169373 }, "geometry": { "type": "MultiPolygon", "coordinates": [ [ [ [ -122.48824134694803, 48.737578741121503 ], [ -122.488247847983047, 48.737778671065811 ], [ -122.487751383302893, 48.737785732772345 ], [ -122.487744884216937, 48.737585802800808 ], [ -122.48824134694803, 48.737578741121503 ] ] ] ] } },
{ "type": "Feature", "properties": { "FeatureID": -1, "ZOrder": null, "AnnotationClassID": -1, "Element": "0100D3344020EAF6D01183AD080009B996CC080006000200000000000A00000054006500...", "SymbolID": -1, "Status": 0, "TextString": "19G", "FontName": "Arial", "FontSize": 25, "Bold": 1, "Italic": 0, "Underline": 0, "VerticalAlignment": 3, "HorizontalAlignment": 1, "XOffset": 0, "YOffset": 0, "Angle": 0, "FontLeading": 0, "WordSpacing": 100, "CharacterWidth": 100, "CharacterSpacing": 0, "FlipAngle": 0, "Override": 64, "Shape_Length": 392.79777082800865, "Shape_Area": 9006.108950408583 }, "geometry": { "type": "MultiPolygon", "coordinates": [ [ [ [ -122.486949517199491, 48.733061128227646 ], [ -122.486956012584088, 48.73326105857209 ], [ -122.486444666266479, 48.733268326898781 ], [ -122.486438172889223, 48.73306839652632 ], [ -122.486949517199491, 48.733061128227646 ] ] ] ] } },
{ "type": "Feature", "properties": { "FeatureID": -1, "ZOrder": null, "AnnotationClassID": -1, "Element": "0100D3344020EAF6D01183AD080009B996CC080006000200000000000A00000054006500...", "SymbolID": -1, "Status": 0, "TextString": "19G", "FontName": "Arial", "FontSize": 25, "Bold": 1, "Italic": 0, "Underline": 0, "VerticalAlignment": 3, "HorizontalAlignment": 1, "XOffset": 0, "YOffset": 0, "Angle": 0, "FontLeading": 0, "WordSpacing": 100, "CharacterWidth": 100, "CharacterSpacing": 0, "FlipAngle": 0, "Override": 64, "Shape_Length": 392.79777082800865, "Shape_Area": 9006.1089496563945 }, "geometry": { "type": "MultiPolygon", "coordinates": [ [ [ [ -122.487393507250644, 48.732328303248806 ], [ -122.487400004285405, 48.732528233621508 ], [ -122.486888665392087, 48.732535503901673 ], [ -122.486882170364552, 48.732335573500933 ], [ -122.487393507250644, 48.732328303248806 ] ] ] ] } },
{ "type": "Feature", "properties": { "FeatureID": -1, "ZOrder": null, "AnnotationClassID": -1, "Element": "0100D3344020EAF6D01183AD080009B996CC080006000200000000000A00000054006500...", "SymbolID": -1, "Status": 0, "TextString": "17G", "FontName": "Arial", "FontSize": 25, "Bold": 1, "Italic": 0, "Underline": 0, "VerticalAlignment": 3, "HorizontalAlignment": 1, "XOffset": 0, "YOffset": 0, "Angle": 0, "FontLeading": 0, "WordSpacing": 100, "CharacterWidth": 100, "CharacterSpacing": 0, "FlipAngle": 0, "Override": 64, "Shape_Length": 392.79777082800865, "Shape_Area": 9006.108950408583 }, "geometry": { "type": "MultiPolygon", "coordinates": [ [ [ [ -122.485023547339893, 48.733963783012548 ], [ -122.485030035275514, 48.73416371339902 ], [ -122.484518679616002, 48.734170973257882 ], [ -122.484512193687777, 48.733971042843415 ], [ -122.485023547339893, 48.733963783012548 ] ] ] ] } },
{ "type": "Feature", "properties": { "FeatureID": -1, "ZOrder": null, "AnnotationClassID": -1, "Element": "0100D3344020EAF6D01183AD080009B996CC080006000200000000000A00000054006500...", "SymbolID": -1, "Status": 0, "TextString": "AIC", "FontName": "Arial", "FontSize": 25, "Bold": 1, "Italic": 0, "Underline": 0, "VerticalAlignment": 3, "HorizontalAlignment": 1, "XOffset": 0, "YOffset": 0, "Angle": 0, "FontLeading": 0, "WordSpacing": 100, "CharacterWidth": 100, "CharacterSpacing": 0, "FlipAngle": 0, "Override": 64, "Shape_Length": 370.85949450731277, "Shape_Area": 8205.7989199304157 }, "geometry": { "type": "MultiPolygon", "coordinates": [ [ [ [ -122.485195562154132, 48.732030955844429 ], [ -122.485202050518964, 48.732230886361364 ], [ -122.484736153184855, 48.732237501871786 ], [ -122.484729666648903, 48.732037571329343 ], [ -122.485195562154132, 48.732030955844429 ] ] ] ] } },
{ "type": "Feature", "properties": { "FeatureID": -1, "ZOrder": null, "AnnotationClassID": -1, "Element": "0100D3344020EAF6D01183AD080009B996CC080006000200000000000A00000054006500...", "SymbolID": -1, "Status": 0, "TextString": "17G", "FontName": "Arial", "FontSize": 25, "Bold": 1, "Italic": 0, "Underline": 0, "VerticalAlignment": 3, "HorizontalAlignment": 1, "XOffset": 0, "YOffset": 0, "Angle": 0, "FontLeading": 0, "WordSpacing": 100, "CharacterWidth": 100, "CharacterSpacing": 0, "FlipAngle": 0, "Override": 64, "Shape_Length": 392.79777082800865, "Shape_Area": 9006.108950408583 }, "geometry": { "type": "MultiPolygon", "coordinates": [ [ [ [ -122.485016250275251, 48.732851400052539 ], [ -122.485022738040428, 48.73305133052007 ], [ -122.484511393553646, 48.733058590349792 ], [ -122.484504907795781, 48.732858659854294 ], [ -122.485016250275251, 48.732851400052539 ] ] ] ] } },
{ "type": "Feature", "properties": { "FeatureID": -1, "ZOrder": null, "AnnotationClassID": -1, "Element": "0100D3344020EAF6D01183AD080009B996CC080006000200000000000A00000054006500...", "SymbolID": -1, "Status": 0, "TextString": "29G", "FontName": "Arial", "FontSize": 25, "Bold": 1, "Italic": 0, "Underline": 0, "VerticalAlignment": 3, "HorizontalAlignment": 1, "XOffset": 0, "YOffset": 0, "Angle": 0, "FontLeading": 0, "WordSpacing": 100, "CharacterWidth": 100, "CharacterSpacing": 0, "FlipAngle": 0, "Override": 64, "Shape_Length": 392.79777085781097, "Shape_Area": 9006.1089514957748 }, "geometry": { "type": "MultiPolygon", "coordinates": [ [ [ [ -122.485632795353055, 48.730498724347306 ], [ -122.485639285239699, 48.730698654950707 ], [ -122.485127964471587, 48.73070591749665 ], [ -122.485121476592056, 48.730505986865253 ], [ -122.485632795353055, 48.730498724347306 ] ] ] ] } },
{ "type": "Feature", "properties": { "FeatureID": -1, "ZOrder": null, "AnnotationClassID": -1, "Element": "0100D3344020EAF6D01183AD080009B996CC080006000200000000000A00000054006500...", "SymbolID": -1, "Status": 0, "TextString": "20R", "FontName": "Arial", "FontSize": 25, "Bold": 1, "Italic": 0, "Underline": 0, "VerticalAlignment": 3, "HorizontalAlignment": 1, "XOffset": 0, "YOffset": 0, "Angle": 0, "FontLeading": 0, "WordSpacing": 100, "CharacterWidth": 100, "CharacterSpacing": 0, "FlipAngle": 0, "Override": 64, "Shape_Length": 385.52744415402412, "Shape_Area": 8740.8868658518695 }, "geometry": { "type": "MultiPolygon", "coordinates": [ [ [ [ -122.491313466455907, 48.731855069705134 ], [ -122.491319978825103, 48.73205499989291 ], [ -122.490823703577249, 48.732062072825414 ], [ -122.490817193156161, 48.731862142610382 ], [ -122.491313466455907, 48.731855069705134 ] ] ] ] } },
{ "type": "Feature", "properties": { "FeatureID": -1, "ZOrder": null, "AnnotationClassID": -1, "Element": "0100D3344020EAF6D01183AD080009B996CC080006000200000000000A00000054006500...", "SymbolID": -1, "Status": 0, "TextString": "C\/CR", "FontName": "Arial", "FontSize": 25, "Bold": 1, "Italic": 0, "Underline": 0, "VerticalAlignment": 3, "HorizontalAlignment": 1, "XOffset": 0, "YOffset": 0, "Angle": 0, "FontLeading": 0, "WordSpacing": 100, "CharacterWidth": 100, "CharacterSpacing": 0, "FlipAngle": 0, "Override": 64, "Shape_Length": 465.18476516008377, "Shape_Area": 11646.792146903599 }, "geometry": { "type": "MultiPolygon", "coordinates": [ [ [ [ -122.490280758540251, 48.729938790556986 ], [ -122.490287266608718, 48.730138720941206 ], [ -122.489626029468766, 48.730148138935625 ], [ -122.489619523995827, 48.729948208515097 ], [ -122.490280758540251, 48.729938790556986 ] ] ] ] } },
{ "type": "Feature", "properties": { "FeatureID": -1, "ZOrder": null, "AnnotationClassID": -1, "Element": "0100D3344020EAF6D01183AD080009B996CC080006000200000000000A00000054006500...", "SymbolID": -1, "Status": 0, "TextString": "15R", "FontName": "Arial", "FontSize": 25, "Bold": 1, "Italic": 0, "Underline": 0, "VerticalAlignment": 3, "HorizontalAlignment": 1, "XOffset": 0, "YOffset": 0, "Angle": 0, "FontLeading": 0, "WordSpacing": 100, "CharacterWidth": 100, "CharacterSpacing": 0, "FlipAngle": 0, "Override": 64, "Shape_Length": 385.52744418382645, "Shape_Area": 8740.8868676370803 }, "geometry": { "type": "MultiPolygon", "coordinates": [ [ [ [ -122.488946844312451, 48.735735648067049 ], [ -122.488953347883012, 48.735935578105902 ], [ -122.488457034473939, 48.735942640932436 ], [ -122.488450532851829, 48.735742710866361 ], [ -122.488946844312451, 48.735735648067049 ] ] ] ] } },
{ "type": "Feature", "properties": { "FeatureID": -1, "ZOrder": null, "AnnotationClassID": -1, "Element": "0100D3344020EAF6D01183AD080009B996CC080006000200000000000A00000054006500...", "SymbolID": -1, "Status": 0, "TextString": "14G", "FontName": "Arial", "FontSize": 25.000076308846474, "Bold": 1, "Italic": 0, "Underline": 0, "VerticalAlignment": 3, "HorizontalAlignment": 1, "XOffset": 0, "YOffset": 0, "Angle": 0, "FontLeading": 0, "WordSpacing": 100, "CharacterWidth": 100, "CharacterSpacing": 0, "FlipAngle": 0, "Override": 0, "Shape_Length": 392.79777079820633, "Shape_Area": 9006.1089485692028 }, "geometry": { "type": "MultiPolygon", "coordinates": [ [ [ [ -122.488091961749703, 48.736421121198568 ], [ -122.488098462050147, 48.736621051235339 ], [ -122.487587082143108, 48.736628324574603 ], [ -122.487580583850232, 48.736428394509787 ], [ -122.488091961749703, 48.736421121198568 ] ] ] ] } },
{ "type": "Feature", "properties": { "FeatureID": -1, "ZOrder": null, "AnnotationClassID": -1, "Element": "0100D3344020EAF6D01183AD080009B996CC080006000200000000000A00000054006500...", "SymbolID": -1, "Status": 0, "TextString": "15R", "FontName": "Arial", "FontSize": 25, "Bold": 1, "Italic": 0, "Underline": 0, "VerticalAlignment": 3, "HorizontalAlignment": 1, "XOffset": 0, "YOffset": 0, "Angle": 0, "FontLeading": 0, "WordSpacing": 100, "CharacterWidth": 100, "CharacterSpacing": 0, "FlipAngle": 0, "Override": 64, "Shape_Length": 385.52744415402412, "Shape_Area": 8740.8868658518695 }, "geometry": { "type": "MultiPolygon", "coordinates": [ [ [ [ -122.489629899050129, 48.735018542783401 ], [ -122.489636405211769, 48.735218472836081 ], [ -122.489140098889195, 48.735225538578369 ], [ -122.489133594675877, 48.735025608498447 ], [ -122.489629899050129, 48.735018542783401 ] ] ] ] } },
{ "type": "Feature", "properties": { "FeatureID": -1, "ZOrder": null, "AnnotationClassID": -1, "Element": "0100D3344020EAF6D01183AD080009B996CC080006000200000000000A00000054006500...", "SymbolID": -1, "Status": 0, "TextString": "C\/CR", "FontName": "Arial", "FontSize": 25, "Bold": 1, "Italic": 0, "Underline": 0, "VerticalAlignment": 3, "HorizontalAlignment": 1, "XOffset": 0, "YOffset": 0, "Angle": 0, "FontLeading": 0, "WordSpacing": 100, "CharacterWidth": 100, "CharacterSpacing": 0, "FlipAngle": 0, "Override": 64, "Shape_Length": 465.18476518988609, "Shape_Area": 11646.792147990789 }, "geometry": { "type": "MultiPolygon", "coordinates": [ [ [ [ -122.491223722776681, 48.728115304383593 ], [ -122.491230234315069, 48.728315234846725 ], [ -122.490569021032755, 48.728324658207434 ], [ -122.490562512089724, 48.728124727707979 ], [ -122.491223722776681, 48.728115304383593 ] ] ] ] } },
{ "type": "Feature", "properties": { "FeatureID": -1, "ZOrder": null, "AnnotationClassID": -1, "Element": "0100D3344020EAF6D01183AD080009B996CC080006000200000000000A00000054006500...", "SymbolID": -1, "Status": 0, "TextString": "C\/CR", "FontName": "Arial", "FontSize": 25, "Bold": 1, "Italic": 0, "Underline": 0, "VerticalAlignment": 3, "HorizontalAlignment": 1, "XOffset": 0, "YOffset": 0, "Angle": 0, "FontLeading": 0, "WordSpacing": 100, "CharacterWidth": 100, "CharacterSpacing": 0, "FlipAngle": 0, "Override": 64, "Shape_Length": 465.18476518988609, "Shape_Area": 11646.792147990789 }, "geometry": { "type": "MultiPolygon", "coordinates": [ [ [ [ -122.48964745122872, 48.729195433534365 ], [ -122.489653956715102, 48.729395364007715 ], [ -122.488992729112823, 48.729404778404842 ], [ -122.488986226221911, 48.729204847895218 ], [ -122.48964745122872, 48.729195433534365 ] ] ] ] } },
{ "type": "Feature", "properties": { "FeatureID": -1, "ZOrder": null, "AnnotationClassID": -1, "Element": "0100D3344020EAF6D01183AD080009B996CC080006000200000000000A00000054006500...", "SymbolID": -1, "Status": 0, "TextString": "C\/CR", "FontName": "Arial", "FontSize": 25, "Bold": 1, "Italic": 0, "Underline": 0, "VerticalAlignment": 3, "HorizontalAlignment": 1, "XOffset": 0, "YOffset": 0, "Angle": 0, "FontLeading": 0, "WordSpacing": 100, "CharacterWidth": 100, "CharacterSpacing": 0, "FlipAngle": 0, "Override": 64, "Shape_Length": 465.18476518988609, "Shape_Area": 11646.792147990789 }, "geometry": { "type": "MultiPolygon", "coordinates": [ [ [ [ -122.488652188348453, 48.729535529998742 ], [ -122.48865868996981, 48.729735460503179 ], [ -122.487997457766355, 48.729744869241884 ], [ -122.487990958740525, 48.729544938701174 ], [ -122.488652188348453, 48.729535529998742 ] ] ] ] } },
{ "type": "Feature", "properties": { "FeatureID": -1, "ZOrder": null, "AnnotationClassID": -1, "Element": "0100D3344020EAF6D01183AD080009B996CC080006000200000000000A00000054006500...", "SymbolID": -1, "Status": 0, "TextString": "C\/CR", "FontName": "Arial", "FontSize": 25, "Bold": 1, "Italic": 0, "Underline": 0, "VerticalAlignment": 3, "HorizontalAlignment": 1, "XOffset": 0, "YOffset": 0, "Angle": 88, "FontLeading": 0, "WordSpacing": 100, "CharacterWidth": 100, "CharacterSpacing": 0, "FlipAngle": 0, "Override": 64, "Shape_Length": 465.18468483954854, "Shape_Area": 11646.788797447643 }, "geometry": { "type": "MultiPolygon", "coordinates": [ [ [ [ -122.487198951938367, 48.729996342275633 ], [ -122.487501214038602, 48.729999025472651 ], [ -122.487492343404782, 48.730436522062888 ], [ -122.487190080095672, 48.730433839722998 ], [ -122.487198951938367, 48.729996342275633 ] ] ] ] } },
{ "type": "Feature", "properties": { "FeatureID": -1, "ZOrder": null, "AnnotationClassID": -1, "Element": "0100D3344020EAF6D01183AD080009B996CC080006000200000000000A00000054006500...", "SymbolID": -1, "Status": 0, "TextString": "12A", "FontName": "Arial", "FontSize": 25, "Bold": 1, "Italic": 0, "Underline": 0, "VerticalAlignment": 3, "HorizontalAlignment": 1, "XOffset": 0, "YOffset": 0, "Angle": 0, "FontLeading": 0, "WordSpacing": 100, "CharacterWidth": 100, "CharacterSpacing": 0, "FlipAngle": 0, "Override": 64, "Shape_Length": 385.52744415402412, "Shape_Area": 8740.8868658518695 }, "geometry": { "type": "MultiPolygon", "coordinates": [ [ [ [ -122.486974788523838, 48.730262186676995 ], [ -122.48698128365055, 48.730462117222579 ], [ -122.486485023328484, 48.730469171650498 ], [ -122.486478530149768, 48.730269241077728 ], [ -122.486974788523838, 48.730262186676995 ] ] ] ] } },
{ "type": "Feature", "properties": { "FeatureID": -1, "ZOrder": null, "AnnotationClassID": -1, "Element": "0100D3344020EAF6D01183AD080009B996CC080006000200000000000A00000054006500...", "SymbolID": -1, "Status": 0, "TextString": "23V", "FontName": "Arial", "FontSize": 25, "Bold": 1, "Italic": 0, "Underline": 0, "VerticalAlignment": 3, "HorizontalAlignment": 1, "XOffset": 0, "YOffset": 0, "Angle": 0, "FontLeading": 0, "WordSpacing": 100, "CharacterWidth": 100, "CharacterSpacing": 0, "FlipAngle": 0, "Override": 64, "Shape_Length": 378.32142186164856, "Shape_Area": 8478.0106115454346 }, "geometry": { "type": "MultiPolygon", "coordinates": [ [ [ [ -122.490154198916585, 48.728015874489849 ], [ -122.490160706242278, 48.728215805020021 ], [ -122.489679392280422, 48.728222660482658 ], [ -122.489672886843991, 48.728022729926074 ], [ -122.490154198916585, 48.728015874489849 ] ] ] ] } },
{ "type": "Feature", "properties": { "FeatureID": -1, "ZOrder": null, "AnnotationClassID": -1, "Element": "0100D3344020EAF6D01183AD080009B996CC080006000200000000000A00000054006500...", "SymbolID": -1, "Status": 0, "TextString": "18R", "FontName": "Arial", "FontSize": 25, "Bold": 1, "Italic": 0, "Underline": 0, "VerticalAlignment": 3, "HorizontalAlignment": 1, "XOffset": 0, "YOffset": 0, "Angle": 0, "FontLeading": 0, "WordSpacing": 100, "CharacterWidth": 100, "CharacterSpacing": 0, "FlipAngle": 0, "Override": 64, "Shape_Length": 385.52744418382645, "Shape_Area": 8740.8868676370803 }, "geometry": { "type": "MultiPolygon", "coordinates": [ [ [ [ -122.487458666987209, 48.72933288974388 ], [ -122.487465163895621, 48.729532820329624 ], [ -122.486968912699098, 48.729539876824141 ], [ -122.48696241773861, 48.729339946211191 ], [ -122.487458666987209, 48.72933288974388 ] ] ] ] } },
{ "type": "Feature", "properties": { "FeatureID": -1, "ZOrder": null, "AnnotationClassID": -1, "Element": "0100D3344020EAF6D01183AD080009B996CC080006000200000000000A00000054006500...", "SymbolID": -1, "Status": 0, "TextString": "22G", "FontName": "Arial", "FontSize": 25, "Bold": 1, "Italic": 0, "Underline": 0, "VerticalAlignment": 3, "HorizontalAlignment": 1, "XOffset": 0, "YOffset": 0, "Angle": 0, "FontLeading": 0, "WordSpacing": 100, "CharacterWidth": 100, "CharacterSpacing": 0, "FlipAngle": 0, "Override": 64, "Shape_Length": 392.79777085781097, "Shape_Area": 9006.1089514957748 }, "geometry": { "type": "MultiPolygon", "coordinates": [ [ [ [ -122.485150436404226, 48.727242307889213 ], [ -122.485156923981577, 48.727442238754669 ], [ -122.484645635849162, 48.727449499189056 ], [ -122.484639150278696, 48.727249568295612 ], [ -122.485150436404226, 48.727242307889213 ] ] ] ] } },
{ "type": "Feature", "properties": { "FeatureID": -1, "ZOrder": null, "AnnotationClassID": -1, "Element": "0100D3344020EAF6D01183AD080009B996CC080006000200000000000A00000054006500...", "SymbolID": -1, "Status": 0, "TextString": "1R", "FontName": "Arial", "FontSize": 25, "Bold": 1, "Italic": 0, "Underline": 0, "VerticalAlignment": 3, "HorizontalAlignment": 1, "XOffset": 0, "YOffset": 0, "Angle": 0, "FontLeading": 0, "WordSpacing": 100, "CharacterWidth": 100, "CharacterSpacing": 0, "FlipAngle": 0, "Override": 64, "Shape_Length": 312.88716951012611, "Shape_Area": 6090.9639845339452 }, "geometry": { "type": "MultiPolygon", "coordinates": [ [ [ [ -122.486161317930765, 48.726876024642706 ], [ -122.486167809431052, 48.727075955478178 ], [ -122.485822020346106, 48.727080869068438 ], [ -122.485815530203041, 48.726880938214038 ], [ -122.486161317930765, 48.726876024642706 ] ] ] ] } },
{ "type": "Feature", "properties": { "FeatureID": -1, "ZOrder": null, "AnnotationClassID": -1, "Element": "0100D3344020EAF6D01183AD080009B996CC080006000200000000000A00000054006500...", "SymbolID": -1, "Status": 0, "TextString": "33G", "FontName": "Arial", "FontSize": 25, "Bold": 1, "Italic": 0, "Underline": 0, "VerticalAlignment": 3, "HorizontalAlignment": 1, "XOffset": 0, "YOffset": 0, "Angle": 0, "FontLeading": 0, "WordSpacing": 100, "CharacterWidth": 100, "CharacterSpacing": 0, "FlipAngle": 0, "Override": 64, "Shape_Length": 392.79777082800865, "Shape_Area": 9006.1089496563945 }, "geometry": { "type": "MultiPolygon", "coordinates": [ [ [ [ -122.485259908233687, 48.726052742024024 ], [ -122.48526639608933, 48.726252672969053 ], [ -122.484755119918418, 48.726259933887746 ], [ -122.484748634069533, 48.726060002914728 ], [ -122.485259908233687, 48.726052742024024 ] ] ] ] } },
{ "type": "Feature", "properties": { "FeatureID": -1, "ZOrder": null, "AnnotationClassID": -1, "Element": "0100D3344020EAF6D01183AD080009B996CC080006000200000000000A00000054006500...", "SymbolID": -1, "Status": 0, "TextString": "13A", "FontName": "Arial", "FontSize": 18, "Bold": 1, "Italic": 0, "Underline": 0, "VerticalAlignment": 3, "HorizontalAlignment": 1, "XOffset": 0, "YOffset": 0, "Angle": 89, "FontLeading": 0, "WordSpacing": 100, "CharacterWidth": 100, "CharacterSpacing": 0, "FlipAngle": 0, "Override": 64, "Shape_Length": 277.58043623596956, "Shape_Area": 4531.2949356079744 }, "geometry": { "type": "MultiPolygon", "coordinates": [ [ [ [ -122.483986728517692, 48.724479987689776 ], [ -122.484204351872947, 48.724479412674462 ], [ -122.484205780163322, 48.724715838016529 ], [ -122.483988157185536, 48.724716413914201 ], [ -122.483986728517692, 48.724479987689776 ] ] ] ] } },
{ "type": "Feature", "properties": { "FeatureID": -1, "ZOrder": null, "AnnotationClassID": -1, "Element": "0100D3344020EAF6D01183AD080009B996CC080006000200000000000A00000054006500...", "SymbolID": -1, "Status": 0, "TextString": "27R", "FontName": "Arial", "FontSize": 25, "Bold": 1, "Italic": 0, "Underline": 0, "VerticalAlignment": 3, "HorizontalAlignment": 1, "XOffset": 0, "YOffset": 0, "Angle": 0, "FontLeading": 0, "WordSpacing": 100, "CharacterWidth": 100, "CharacterSpacing": 0, "FlipAngle": 0, "Override": 64, "Shape_Length": 385.52744418382645, "Shape_Area": 8740.8868676370803 }, "geometry": { "type": "MultiPolygon", "coordinates": [ [ [ [ -122.478436536856705, 48.731678443091639 ], [ -122.478442998631991, 48.731878374010293 ], [ -122.477946723324123, 48.731885392010525 ], [ -122.477940263496933, 48.731685461064814 ], [ -122.478436536856705, 48.731678443091639 ] ] ] ] } },
{ "type": "Feature", "properties": { "FeatureID": -1, "ZOrder": null, "AnnotationClassID": -1, "Element": "0100D3344020EAF6D01183AD080009B996CC080006000200000000000A00000054006500...", "SymbolID": -1, "Status": 0, "TextString": "32G", "FontName": "Arial", "FontSize": 25, "Bold": 1, "Italic": 0, "Underline": 0, "VerticalAlignment": 3, "HorizontalAlignment": 1, "XOffset": 0, "YOffset": 0, "Angle": 0, "FontLeading": 0, "WordSpacing": 100, "CharacterWidth": 100, "CharacterSpacing": 0, "FlipAngle": 0, "Override": 64, "Shape_Length": 392.79777082800865, "Shape_Area": 9006.108950408583 }, "geometry": { "type": "MultiPolygon", "coordinates": [ [ [ [ -122.474352727085943, 48.730966978711876 ], [ -122.474359172732861, 48.73116690990858 ], [ -122.47384784565827, 48.731174122872538 ], [ -122.473841402018536, 48.730974191648038 ], [ -122.474352727085943, 48.730966978711876 ] ] ] ] } },
{ "type": "Feature", "properties": { "FeatureID": -1, "ZOrder": null, "AnnotationClassID": -1, "Element": "0100D3344020EAF6D01183AD080009B996CC080006000200000000000A00000054006500...", "SymbolID": -1, "Status": 0, "TextString": "24G", "FontName": "Arial", "FontSize": 25, "Bold": 1, "Italic": 0, "Underline": 0, "VerticalAlignment": 3, "HorizontalAlignment": 1, "XOffset": 0, "YOffset": 0, "Angle": 0, "FontLeading": 0, "WordSpacing": 100, "CharacterWidth": 100, "CharacterSpacing": 0, "FlipAngle": 0, "Override": 64, "Shape_Length": 392.79777082800865, "Shape_Area": 9006.108950408583 }, "geometry": { "type": "MultiPolygon", "coordinates": [ [ [ [ -122.483595476109031, 48.724283279205352 ], [ -122.483601957203504, 48.724483210370579 ], [ -122.483090698563714, 48.724490463978029 ], [ -122.483084219475927, 48.724290532784842 ], [ -122.483595476109031, 48.724283279205352 ] ] ] ] } },
{ "type": "Feature", "properties": { "FeatureID": -1, "ZOrder": null, "AnnotationClassID": -1, "Element": "0100D3344020EAF6D01183AD080009B996CC080006000200000000000A00000054006500...", "SymbolID": -1, "Status": 0, "TextString": "26CP", "FontName": "Arial", "FontSize": 25, "Bold": 1, "Italic": 0, "Underline": 0, "VerticalAlignment": 3, "HorizontalAlignment": 1, "XOffset": 0, "YOffset": 0, "Angle": 0, "FontLeading": 0, "WordSpacing": 100, "CharacterWidth": 100, "CharacterSpacing": 0, "FlipAngle": 0, "Override": 64, "Shape_Length": 472.64669251441956, "Shape_Area": 11919.003838518618 }, "geometry": { "type": "MultiPolygon", "coordinates": [ [ [ [ -122.487032522813507, 48.730729491138995 ], [ -122.487039018226596, 48.730929421647595 ], [ -122.486362315362229, 48.730939040818811 ], [ -122.486355822605461, 48.730739110273134 ], [ -122.487032522813507, 48.730729491138995 ] ] ] ] } },
{ "type": "Feature", "properties": { "FeatureID": -1, "ZOrder": null, "AnnotationClassID": -1, "Element": "0100D3344020EAF6D01183AD080009B996CC080006000200000000000A00000054006500...", "SymbolID": -1, "Status": 0, "TextString": "24G", "FontName": "Arial", "FontSize": 18, "Bold": 1, "Italic": 0, "Underline": 0, "VerticalAlignment": 3, "HorizontalAlignment": 1, "XOffset": 0, "YOffset": 0, "Angle": 0, "FontLeading": 0, "WordSpacing": 100, "CharacterWidth": 100, "CharacterSpacing": 0, "FlipAngle": 0, "Override": 64, "Shape_Length": 282.81570735573769, "Shape_Area": 4668.8042119801603 }, "geometry": { "type": "MultiPolygon", "coordinates": [ [ [ [ -122.48392498233622, 48.724544854763771 ], [ -122.483929649681656, 48.724688805393242 ], [ -122.483561539631296, 48.724694029287726 ], [ -122.483556873326123, 48.724550078643759 ], [ -122.48392498233622, 48.724544854763771 ] ] ] ] } },
{ "type": "Feature", "properties": { "FeatureID": -1, "ZOrder": null, "AnnotationClassID": -1, "Element": "0100D3344020EAF6D01183AD080009B996CC080006000200000000000A00000054006500...", "SymbolID": -1, "Status": 0, "TextString": "CBS", "FontName": "Arial", "FontSize": 25, "Bold": 1, "Italic": 0, "Underline": 0, "VerticalAlignment": 3, "HorizontalAlignment": 1, "XOffset": 0, "YOffset": 0, "Angle": 0, "FontLeading": 0, "WordSpacing": 100, "CharacterWidth": 100, "CharacterSpacing": 0, "FlipAngle": 0, "Override": 64, "Shape_Length": 421.68878915905952, "Shape_Area": 10060.055551457468 }, "geometry": { "type": "MultiPolygon", "coordinates": [ [ [ [ -122.487398617981626, 48.734792111937701 ], [ -122.487405115350938, 48.734992042131545 ], [ -122.486833908989354, 48.735000163092522 ], [ -122.486827413862429, 48.734800232867372 ], [ -122.487398617981626, 48.734792111937701 ] ] ] ] } },
{ "type": "Feature", "properties": { "FeatureID": -1, "ZOrder": null, "AnnotationClassID": -1, "Element": "0100D3344020EAF6D01183AD080009B996CC080006000200000000000A00000054006500...", "SymbolID": -1, "Status": 0, "TextString": "10G", "FontName": "Arial", "FontSize": 18, "Bold": 1, "Italic": 0, "Underline": 0, "VerticalAlignment": 3, "HorizontalAlignment": 1, "XOffset": 0, "YOffset": 0, "Angle": 0, "FontLeading": 0, "WordSpacing": 100, "CharacterWidth": 100, "CharacterSpacing": 0, "FlipAngle": 0, "Override": 0, "Shape_Length": 282.81373885273933, "Shape_Area": 4668.7405835036079 }, "geometry": { "type": "MultiPolygon", "coordinates": [ [ [ [ -122.484216655880005, 48.736888731271286 ], [ -122.484221325152916, 48.737032680347262 ], [ -122.48385312858494, 48.737037905102781 ], [ -122.48384846035276, 48.736893956012302 ], [ -122.484216655880005, 48.736888731271286 ] ] ] ] } },
{ "type": "Feature", "properties": { "FeatureID": -1, "ZOrder": null, "AnnotationClassID": -1, "Element": "0100D3344020EAF6D01183AD080009B996CC080006000200000000000A00000054006500...", "SymbolID": -1, "Status": 0, "TextString": "10G", "FontName": "Arial", "FontSize": 18, "Bold": 1, "Italic": 0, "Underline": 0, "VerticalAlignment": 3, "HorizontalAlignment": 1, "XOffset": 0, "YOffset": 0, "Angle": 0, "FontLeading": 0, "WordSpacing": 100, "CharacterWidth": 100, "CharacterSpacing": 0, "FlipAngle": 0, "Override": 0, "Shape_Length": 282.81373882293701, "Shape_Area": 4668.740582720834 }, "geometry": { "type": "MultiPolygon", "coordinates": [ [ [ [ -122.484872857285268, 48.735369317871893 ], [ -122.484877528274438, 48.735513267000997 ], [ -122.484509342763928, 48.735518493836096 ], [ -122.484504672815433, 48.735374544692483 ], [ -122.484872857285268, 48.735369317871893 ] ] ] ] } },
{ "type": "Feature", "properties": { "FeatureID": -1, "ZOrder": null, "AnnotationClassID": -1, "Element": "0100D3344020EAF6D01183AD080009B996CC080006000200000000000A00000054006500...", "SymbolID": -1, "Status": 0, "TextString": "8G", "FontName": "Arial", "FontSize": 18, "Bold": 1, "Italic": 0, "Underline": 0, "VerticalAlignment": 3, "HorizontalAlignment": 1, "XOffset": 0, "YOffset": 0, "Angle": 0, "FontLeading": 0, "WordSpacing": 100, "CharacterWidth": 100, "CharacterSpacing": 0, "FlipAngle": 0, "Override": 0, "Shape_Length": 230.51200616359711, "Shape_Area": 3295.0077782510962 }, "geometry": { "type": "MultiPolygon", "coordinates": [ [ [ [ -122.483660080307232, 48.737981485744207 ], [ -122.483664748106406, 48.738125434785303 ], [ -122.48340488428866, 48.738129121082267 ], [ -122.483400217224016, 48.737985172030946 ], [ -122.483660080307232, 48.737981485744207 ] ] ] ] } }
]
}
