{
"type": "FeatureCollection",
"crs": { "type": "name", "properties": { "name": "urn:ogc:def:crs:OGC:1.3:CRS84" } },
                                                                                
"features": [
{ "type": "Feature", "properties": { "featureid": -1, "zorder": null, "annotationclassid": -1, "element": "0100D3344020EAF6D01183AD080009B996CC080006000200000000000A00000054006500...", "symbolid": -1, "status": 0, "textstring": "Sehome\r\nHill\r\nArboretum", "fontname": "Calibri", "fontsize": 11, "bold": 0, "italic": 0, "underline": 0, "verticalalignment": 3, "horizontalalignment": 1, "xoffset": 0, "yoffset": 0, "angle": 0, "fontleading": 0, "wordspacing": 100, "characterwidth": 100, "characterspacing": 0, "flipangle": 0, "override": 0, "shape_Length": 3737.3396381437778, "shape_Area": 864427.23713186395 }, "geometry": { "type": "MultiPolygon", "coordinates": [ [ [ [ -122.481481567493276, 48.734439676148625 ], [ -122.481556271256508, 48.736746556584706 ], [ -122.477302333570137, 48.736806752249173 ], [ -122.477227822494143, 48.734499869135632 ], [ -122.481481567493276, 48.734439676148625 ] ] ] ] } },
{ "type": "Feature", "properties": { "featureid": -1, "zorder": null, "annotationclassid": -1, "element": "0100D3344020EAF6D01183AD080009B996CC080006000200000000000A00000054006500...", "symbolid": -1, "status": 0, "textstring": "18k\r\n(15)", "fontname": "Calibri", "fontsize": 18, "bold": 0, "italic": 0, "underline": 0, "verticalalignment": 3, "horizontalalignment": 1, "xoffset": 0, "yoffset": 0, "angle": 0, "fontleading": 0, "wordspacing": 100, "characterwidth": 100, "characterspacing": 0, "flipangle": 0, "override": 0, "shape_Length": 3055.6192168593407, "shape_Area": 559689.26509297639 }, "geometry": { "type": "MultiPolygon", "coordinates": [ [ [ [ -122.494000710066871, 48.734491172566308 ], [ -122.494082824436248, 48.737007760539207 ], [ -122.491558055805925, 48.737043778019157 ], [ -122.491476066194252, 48.734527188298586 ], [ -122.494000710066871, 48.734491172566308 ] ] ] ] } },
{ "type": "Feature", "properties": { "featureid": -1, "zorder": null, "annotationclassid": -1, "element": "0100D3344020EAF6D01183AD080009B996CC080006000200000000000A00000054006500...", "symbolid": -1, "status": 0, "textstring": "Visitors\r\nCenter", "fontname": "Calibri", "fontsize": 13, "bold": 1, "italic": 0, "underline": 0, "verticalalignment": 3, "horizontalalignment": 1, "xoffset": 0, "yoffset": 0, "angle": 0, "fontleading": -2, "wordspacing": 100, "characterwidth": 100, "characterspacing": 0, "flipangle": 0, "override": 0, "shape_Length": 3096.9879004955292, "shape_Area": 587524.83501596691 }, "geometry": { "type": "MultiPolygon", "coordinates": [ [ [ [ -122.491723657081664, 48.727387583705209 ], [ -122.491783026406452, 48.72920987938771 ], [ -122.488123461529241, 48.729262003375261 ], [ -122.488064223129001, 48.727439705861386 ], [ -122.491723657081664, 48.727387583705209 ] ] ] ] } }
]
}
