{
"type": "FeatureCollection",
"crs": { "type": "name", "properties": { "name": "urn:ogc:def:crs:OGC:1.3:CRS84" } },
                                                                                
"features": [
{ "type": "Feature", "properties": { "notes": "Self-Guided Campus Tour Route", "url": "https:\/\/admissions.wwu.edu\/visit\/tour\/self-guided-tour", "shape_Length": 6600.2254151053321 }, "geometry": { "type": "MultiLineString", "coordinates": [ [ [ -122.489919763841314, 48.727777353425665 ], [ -122.49016546822179, 48.727810978472057 ], [ -122.490186529310591, 48.728148611343279 ], [ -122.490179717197833, 48.728337188916434 ], [ -122.490141339522566, 48.72848433217419 ], [ -122.490001390395776, 48.728693844904591 ], [ -122.489690310706663, 48.72912759354341 ], [ -122.489206898075565, 48.729802624751784 ], [ -122.488775537563512, 48.730378116889618 ], [ -122.488424922590454, 48.730880010026937 ], [ -122.487792408398221, 48.730899479258625 ], [ -122.487396295022677, 48.730953661794793 ], [ -122.487325662646953, 48.730949906317264 ], [ -122.487265124214048, 48.730880324773032 ], [ -122.487259268135077, 48.730860656074924 ], [ -122.486759944035612, 48.730843956584259 ], [ -122.486362989769844, 48.730833535417844 ], [ -122.486104026124721, 48.730835072997337 ] ], [ [ -122.486104026124721, 48.730835072997337 ], [ -122.48607215217379, 48.730784122236429 ], [ -122.486066419119396, 48.730574304902554 ], [ -122.486069977841396, 48.730351505050976 ], [ -122.48603049533952, 48.73033207575007 ] ], [ [ -122.486104026124721, 48.730835072997337 ], [ -122.486043344996659, 48.730910661699014 ], [ -122.486021521647487, 48.7310971915892 ], [ -122.486115421018212, 48.731246974237948 ], [ -122.486196786297086, 48.731370758181157 ], [ -122.486193306689231, 48.731474090767115 ], [ -122.486119584976635, 48.731574614102406 ], [ -122.486086323608234, 48.731636010183706 ], [ -122.48610306861481, 48.731752858359116 ], [ -122.486204581561793, 48.731865646228414 ], [ -122.486274793340399, 48.731989350244717 ], [ -122.486270643634995, 48.732127438145547 ], [ -122.486418983232568, 48.732441367605816 ], [ -122.486541131432119, 48.732569093225521 ], [ -122.486542491212418, 48.732610958652906 ], [ -122.486037406059438, 48.733348455554065 ], [ -122.485983994827251, 48.733669815632261 ], [ -122.485947034911717, 48.733883273148678 ], [ -122.485934541771726, 48.734163315656808 ], [ -122.486397058239092, 48.734158945501974 ], [ -122.486317382189441, 48.734807383683105 ], [ -122.486105945856096, 48.734943656969016 ], [ -122.485850215665735, 48.73495680911671 ], [ -122.485826182328779, 48.735634917857837 ], [ -122.485534258039024, 48.736133345640724 ], [ -122.485486530332224, 48.736509796610278 ], [ -122.484992042111031, 48.736793470482723 ], [ -122.484966172102517, 48.736966372916271 ], [ -122.485574947066254, 48.737293874688696 ], [ -122.485522547653332, 48.737342215095225 ], [ -122.485023020116799, 48.73769259438145 ], [ -122.484320555333696, 48.738149206490505 ], [ -122.483651652841743, 48.738612691874287 ], [ -122.483661943985936, 48.738785794988836 ], [ -122.483663317022646, 48.738909786092798 ], [ -122.483725871156906, 48.738970809507492 ], [ -122.48384822630652, 48.739054746085657 ], [ -122.483722684376843, 48.739149934032774 ], [ -122.48382829745097, 48.739216854925374 ], [ -122.483970935723548, 48.739177349305095 ], [ -122.484212611322732, 48.739173919931524 ], [ -122.484483078401965, 48.739229053767723 ], [ -122.484614185692749, 48.739308153124938 ], [ -122.48530067852262, 48.738857611055792 ], [ -122.485744938017817, 48.738562450593051 ], [ -122.486115370550536, 48.738801355449191 ], [ -122.486177854396757, 48.738797611942054 ], [ -122.486603920555666, 48.738555957612384 ] ] ] } }
]
}
